﻿{
	"panels": 
		[
			{
				"listinfo": 
					[
						{
							"paneltype": "Default_Full",
							"defence": -1,
							"value": 0
						},
						{
							"paneltype": "Wafer_floor",
							"defence": 1,
							"value": 0
						}
					]
			},
			{
				"listinfo": 
					[
						{
							"paneltype": "Default_Full",
							"defence": -1,
							"value": 0
						},
						{
							"paneltype": "Wafer_floor",
							"defence": 1,
							"value": 0
						}
					]
			},
			{
				"listinfo": 
					[
						{
							"paneltype": "Default_Full",
							"defence": -1,
							"value": 0
						},
						{
							"paneltype": "Wafer_floor",
							"defence": 1,
							"value": 0
						}
					]
			},
			{
				"listinfo": 
					[
						{
							"paneltype": "Default_Full",
							"defence": -1,
							"value": 0
						},
						{
							"paneltype": "Wafer_floor",
							"defence": 1,
							"value": 0
						}
					]
			},
			{
				"listinfo": 
					[
						{
							"paneltype": "Default_Full",
							"defence": -1,
							"value": 0
						},
						{
							"paneltype": "Wafer_floor",
							"defence": 1,
							"value": 0
						}
					]
			},
			{
				"listinfo": 
					[
						{
							"paneltype": "Default_Full",
							"defence": -1,
							"value": 0
						},
						{
							"paneltype": "Wafer_floor",
							"defence": 1,
							"value": 0
						}
					]
			},
			{
				"listinfo": 
					[
						{
							"paneltype": "Default_Full",
							"defence": -1,
							"value": 0
						},
						{
							"paneltype": "Wafer_floor",
							"defence": 1,
							"value": 0
						}
					]
			},
			{
				"listinfo": 
					[
						{
							"paneltype": "Default_Full",
							"defence": -1,
							"value": 0
						},
						{
							"paneltype": "Wafer_floor",
							"defence": 1,
							"value": 0
						}
					]
			},
			{
				"listinfo": 
					[
						{
							"paneltype": "Default_Full",
							"defence": -1,
							"value": 0
						},
						{
							"paneltype": "Wafer_floor",
							"defence": 1,
							"value": 0
						}
					]
			},
			{
				"listinfo": 
					[
						{
							"paneltype": "Default_Full",
							"defence": -1,
							"value": 0
						},
						{
							"paneltype": "Wafer_floor",
							"defence": 1,
							"value": 0
						}
					]
			},
			{
				"listinfo": 
					[
						{
							"paneltype": "Default_Full",
							"defence": -1,
							"value": 0
						},
						{
							"paneltype": "Wafer_floor",
							"defence": 1,
							"value": 0
						}
					]
			},
			{
				"listinfo": 
					[
						{
							"paneltype": "Default_Full",
							"defence": -1,
							"value": 0
						},
						{
							"paneltype": "Wafer_floor",
							"defence": 1,
							"value": 0
						}
					]
			},
			{
				"listinfo": 
					[
						{
							"paneltype": "Default_Full",
							"defence": -1,
							"value": 0
						},
						{
							"paneltype": "Wafer_floor",
							"defence": 1,
							"value": 0
						}
					]
			},
			{
				"listinfo": 
					[
						{
							"paneltype": "Default_Full",
							"defence": -1,
							"value": 0
						},
						{
							"paneltype": "Wafer_floor",
							"defence": 1,
							"value": 0
						}
					]
			},
			{
				"listinfo": 
					[
						{
							"paneltype": "Default_Full",
							"defence": -1,
							"value": 0
						},
						{
							"paneltype": "Wafer_floor",
							"defence": 1,
							"value": 0
						}
					]
			},
			{
				"listinfo": 
					[
						{
							"paneltype": "Default_Full",
							"defence": -1,
							"value": 0
						},
						{
							"paneltype": "Wafer_floor",
							"defence": 1,
							"value": 0
						}
					]
			},
			{
				"listinfo": 
					[
						{
							"paneltype": "Default_Full",
							"defence": -1,
							"value": 0
						},
						{
							"paneltype": "Wafer_floor",
							"defence": 1,
							"value": 0
						}
					]
			},
			{
				"listinfo": 
					[
						{
							"paneltype": "Default_Full",
							"defence": -1,
							"value": 0
						},
						{
							"paneltype": "Wafer_floor",
							"defence": 1,
							"value": 0
						}
					]
			},
			{
				"listinfo": 
					[
						{
							"paneltype": "Default_Full",
							"defence": -1,
							"value": 0
						},
						{
							"paneltype": "Wafer_floor",
							"defence": 1,
							"value": 0
						}
					]
			},
			{
				"listinfo": 
					[
						{
							"paneltype": "Default_Full",
							"defence": -1,
							"value": 0
						},
						{
							"paneltype": "Wafer_floor",
							"defence": 1,
							"value": 0
						}
					]
			},
			{
				"listinfo": 
					[
						{
							"paneltype": "Default_Full",
							"defence": -1,
							"value": 0
						},
						{
							"paneltype": "Wafer_floor",
							"defence": 1,
							"value": 0
						}
					]
			},
			{
				"listinfo": 
					[
						{
							"paneltype": "Default_Full",
							"defence": -1,
							"value": 0
						},
						{
							"paneltype": "Wafer_floor",
							"defence": 1,
							"value": 0
						}
					]
			},
			{
				"listinfo": 
					[
						{
							"paneltype": "Default_Full",
							"defence": -1,
							"value": 0
						},
						{
							"paneltype": "Wafer_floor",
							"defence": 1,
							"value": 0
						}
					]
			},
			{
				"listinfo": 
					[
						{
							"paneltype": "Default_Full",
							"defence": -1,
							"value": 0
						},
						{
							"paneltype": "Wafer_floor",
							"defence": 1,
							"value": 0
						}
					]
			},
			{
				"listinfo": 
					[
						{
							"paneltype": "Default_Full",
							"defence": -1,
							"value": 0
						},
						{
							"paneltype": "Wafer_floor",
							"defence": 1,
							"value": 0
						}
					]
			},
			{
				"listinfo": 
					[
						{
							"paneltype": "Default_Full",
							"defence": -1,
							"value": 0
						},
						{
							"paneltype": "Wafer_floor",
							"defence": 1,
							"value": 0
						}
					]
			},
			{
				"listinfo": 
					[
						{
							"paneltype": "Default_Full",
							"defence": -1,
							"value": 0
						},
						{
							"paneltype": "Wafer_floor",
							"defence": 1,
							"value": 0
						}
					]
			},
			{
				"listinfo": 
					[
						{
							"paneltype": "Default_Full",
							"defence": -1,
							"value": 0
						}
					]
			},
			{
				"listinfo": 
					[
						{
							"paneltype": "Default_Full",
							"defence": -1,
							"value": 0
						}
					]
			},
			{
				"listinfo": 
					[
						{
							"paneltype": "Default_Full",
							"defence": -1,
							"value": 0
						}
					]
			},
			{
				"listinfo": 
					[
						{
							"paneltype": "Default_Full",
							"defence": -1,
							"value": 0
						}
					]
			},
			{
				"listinfo": 
					[
						{
							"paneltype": "Default_Full",
							"defence": -1,
							"value": 0
						}
					]
			},
			{
				"listinfo": 
					[
						{
							"paneltype": "Default_Full",
							"defence": -1,
							"value": 0
						}
					]
			},
			{
				"listinfo": 
					[
						{
							"paneltype": "Default_Full",
							"defence": -1,
							"value": 0
						}
					]
			},
			{
				"listinfo": 
					[
						{
							"paneltype": "Default_Full",
							"defence": -1,
							"value": 0
						}
					]
			},
			{
				"listinfo": 
					[
						{
							"paneltype": "Default_Full",
							"defence": -1,
							"value": 0
						}
					]
			},
			{
				"listinfo": 
					[
						{
							"paneltype": "Default_Full",
							"defence": -1,
							"value": 0
						},
						{
							"paneltype": "IceCream_Block",
							"defence": 1,
							"value": 0
						}
					]
			},
			{
				"listinfo": 
					[
						{
							"paneltype": "Default_Full",
							"defence": -1,
							"value": 0
						},
						{
							"paneltype": "IceCream_Block",
							"defence": 1,
							"value": 0
						}
					]
			},
			{
				"listinfo": 
					[
						{
							"paneltype": "Default_Full",
							"defence": -1,
							"value": 0
						},
						{
							"paneltype": "IceCream_Block",
							"defence": 1,
							"value": 0
						}
					]
			},
			{
				"listinfo": 
					[
						{
							"paneltype": "Default_Full",
							"defence": -1,
							"value": 0
						},
						{
							"paneltype": "IceCream_Block",
							"defence": 1,
							"value": 0
						}
					]
			},
			{
				"listinfo": 
					[
						{
							"paneltype": "Default_Full",
							"defence": -1,
							"value": 0
						},
						{
							"paneltype": "IceCream_Block",
							"defence": 1,
							"value": 0
						}
					]
			},
			{
				"listinfo": 
					[
						{
							"paneltype": "Default_Full",
							"defence": -1,
							"value": 0
						},
						{
							"paneltype": "IceCream_Block",
							"defence": 1,
							"value": 0
						}
					]
			},
			{
				"listinfo": 
					[
						{
							"paneltype": "Default_Full",
							"defence": -1,
							"value": 0
						},
						{
							"paneltype": "IceCream_Block",
							"defence": 1,
							"value": 0
						}
					]
			},
			{
				"listinfo": 
					[
						{
							"paneltype": "Default_Full",
							"defence": -1,
							"value": 0
						},
						{
							"paneltype": "IceCream_Block",
							"defence": 1,
							"value": 0
						}
					]
			},
			{
				"listinfo": 
					[
						{
							"paneltype": "Default_Full",
							"defence": -1,
							"value": 0
						},
						{
							"paneltype": "IceCream_Block",
							"defence": 1,
							"value": 0
						}
					]
			},
			{
				"listinfo": 
					[
						{
							"paneltype": "Default_Full",
							"defence": -1,
							"value": 0
						},
						{
							"paneltype": "IceCream_Creator",
							"defence": -1,
							"value": 0
						}
					]
			},
			{
				"listinfo": 
					[
						{
							"paneltype": "Default_Full",
							"defence": -1,
							"value": 0
						},
						{
							"paneltype": "Lolly_Cage",
							"defence": 2,
							"value": 0
						}
					]
			},
			{
				"listinfo": 
					[
						{
							"paneltype": "Default_Empty",
							"defence": -1,
							"value": 0
						}
					]
			},
			{
				"listinfo": 
					[
						{
							"paneltype": "Default_Full",
							"defence": -1,
							"value": 0
						},
						{
							"paneltype": "Lolly_Cage",
							"defence": 2,
							"value": 0
						}
					]
			},
			{
				"listinfo": 
					[
						{
							"paneltype": "Default_Full",
							"defence": -1,
							"value": 0
						},
						{
							"paneltype": "Bread_Block",
							"defence": 1,
							"value": 0
						}
					]
			},
			{
				"listinfo": 
					[
						{
							"paneltype": "Default_Full",
							"defence": -1,
							"value": 0
						},
						{
							"paneltype": "Lolly_Cage",
							"defence": 2,
							"value": 0
						}
					]
			},
			{
				"listinfo": 
					[
						{
							"paneltype": "Default_Empty",
							"defence": -1,
							"value": 0
						}
					]
			},
			{
				"listinfo": 
					[
						{
							"paneltype": "Default_Full",
							"defence": -1,
							"value": 0
						},
						{
							"paneltype": "Lolly_Cage",
							"defence": 2,
							"value": 0
						}
					]
			},
			{
				"listinfo": 
					[
						{
							"paneltype": "Default_Full",
							"defence": -1,
							"value": 0
						},
						{
							"paneltype": "IceCream_Creator",
							"defence": -1,
							"value": 0
						}
					]
			},
			{
				"listinfo": 
					[
						{
							"paneltype": "Default_Full",
							"defence": -1,
							"value": 0
						},
						{
							"paneltype": "Wafer_floor",
							"defence": 2,
							"value": 0
						},
						{
							"paneltype": "Ice_Cage",
							"defence": 1,
							"value": 0
						}
					]
			},
			{
				"listinfo": 
					[
						{
							"paneltype": "Default_Full",
							"defence": -1,
							"value": 0
						},
						{
							"paneltype": "Wafer_floor",
							"defence": 2,
							"value": 0
						},
						{
							"paneltype": "Bread_Block",
							"defence": 1,
							"value": 0
						}
					]
			},
			{
				"listinfo": 
					[
						{
							"paneltype": "Default_Full",
							"defence": -1,
							"value": 0
						},
						{
							"paneltype": "Wafer_floor",
							"defence": 2,
							"value": 0
						},
						{
							"paneltype": "Bread_Block",
							"defence": 1,
							"value": 0
						}
					]
			},
			{
				"listinfo": 
					[
						{
							"paneltype": "Default_Full",
							"defence": -1,
							"value": 0
						},
						{
							"paneltype": "Wafer_floor",
							"defence": 2,
							"value": 0
						},
						{
							"paneltype": "Bread_Block",
							"defence": 1,
							"value": 0
						}
					]
			},
			{
				"listinfo": 
					[
						{
							"paneltype": "Default_Full",
							"defence": -1,
							"value": 0
						},
						{
							"paneltype": "Wafer_floor",
							"defence": 2,
							"value": 0
						},
						{
							"paneltype": "Bread_Block",
							"defence": 1,
							"value": 0
						}
					]
			},
			{
				"listinfo": 
					[
						{
							"paneltype": "Default_Full",
							"defence": -1,
							"value": 0
						},
						{
							"paneltype": "Wafer_floor",
							"defence": 2,
							"value": 0
						},
						{
							"paneltype": "Bread_Block",
							"defence": 1,
							"value": 0
						}
					]
			},
			{
				"listinfo": 
					[
						{
							"paneltype": "Default_Full",
							"defence": -1,
							"value": 0
						},
						{
							"paneltype": "Wafer_floor",
							"defence": 2,
							"value": 0
						},
						{
							"paneltype": "Bread_Block",
							"defence": 1,
							"value": 0
						}
					]
			},
			{
				"listinfo": 
					[
						{
							"paneltype": "Default_Full",
							"defence": -1,
							"value": 0
						},
						{
							"paneltype": "Wafer_floor",
							"defence": 2,
							"value": 0
						},
						{
							"paneltype": "Bread_Block",
							"defence": 1,
							"value": 0
						}
					]
			},
			{
				"listinfo": 
					[
						{
							"paneltype": "Default_Full",
							"defence": -1,
							"value": 0
						},
						{
							"paneltype": "Wafer_floor",
							"defence": 2,
							"value": 0
						},
						{
							"paneltype": "Ice_Cage",
							"defence": 1,
							"value": 0
						}
					]
			},
			{
				"listinfo": 
					[
						{
							"paneltype": "Default_Full",
							"defence": -1,
							"value": 0
						},
						{
							"paneltype": "Wafer_floor",
							"defence": 2,
							"value": 0
						},
						{
							"paneltype": "Bread_Block",
							"defence": 2,
							"value": 0
						}
					]
			},
			{
				"listinfo": 
					[
						{
							"paneltype": "Default_Full",
							"defence": -1,
							"value": 0
						},
						{
							"paneltype": "Wafer_floor",
							"defence": 2,
							"value": 0
						},
						{
							"paneltype": "Bread_Block",
							"defence": 2,
							"value": 0
						}
					]
			},
			{
				"listinfo": 
					[
						{
							"paneltype": "Default_Full",
							"defence": -1,
							"value": 0
						},
						{
							"paneltype": "Wafer_floor",
							"defence": 2,
							"value": 0
						},
						{
							"paneltype": "Bread_Block",
							"defence": 2,
							"value": 0
						}
					]
			},
			{
				"listinfo": 
					[
						{
							"paneltype": "Default_Full",
							"defence": -1,
							"value": 0
						},
						{
							"paneltype": "Wafer_floor",
							"defence": 2,
							"value": 0
						},
						{
							"paneltype": "S_Tree",
							"defence": 3,
							"value": 0
						}
					]
			},
			{
				"listinfo": 
					[
						{
							"paneltype": "Default_Full",
							"defence": -1,
							"value": 0
						},
						{
							"paneltype": "Wafer_floor",
							"defence": 2,
							"value": 0
						},
						{
							"paneltype": "Lolly_Cage",
							"defence": 3,
							"value": 0
						}
					]
			},
			{
				"listinfo": 
					[
						{
							"paneltype": "Default_Full",
							"defence": -1,
							"value": 0
						},
						{
							"paneltype": "Wafer_floor",
							"defence": 2,
							"value": 0
						},
						{
							"paneltype": "S_Tree",
							"defence": 3,
							"value": 0
						}
					]
			},
			{
				"listinfo": 
					[
						{
							"paneltype": "Default_Full",
							"defence": -1,
							"value": 0
						},
						{
							"paneltype": "Wafer_floor",
							"defence": 2,
							"value": 0
						},
						{
							"paneltype": "Bread_Block",
							"defence": 2,
							"value": 0
						}
					]
			},
			{
				"listinfo": 
					[
						{
							"paneltype": "Default_Full",
							"defence": -1,
							"value": 0
						},
						{
							"paneltype": "Wafer_floor",
							"defence": 2,
							"value": 0
						},
						{
							"paneltype": "Bread_Block",
							"defence": 2,
							"value": 0
						}
					]
			},
			{
				"listinfo": 
					[
						{
							"paneltype": "Default_Full",
							"defence": -1,
							"value": 0
						},
						{
							"paneltype": "Wafer_floor",
							"defence": 2,
							"value": 0
						},
						{
							"paneltype": "Bread_Block",
							"defence": 2,
							"value": 0
						}
					]
			},
			{
				"listinfo": 
					[
						{
							"paneltype": "Default_Full",
							"defence": -1,
							"value": 0
						},
						{
							"paneltype": "Wafer_floor",
							"defence": 2,
							"value": 0
						},
						{
							"paneltype": "Bread_Block",
							"defence": 3,
							"value": 0
						}
					]
			},
			{
				"listinfo": 
					[
						{
							"paneltype": "Default_Full",
							"defence": -1,
							"value": 0
						},
						{
							"paneltype": "Wafer_floor",
							"defence": 2,
							"value": 0
						},
						{
							"paneltype": "Bread_Block",
							"defence": 2,
							"value": 0
						}
					]
			},
			{
				"listinfo": 
					[
						{
							"paneltype": "Default_Full",
							"defence": -1,
							"value": 0
						},
						{
							"paneltype": "Wafer_floor",
							"defence": 2,
							"value": 0
						},
						{
							"paneltype": "Bread_Block",
							"defence": 2,
							"value": 0
						}
					]
			},
			{
				"listinfo": 
					[
						{
							"paneltype": "Default_Full",
							"defence": -1,
							"value": 0
						},
						{
							"paneltype": "Wafer_floor",
							"defence": 2,
							"value": 0
						},
						{
							"paneltype": "Bread_Block",
							"defence": 2,
							"value": 0
						}
					]
			},
			{
				"listinfo": 
					[
						{
							"paneltype": "Default_Full",
							"defence": -1,
							"value": 0
						},
						{
							"paneltype": "Wafer_floor",
							"defence": 2,
							"value": 0
						},
						{
							"paneltype": "Bread_Block",
							"defence": 2,
							"value": 0
						}
					]
			},
			{
				"listinfo": 
					[
						{
							"paneltype": "Default_Full",
							"defence": -1,
							"value": 0
						},
						{
							"paneltype": "Wafer_floor",
							"defence": 2,
							"value": 0
						},
						{
							"paneltype": "Bread_Block",
							"defence": 2,
							"value": 0
						}
					]
			},
			{
				"listinfo": 
					[
						{
							"paneltype": "Default_Full",
							"defence": -1,
							"value": 0
						},
						{
							"paneltype": "Wafer_floor",
							"defence": 2,
							"value": 0
						},
						{
							"paneltype": "Bread_Block",
							"defence": 2,
							"value": 0
						}
					]
			},
			{
				"listinfo": 
					[
						{
							"paneltype": "Default_Full",
							"defence": -1,
							"value": 0
						},
						{
							"paneltype": "Wafer_floor",
							"defence": 2,
							"value": 0
						},
						{
							"paneltype": "Bread_Block",
							"defence": 2,
							"value": 0
						}
					]
			},
			{
				"listinfo": 
					[
						{
							"paneltype": "Default_Full",
							"defence": -1,
							"value": 0
						},
						{
							"paneltype": "Wafer_floor",
							"defence": 2,
							"value": 0
						},
						{
							"paneltype": "Bread_Block",
							"defence": 3,
							"value": 0
						}
					]
			}
		],
	"items": 
		[
			"Normal",
			"Normal",
			"Normal",
			"Normal",
			"Normal",
			"Normal",
			"Normal",
			"Normal",
			"Normal",
			"Normal",
			"Normal",
			"Normal",
			"Normal",
			"Normal",
			"Normal",
			"Normal",
			"Normal",
			"Normal",
			"Normal",
			"Normal",
			"Normal",
			"Normal",
			"Normal",
			"Normal",
			"Normal",
			"Normal",
			"Normal",
			"Normal",
			"Normal",
			"Normal",
			"Normal",
			"Normal",
			"Normal",
			"Normal",
			"Normal",
			"Normal",
			"Normal",
			"Normal",
			"Normal",
			"Normal",
			"Normal",
			"Normal",
			"Normal",
			"Normal",
			"Normal",
			"Normal",
			"Normal",
			"None",
			"Normal",
			"None",
			"Normal",
			"None",
			"Normal",
			"Normal",
			"Line_Y",
			"Normal",
			"Normal",
			"Normal",
			"Normal",
			"Normal",
			"Normal",
			"Normal",
			"Line_Y",
			"None",
			"None",
			"None",
			"None",
			"Bomb",
			"None",
			"None",
			"None",
			"None",
			"None",
			"None",
			"None",
			"None",
			"None",
			"None",
			"None",
			"None",
			"None"
		],
	"colors": 
		[
			"Rnd",
			"Rnd",
			"Rnd",
			"Rnd",
			"Rnd",
			"Rnd",
			"Rnd",
			"Rnd",
			"Rnd",
			"Rnd",
			"Rnd",
			"Rnd",
			"Rnd",
			"Rnd",
			"Rnd",
			"Rnd",
			"Rnd",
			"Rnd",
			"Rnd",
			"Rnd",
			"Rnd",
			"Rnd",
			"Rnd",
			"Rnd",
			"Rnd",
			"Rnd",
			"Rnd",
			"Rnd",
			"Rnd",
			"Rnd",
			"Rnd",
			"Rnd",
			"Rnd",
			"Rnd",
			"Rnd",
			"Rnd",
			"Rnd",
			"Rnd",
			"Rnd",
			"Rnd",
			"Rnd",
			"Rnd",
			"Rnd",
			"Rnd",
			"Rnd",
			"Rnd",
			"Rnd",
			"None",
			"Rnd",
			"None",
			"Rnd",
			"None",
			"Rnd",
			"Rnd",
			"Rnd",
			"Rnd",
			"Rnd",
			"Rnd",
			"Rnd",
			"Rnd",
			"Rnd",
			"Rnd",
			"Rnd",
			"None",
			"None",
			"None",
			"None",
			"Rnd",
			"None",
			"None",
			"None",
			"None",
			"None",
			"None",
			"None",
			"None",
			"None",
			"None",
			"None",
			"None",
			"None"
		],
	"focus": 
		[],
	"defaultSpawnLine": 
		[
			true,
			true,
			true,
			true,
			true,
			true,
			true,
			true,
			true
		],
	"foodSpawnLine": 
		[
			false,
			false,
			false,
			false,
			false,
			false,
			false,
			false,
			false
		],
	"SpiralSpawnLine": 
		[
			false,
			false,
			false,
			false,
			false,
			false,
			false,
			false,
			false
		],
	"DonutSpawnLine": 
		[
			false,
			false,
			false,
			false,
			false,
			false,
			false,
			false,
			false
		],
	"TimeBombSpawnLine": 
		[
			false,
			false,
			false,
			false,
			false,
			false,
			false,
			false,
			false
		],
	"MysterySpawnLine": 
		[
			false,
			false,
			false,
			false,
			false,
			false,
			false,
			false,
			false
		],
	"ChameleonSpawnLine": 
		[
			false,
			false,
			false,
			false,
			false,
			false,
			false,
			false,
			false
		],
	"KeySpawnLine": 
		[
			false,
			false,
			false,
			false,
			false,
			false,
			false,
			false,
			false
		],
	"appearColor": 
		[
			true,
			true,
			true,
			true,
			false,
			false
		],
	"scoreStar1": 20000,
	"scoreStar2": 52415,
	"scoreStar3": 78267,
	"limit_Move": 38,
	"missionType": "Wafer",
	"isOrderNMission": false,
	"isOrderSMission": false,
	"isWaferMission": true,
	"isFoodMission": false,
	"isBearMission": false,
	"isIceCreamMission": false,
	"isJamMission": false,
	"missionInfo": 
		[
			{
				"type": "Wafer",
				"kind": "Wafer",
				"count": 0
			}
		],
	"food_MaxExist": 0,
	"food_Interval": 0,
	"food_SpawnCnt": 0,
	"Spiral_MinExist": 0,
	"Spiral_MaxExist": 0,
	"Spiral_Interval": 0,
	"Spiral_SpawnCnt": 0,
	"Donut_MinExist": 0,
	"Donut_MaxExist": 0,
	"Donut_Interval": 0,
	"Donut_SpawnCnt": 0,
	"TimeBomb_MinExist": 1,
	"TimeBomb_MaxExist": 81,
	"TimeBomb_Interval": 5,
	"TimeBomb_SpawnCnt": 0,
	"TimeBomb_FirstCount": 9,
	"Bear_MaxExist": 0,
	"Bear_Interval": 0,
	"IceCream_Interval": 1,
	"IceCreamCreator_Interval": 1,
	"Mystery_SettingType": "Mystery_Basic",
	"Mystery_MinExist": 1,
	"Mystery_MaxExist": 81,
	"Mystery_Interval": 5,
	"Mystery_SpawnCnt": 0,
	"Chameleon_MinExist": 1,
	"Chameleon_MaxExist": 81,
	"Chameleon_Interval": 5,
	"Chameleon_SpawnCnt": 0,
	"Key_MinExist": 0,
	"Key_MaxExist": 0,
	"Key_Interval": 0,
	"Key_SpawnCnt": 0,
	"S_Tree_SettingType": "Basic",
	"JewelTreeItem": 
		[
			"Line_X",
			"Line_X",
			"Line_X",
			"Line_X"
		],
	"JewelTreeItemColor": 
		[
			"Rnd",
			"Rnd",
			"Rnd",
			"Rnd"
		]
}