﻿{
	"Stage": 31,
	"PanelY": 5,
	"PlayTimeSpeed": 1,
	"PaseInfos": 
		[
			{
				"PaseIndex": 0,
				"Points": 
					[
						{
							"x": 1,
							"y": 0
						},
						{
							"x": 1,
							"y": 1
						},
						{
							"x": 1,
							"y": 2
						},
						{
							"x": 1,
							"y": 3
						},
						{
							"x": 1,
							"y": 4
						},
						{
							"x": 2,
							"y": 0
						},
						{
							"x": 2,
							"y": 1
						},
						{
							"x": 2,
							"y": 2
						},
						{
							"x": 2,
							"y": 3
						},
						{
							"x": 2,
							"y": 4
						},
						{
							"x": 3,
							"y": 0
						},
						{
							"x": 3,
							"y": 1
						},
						{
							"x": 3,
							"y": 2
						},
						{
							"x": 3,
							"y": 3
						},
						{
							"x": 3,
							"y": 4
						}
					],
				"ItemInfos": 
					[
						{
							"ID": 0,
							"Type": "Parent",
							"ItemIndex": 0,
							"X": 0,
							"Y": 0,
							"TutorialOrders": 
								[],
							"Color": "RED",
							"ParticlesIndex": 
								[],
							"SpriteOrder": 0
						},
						{
							"ID": 1,
							"Type": "Item",
							"ItemIndex": 0,
							"X": 0,
							"Y": 0,
							"TutorialOrders": 
								[
									{
										"ID": 0,
										"Order": 1,
										"Time": 0.3,
										"Color": "GREEN",
										"Type": "TutorialAlpha",
										"isNotUseOrder": false,
										"NextOrderID": -1,
										"ParticleIndex": 0,
										"addData": "{\r\n\t\"StartAlpha\": 0,\r\n\t\"EndAlpha\": 100\r\n}"
									},
									{
										"ID": 1,
										"Order": 2,
										"Time": 0.5,
										"Color": "GREEN",
										"Type": "TutorialSwap",
										"isNotUseOrder": false,
										"NextOrderID": -1,
										"ParticleIndex": 0,
										"addData": "{\r\n\t\"TargetID\": 9\r\n}"
									},
									{
										"ID": 2,
										"Order": 3,
										"Time": 0.3,
										"Color": "GREEN",
										"Type": "TutorialScale",
										"isNotUseOrder": false,
										"NextOrderID": -1,
										"ParticleIndex": 0,
										"addData": "{\r\n\t\"isPingPong\": true,\r\n\t\"StartScale\": 1.39,\r\n\t\"EndScale\": 1.7,\r\n\t\"X\": true,\r\n\t\"Y\": true\r\n}"
									},
									{
										"ID": 3,
										"Order": 4,
										"Time": 0.3,
										"Color": "GREEN",
										"Type": "TutorialScale",
										"isNotUseOrder": false,
										"NextOrderID": -1,
										"ParticleIndex": 0,
										"addData": "{\r\n\t\"isPingPong\": true,\r\n\t\"StartScale\": 1.39,\r\n\t\"EndScale\": 1.7,\r\n\t\"X\": true,\r\n\t\"Y\": true\r\n}"
									},
									{
										"ID": 4,
										"Order": 5,
										"Time": 0.3,
										"Color": "GREEN",
										"Type": "TutorialScale",
										"isNotUseOrder": false,
										"NextOrderID": -1,
										"ParticleIndex": 0,
										"addData": "{\r\n\t\"isPingPong\": true,\r\n\t\"StartScale\": 1.39,\r\n\t\"EndScale\": 1.7,\r\n\t\"X\": true,\r\n\t\"Y\": true\r\n}"
									},
									{
										"ID": 5,
										"Order": 6,
										"Time": 0.3,
										"Color": "GREEN",
										"Type": "TutorialScale",
										"isNotUseOrder": false,
										"NextOrderID": -1,
										"ParticleIndex": 0,
										"addData": "{\r\n\t\"isPingPong\": false,\r\n\t\"StartScale\": 1.39,\r\n\t\"EndScale\": 1.39,\r\n\t\"X\": true,\r\n\t\"Y\": true\r\n}"
									},
									{
										"ID": 6,
										"Order": 7,
										"Time": 0.8,
										"Color": "GREEN",
										"Type": "TutorialDelete",
										"isNotUseOrder": false,
										"NextOrderID": -1,
										"ParticleIndex": 27
									}
								],
							"Color": "GREEN",
							"ParticlesIndex": 
								[
									0,
									0,
									0,
									0,
									0,
									0,
									0,
									0,
									0,
									0
								],
							"SpriteOrder": 0
						},
						{
							"ID": 2,
							"Type": "Item",
							"ItemIndex": 0,
							"X": -1,
							"Y": -1,
							"TutorialOrders": 
								[
									{
										"ID": 7,
										"Order": 1,
										"Time": 0.3,
										"Color": "GREEN",
										"Type": "TutorialAlpha",
										"isNotUseOrder": false,
										"NextOrderID": -1,
										"ParticleIndex": 0,
										"addData": "{\r\n\t\"StartAlpha\": 0,\r\n\t\"EndAlpha\": 100\r\n}"
									},
									{
										"ID": 8,
										"Order": 3,
										"Time": 0.3,
										"Color": "GREEN",
										"Type": "TutorialScale",
										"isNotUseOrder": false,
										"NextOrderID": -1,
										"ParticleIndex": 0,
										"addData": "{\r\n\t\"isPingPong\": true,\r\n\t\"StartScale\": 1.39,\r\n\t\"EndScale\": 1.7,\r\n\t\"X\": true,\r\n\t\"Y\": true\r\n}"
									},
									{
										"ID": 9,
										"Order": 4,
										"Time": 0.3,
										"Color": "GREEN",
										"Type": "TutorialScale",
										"isNotUseOrder": false,
										"NextOrderID": -1,
										"ParticleIndex": 0,
										"addData": "{\r\n\t\"isPingPong\": true,\r\n\t\"StartScale\": 1.39,\r\n\t\"EndScale\": 1.7,\r\n\t\"X\": true,\r\n\t\"Y\": true\r\n}"
									},
									{
										"ID": 10,
										"Order": 5,
										"Time": 0.3,
										"Color": "GREEN",
										"Type": "TutorialScale",
										"isNotUseOrder": false,
										"NextOrderID": -1,
										"ParticleIndex": 0,
										"addData": "{\r\n\t\"isPingPong\": true,\r\n\t\"StartScale\": 1.39,\r\n\t\"EndScale\": 1.7,\r\n\t\"X\": true,\r\n\t\"Y\": true\r\n}"
									},
									{
										"ID": 11,
										"Order": 6,
										"Time": 0.3,
										"Color": "GREEN",
										"Type": "TutorialScale",
										"isNotUseOrder": false,
										"NextOrderID": -1,
										"ParticleIndex": 0,
										"addData": "{\r\n\t\"isPingPong\": false,\r\n\t\"StartScale\": 1.39,\r\n\t\"EndScale\": 1.39,\r\n\t\"X\": true,\r\n\t\"Y\": true\r\n}"
									},
									{
										"ID": 12,
										"Order": 7,
										"Time": 0.8,
										"Color": "GREEN",
										"Type": "TutorialDelete",
										"isNotUseOrder": false,
										"NextOrderID": -1,
										"ParticleIndex": 27
									}
								],
							"Color": "GREEN",
							"ParticlesIndex": 
								[
									0,
									0,
									0,
									0,
									0,
									0,
									0,
									0,
									0,
									0
								],
							"SpriteOrder": 0
						},
						{
							"ID": 3,
							"Type": "Item",
							"ItemIndex": 0,
							"X": 1,
							"Y": -1,
							"TutorialOrders": 
								[
									{
										"ID": 13,
										"Order": 1,
										"Time": 0.3,
										"Color": "GREEN",
										"Type": "TutorialAlpha",
										"isNotUseOrder": false,
										"NextOrderID": -1,
										"ParticleIndex": 0,
										"addData": "{\r\n\t\"StartAlpha\": 0,\r\n\t\"EndAlpha\": 100\r\n}"
									},
									{
										"ID": 14,
										"Order": 3,
										"Time": 0.3,
										"Color": "GREEN",
										"Type": "TutorialScale",
										"isNotUseOrder": false,
										"NextOrderID": -1,
										"ParticleIndex": 0,
										"addData": "{\r\n\t\"isPingPong\": true,\r\n\t\"StartScale\": 1.39,\r\n\t\"EndScale\": 1.7,\r\n\t\"X\": true,\r\n\t\"Y\": true\r\n}"
									},
									{
										"ID": 15,
										"Order": 4,
										"Time": 0.3,
										"Color": "GREEN",
										"Type": "TutorialScale",
										"isNotUseOrder": false,
										"NextOrderID": -1,
										"ParticleIndex": 0,
										"addData": "{\r\n\t\"isPingPong\": true,\r\n\t\"StartScale\": 1.39,\r\n\t\"EndScale\": 1.7,\r\n\t\"X\": true,\r\n\t\"Y\": true\r\n}"
									},
									{
										"ID": 16,
										"Order": 5,
										"Time": 0.3,
										"Color": "GREEN",
										"Type": "TutorialScale",
										"isNotUseOrder": false,
										"NextOrderID": -1,
										"ParticleIndex": 0,
										"addData": "{\r\n\t\"isPingPong\": true,\r\n\t\"StartScale\": 1.39,\r\n\t\"EndScale\": 1.7,\r\n\t\"X\": true,\r\n\t\"Y\": true\r\n}"
									},
									{
										"ID": 17,
										"Order": 6,
										"Time": 0.3,
										"Color": "GREEN",
										"Type": "TutorialScale",
										"isNotUseOrder": false,
										"NextOrderID": -1,
										"ParticleIndex": 0,
										"addData": "{\r\n\t\"isPingPong\": false,\r\n\t\"StartScale\": 1.39,\r\n\t\"EndScale\": 1.39,\r\n\t\"X\": true,\r\n\t\"Y\": true\r\n}"
									},
									{
										"ID": 18,
										"Order": 7,
										"Time": 0.8,
										"Color": "GREEN",
										"Type": "TutorialDelete",
										"isNotUseOrder": false,
										"NextOrderID": -1,
										"ParticleIndex": 27
									}
								],
							"Color": "GREEN",
							"ParticlesIndex": 
								[
									0,
									0,
									0,
									0,
									0,
									0,
									0,
									0,
									0,
									0
								],
							"SpriteOrder": 0
						},
						{
							"ID": 4,
							"Type": "Item",
							"ItemIndex": 0,
							"X": -1,
							"Y": 2,
							"TutorialOrders": 
								[
									{
										"ID": 19,
										"Order": 1,
										"Time": 0.3,
										"Color": "YELLOW",
										"Type": "TutorialAlpha",
										"isNotUseOrder": false,
										"NextOrderID": -1,
										"ParticleIndex": 0,
										"addData": "{\r\n\t\"StartAlpha\": 0,\r\n\t\"EndAlpha\": 100\r\n}"
									},
									{
										"ID": 20,
										"Order": 12,
										"Time": 0.3,
										"Color": "YELLOW",
										"Type": "TutorialAlpha",
										"isNotUseOrder": false,
										"NextOrderID": -1,
										"ParticleIndex": 0,
										"addData": "{\r\n\t\"StartAlpha\": 100,\r\n\t\"EndAlpha\": 0\r\n}"
									}
								],
							"Color": "YELLOW",
							"ParticlesIndex": 
								[
									0,
									0,
									0,
									0,
									0,
									0,
									0,
									0,
									0,
									0
								],
							"SpriteOrder": 0
						},
						{
							"ID": 5,
							"Type": "Item",
							"ItemIndex": 0,
							"X": 0,
							"Y": 2,
							"TutorialOrders": 
								[
									{
										"ID": 21,
										"Order": 1,
										"Time": 0.3,
										"Color": "GREEN",
										"Type": "TutorialAlpha",
										"isNotUseOrder": false,
										"NextOrderID": -1,
										"ParticleIndex": 0,
										"addData": "{\r\n\t\"StartAlpha\": 0,\r\n\t\"EndAlpha\": 100\r\n}"
									},
									{
										"ID": 22,
										"Order": 8,
										"Time": 0.1,
										"Color": "GREEN",
										"Type": "TutorialEmphasis",
										"isNotUseOrder": false,
										"NextOrderID": 23,
										"ParticleIndex": 0
									},
									{
										"ID": 23,
										"Order": 8,
										"Time": 0.5,
										"Color": "GREEN",
										"Type": "TutorialMove",
										"isNotUseOrder": true,
										"NextOrderID": -1,
										"ParticleIndex": 0,
										"addData": "{\r\n\t\"X\": 0,\r\n\t\"Y\": 0,\r\n\t\"TargetID\": -1,\r\n\t\"UseSmalling\": false\r\n}"
									},
									{
										"ID": 24,
										"Order": 8,
										"Time": 0.3,
										"Color": "GREEN",
										"Type": "TutorialEmphasis",
										"isNotUseOrder": false,
										"NextOrderID": 25,
										"ParticleIndex": 0
									},
									{
										"ID": 25,
										"Order": 9,
										"Time": 0.5,
										"Color": "GREEN",
										"Type": "TutorialMove",
										"isNotUseOrder": true,
										"NextOrderID": -1,
										"ParticleIndex": 0,
										"addData": "{\r\n\t\"X\": -1,\r\n\t\"Y\": -1,\r\n\t\"TargetID\": -1,\r\n\t\"UseSmalling\": false\r\n}"
									},
									{
										"ID": 26,
										"Order": 12,
										"Time": 0.3,
										"Color": "GREEN",
										"Type": "TutorialAlpha",
										"isNotUseOrder": false,
										"NextOrderID": -1,
										"ParticleIndex": 0,
										"addData": "{\r\n\t\"StartAlpha\": 100,\r\n\t\"EndAlpha\": 0\r\n}"
									}
								],
							"Color": "GREEN",
							"ParticlesIndex": 
								[
									0,
									0,
									0,
									0,
									0,
									0,
									0,
									0,
									0,
									0
								],
							"SpriteOrder": 0
						},
						{
							"ID": 6,
							"Type": "Item",
							"ItemIndex": 0,
							"X": 1,
							"Y": 2,
							"TutorialOrders": 
								[
									{
										"ID": 27,
										"Order": 1,
										"Time": 0.3,
										"Color": "BLUE",
										"Type": "TutorialAlpha",
										"isNotUseOrder": false,
										"NextOrderID": -1,
										"ParticleIndex": 0,
										"addData": "{\r\n\t\"StartAlpha\": 0,\r\n\t\"EndAlpha\": 100\r\n}"
									},
									{
										"ID": 28,
										"Order": 12,
										"Time": 0.3,
										"Color": "BLUE",
										"Type": "TutorialAlpha",
										"isNotUseOrder": false,
										"NextOrderID": -1,
										"ParticleIndex": 0,
										"addData": "{\r\n\t\"StartAlpha\": 100,\r\n\t\"EndAlpha\": 0\r\n}"
									}
								],
							"Color": "BLUE",
							"ParticlesIndex": 
								[
									0,
									0,
									0,
									0,
									0,
									0,
									0,
									0,
									0,
									0
								],
							"SpriteOrder": 0
						},
						{
							"ID": 7,
							"Type": "Item",
							"ItemIndex": 0,
							"X": 1,
							"Y": 0,
							"TutorialOrders": 
								[
									{
										"ID": 29,
										"Order": 1,
										"Time": 0.3,
										"Color": "PURPLE",
										"Type": "TutorialAlpha",
										"isNotUseOrder": false,
										"NextOrderID": -1,
										"ParticleIndex": 0,
										"addData": "{\r\n\t\"StartAlpha\": 0,\r\n\t\"EndAlpha\": 100\r\n}"
									},
									{
										"ID": 30,
										"Order": 8,
										"Time": 0.5,
										"Color": "PURPLE",
										"Type": "TutorialMove",
										"isNotUseOrder": false,
										"NextOrderID": -1,
										"ParticleIndex": 0,
										"addData": "{\r\n\t\"X\": 1,\r\n\t\"Y\": -2,\r\n\t\"TargetID\": -1,\r\n\t\"UseSmalling\": false\r\n}"
									},
									{
										"ID": 31,
										"Order": 12,
										"Time": 0.3,
										"Color": "PURPLE",
										"Type": "TutorialAlpha",
										"isNotUseOrder": false,
										"NextOrderID": -1,
										"ParticleIndex": 0,
										"addData": "{\r\n\t\"StartAlpha\": 100,\r\n\t\"EndAlpha\": 0\r\n}"
									}
								],
							"Color": "PURPLE",
							"ParticlesIndex": 
								[
									0,
									0,
									0,
									0,
									0,
									0,
									0,
									0,
									0,
									0
								],
							"SpriteOrder": 0
						},
						{
							"ID": 8,
							"Type": "Item",
							"ItemIndex": 0,
							"X": -1,
							"Y": 0,
							"TutorialOrders": 
								[
									{
										"ID": 32,
										"Order": 1,
										"Time": 0.3,
										"Color": "ORANGE",
										"Type": "TutorialAlpha",
										"isNotUseOrder": false,
										"NextOrderID": -1,
										"ParticleIndex": 0,
										"addData": "{\r\n\t\"StartAlpha\": 0,\r\n\t\"EndAlpha\": 100\r\n}"
									},
									{
										"ID": 33,
										"Order": 8,
										"Time": 0.5,
										"Color": "ORANGE",
										"Type": "TutorialMove",
										"isNotUseOrder": false,
										"NextOrderID": -1,
										"ParticleIndex": 0,
										"addData": "{\r\n\t\"X\": -1,\r\n\t\"Y\": -2,\r\n\t\"TargetID\": -1,\r\n\t\"UseSmalling\": false\r\n}"
									},
									{
										"ID": 34,
										"Order": 12,
										"Time": 0.3,
										"Color": "ORANGE",
										"Type": "TutorialAlpha",
										"isNotUseOrder": false,
										"NextOrderID": -1,
										"ParticleIndex": 0,
										"addData": "{\r\n\t\"StartAlpha\": 100,\r\n\t\"EndAlpha\": 0\r\n}"
									}
								],
							"Color": "ORANGE",
							"ParticlesIndex": 
								[
									0,
									0,
									0,
									0,
									0,
									0,
									0,
									0,
									0,
									0
								],
							"SpriteOrder": 0
						},
						{
							"ID": 9,
							"Type": "Item",
							"ItemIndex": 0,
							"X": 0,
							"Y": -1,
							"TutorialOrders": 
								[
									{
										"ID": 35,
										"Order": 1,
										"Time": 0.3,
										"Color": "YELLOW",
										"Type": "TutorialAlpha",
										"isNotUseOrder": false,
										"NextOrderID": -1,
										"ParticleIndex": 0,
										"addData": "{\r\n\t\"StartAlpha\": 0,\r\n\t\"EndAlpha\": 100\r\n}"
									},
									{
										"ID": 36,
										"Order": 8,
										"Time": 0.5,
										"Color": "YELLOW",
										"Type": "TutorialMove",
										"isNotUseOrder": false,
										"NextOrderID": -1,
										"ParticleIndex": 0,
										"addData": "{\r\n\t\"X\": 0,\r\n\t\"Y\": -2,\r\n\t\"TargetID\": -1,\r\n\t\"UseSmalling\": false\r\n}"
									},
									{
										"ID": 37,
										"Order": 12,
										"Time": 0.3,
										"Color": "YELLOW",
										"Type": "TutorialAlpha",
										"isNotUseOrder": false,
										"NextOrderID": -1,
										"ParticleIndex": 0,
										"addData": "{\r\n\t\"StartAlpha\": 100,\r\n\t\"EndAlpha\": 0\r\n}"
									}
								],
							"Color": "YELLOW",
							"ParticlesIndex": 
								[
									0,
									0,
									0,
									0,
									0,
									0,
									0,
									0,
									0,
									0
								],
							"SpriteOrder": 0
						},
						{
							"ID": 10,
							"Type": "Item",
							"ItemIndex": 0,
							"X": 0,
							"Y": 1,
							"TutorialOrders": 
								[
									{
										"ID": 38,
										"Order": 1,
										"Time": 0.3,
										"Color": "BLUE",
										"Type": "TutorialAlpha",
										"isNotUseOrder": false,
										"NextOrderID": -1,
										"ParticleIndex": 0,
										"addData": "{\r\n\t\"StartAlpha\": 0,\r\n\t\"EndAlpha\": 100\r\n}"
									},
									{
										"ID": 39,
										"Order": 8,
										"Time": 0.5,
										"Color": "BLUE",
										"Type": "TutorialMove",
										"isNotUseOrder": false,
										"NextOrderID": -1,
										"ParticleIndex": 0,
										"addData": "{\r\n\t\"X\": 0,\r\n\t\"Y\": -1,\r\n\t\"TargetID\": -1,\r\n\t\"UseSmalling\": false\r\n}"
									},
									{
										"ID": 40,
										"Order": 12,
										"Time": 0.3,
										"Color": "BLUE",
										"Type": "TutorialAlpha",
										"isNotUseOrder": false,
										"NextOrderID": -1,
										"ParticleIndex": 0,
										"addData": "{\r\n\t\"StartAlpha\": 100,\r\n\t\"EndAlpha\": 0\r\n}"
									}
								],
							"Color": "BLUE",
							"ParticlesIndex": 
								[
									0,
									0,
									0,
									0,
									0,
									0,
									0,
									0,
									0,
									0
								],
							"SpriteOrder": 0
						},
						{
							"ID": 11,
							"Type": "Item",
							"ItemIndex": 0,
							"X": 0,
							"Y": 3,
							"TutorialOrders": 
								[
									{
										"ID": 41,
										"Order": 8,
										"Time": 0.5,
										"Color": "PURPLE",
										"Type": "TutorialMove",
										"isNotUseOrder": false,
										"NextOrderID": -1,
										"ParticleIndex": 0,
										"addData": "{\r\n\t\"X\": 0,\r\n\t\"Y\": 1,\r\n\t\"TargetID\": -1,\r\n\t\"UseSmalling\": false\r\n}"
									},
									{
										"ID": 42,
										"Order": 8,
										"Time": 1,
										"Color": "PURPLE",
										"Type": "TutorialAlpha",
										"isNotUseOrder": false,
										"NextOrderID": -1,
										"ParticleIndex": 0,
										"addData": "{\r\n\t\"StartAlpha\": 0,\r\n\t\"EndAlpha\": 100\r\n}"
									},
									{
										"ID": 43,
										"Order": 8,
										"Time": 0.5,
										"Color": "PURPLE",
										"Type": "TutorialProduce",
										"isNotUseOrder": false,
										"NextOrderID": -1,
										"ParticleIndex": 0
									},
									{
										"ID": 44,
										"Order": 8,
										"Time": 0.3,
										"Color": "PURPLE",
										"Type": "TutorialEmphasis",
										"isNotUseOrder": false,
										"NextOrderID": 45,
										"ParticleIndex": 0
									},
									{
										"ID": 45,
										"Order": 9,
										"Time": 0.5,
										"Color": "PURPLE",
										"Type": "TutorialMove",
										"isNotUseOrder": true,
										"NextOrderID": -1,
										"ParticleIndex": 0,
										"addData": "{\r\n\t\"X\": 0,\r\n\t\"Y\": 0,\r\n\t\"TargetID\": -1,\r\n\t\"UseSmalling\": false\r\n}"
									},
									{
										"ID": 46,
										"Order": 8,
										"Time": 0.6,
										"Color": "PURPLE",
										"Type": "TutorialEmphasis",
										"isNotUseOrder": false,
										"NextOrderID": 47,
										"ParticleIndex": 0
									},
									{
										"ID": 47,
										"Order": 10,
										"Time": 0.5,
										"Color": "PURPLE",
										"Type": "TutorialMove",
										"isNotUseOrder": true,
										"NextOrderID": -1,
										"ParticleIndex": 0,
										"addData": "{\r\n\t\"X\": 1,\r\n\t\"Y\": -1,\r\n\t\"TargetID\": -1,\r\n\t\"UseSmalling\": false\r\n}"
									},
									{
										"ID": 48,
										"Order": 12,
										"Time": 0.3,
										"Color": "PURPLE",
										"Type": "TutorialAlpha",
										"isNotUseOrder": false,
										"NextOrderID": -1,
										"ParticleIndex": 0,
										"addData": "{\r\n\t\"StartAlpha\": 100,\r\n\t\"EndAlpha\": 0\r\n}"
									}
								],
							"Color": "PURPLE",
							"ParticlesIndex": 
								[
									0,
									0,
									0,
									0,
									0,
									0,
									0,
									0,
									0,
									0
								],
							"SpriteOrder": 0
						},
						{
							"ID": 12,
							"Type": "Item",
							"ItemIndex": 0,
							"X": 0,
							"Y": 3,
							"TutorialOrders": 
								[
									{
										"ID": 49,
										"Order": 8,
										"Time": 0.5,
										"Color": "ORANGE",
										"Type": "TutorialProduce",
										"isNotUseOrder": false,
										"NextOrderID": -1,
										"ParticleIndex": 0
									},
									{
										"ID": 50,
										"Order": 8,
										"Time": 1,
										"Color": "ORANGE",
										"Type": "TutorialAlpha",
										"isNotUseOrder": false,
										"NextOrderID": -1,
										"ParticleIndex": 0,
										"addData": "{\r\n\t\"StartAlpha\": 0,\r\n\t\"EndAlpha\": 100\r\n}"
									},
									{
										"ID": 51,
										"Order": 8,
										"Time": 0.5,
										"Color": "ORANGE",
										"Type": "TutorialMove",
										"isNotUseOrder": false,
										"NextOrderID": -1,
										"ParticleIndex": 0,
										"addData": "{\r\n\t\"X\": 0,\r\n\t\"Y\": 2,\r\n\t\"TargetID\": -1,\r\n\t\"UseSmalling\": false\r\n}"
									},
									{
										"ID": 52,
										"Order": 8,
										"Time": 0.7,
										"Color": "ORANGE",
										"Type": "TutorialEmphasis",
										"isNotUseOrder": false,
										"NextOrderID": 53,
										"ParticleIndex": 0
									},
									{
										"ID": 53,
										"Order": 9,
										"Time": 0.5,
										"Color": "ORANGE",
										"Type": "TutorialMove",
										"isNotUseOrder": true,
										"NextOrderID": -1,
										"ParticleIndex": 0,
										"addData": "{\r\n\t\"X\": 0,\r\n\t\"Y\": 0,\r\n\t\"TargetID\": -1,\r\n\t\"UseSmalling\": false\r\n}"
									},
									{
										"ID": 54,
										"Order": 12,
										"Time": 0.3,
										"Color": "ORANGE",
										"Type": "TutorialAlpha",
										"isNotUseOrder": false,
										"NextOrderID": -1,
										"ParticleIndex": 0,
										"addData": "{\r\n\t\"StartAlpha\": 100,\r\n\t\"EndAlpha\": 0\r\n}"
									}
								],
							"Color": "ORANGE",
							"ParticlesIndex": 
								[
									0,
									0,
									0,
									0,
									0,
									0,
									0,
									0,
									0,
									0
								],
							"SpriteOrder": 0
						},
						{
							"ID": 13,
							"Type": "Item",
							"ItemIndex": 0,
							"X": 0,
							"Y": 3,
							"TutorialOrders": 
								[
									{
										"ID": 55,
										"Order": 8,
										"Time": 0.7,
										"Color": "YELLOW",
										"Type": "TutorialEmphasis",
										"isNotUseOrder": false,
										"NextOrderID": 58,
										"ParticleIndex": 0
									},
									{
										"ID": 56,
										"Order": 8,
										"Time": 0.7,
										"Color": "YELLOW",
										"Type": "TutorialEmphasis",
										"isNotUseOrder": false,
										"NextOrderID": 59,
										"ParticleIndex": 0
									},
									{
										"ID": 57,
										"Order": 8,
										"Time": 0.7,
										"Color": "YELLOW",
										"Type": "TutorialEmphasis",
										"isNotUseOrder": false,
										"NextOrderID": 60,
										"ParticleIndex": 0
									},
									{
										"ID": 58,
										"Order": 9,
										"Time": 0.5,
										"Color": "YELLOW",
										"Type": "TutorialProduce",
										"isNotUseOrder": true,
										"NextOrderID": -1,
										"ParticleIndex": 0
									},
									{
										"ID": 59,
										"Order": 9,
										"Time": 1,
										"Color": "YELLOW",
										"Type": "TutorialAlpha",
										"isNotUseOrder": true,
										"NextOrderID": -1,
										"ParticleIndex": 0,
										"addData": "{\r\n\t\"StartAlpha\": 0,\r\n\t\"EndAlpha\": 100\r\n}"
									},
									{
										"ID": 60,
										"Order": 9,
										"Time": 0.5,
										"Color": "YELLOW",
										"Type": "TutorialMove",
										"isNotUseOrder": true,
										"NextOrderID": -1,
										"ParticleIndex": 0,
										"addData": "{\r\n\t\"X\": 0,\r\n\t\"Y\": 1,\r\n\t\"TargetID\": -1,\r\n\t\"UseSmalling\": false\r\n}"
									},
									{
										"ID": 61,
										"Order": 12,
										"Time": 0.3,
										"Color": "YELLOW",
										"Type": "TutorialAlpha",
										"isNotUseOrder": false,
										"NextOrderID": -1,
										"ParticleIndex": 0,
										"addData": "{\r\n\t\"StartAlpha\": 100,\r\n\t\"EndAlpha\": 0\r\n}"
									}
								],
							"Color": "YELLOW",
							"ParticlesIndex": 
								[
									0,
									0,
									0,
									0,
									0,
									0,
									0,
									0,
									0,
									0
								],
							"SpriteOrder": 0
						},
						{
							"ID": 14,
							"Type": "Item",
							"ItemIndex": 0,
							"X": 0,
							"Y": 3,
							"TutorialOrders": 
								[
									{
										"ID": 62,
										"Order": 8,
										"Time": 0.7,
										"Color": "RED",
										"Type": "TutorialEmphasis",
										"isNotUseOrder": false,
										"NextOrderID": 65,
										"ParticleIndex": 0
									},
									{
										"ID": 63,
										"Order": 8,
										"Time": 0.7,
										"Color": "RED",
										"Type": "TutorialEmphasis",
										"isNotUseOrder": false,
										"NextOrderID": 66,
										"ParticleIndex": 0
									},
									{
										"ID": 64,
										"Order": 8,
										"Time": 0.7,
										"Color": "RED",
										"Type": "TutorialEmphasis",
										"isNotUseOrder": false,
										"NextOrderID": 67,
										"ParticleIndex": 0
									},
									{
										"ID": 65,
										"Order": 10,
										"Time": 0.5,
										"Color": "RED",
										"Type": "TutorialProduce",
										"isNotUseOrder": true,
										"NextOrderID": -1,
										"ParticleIndex": 0
									},
									{
										"ID": 66,
										"Order": 10,
										"Time": 1,
										"Color": "RED",
										"Type": "TutorialAlpha",
										"isNotUseOrder": true,
										"NextOrderID": -1,
										"ParticleIndex": 0,
										"addData": "{\r\n\t\"StartAlpha\": 0,\r\n\t\"EndAlpha\": 100\r\n}"
									},
									{
										"ID": 67,
										"Order": 9,
										"Time": 0.5,
										"Color": "RED",
										"Type": "TutorialMove",
										"isNotUseOrder": true,
										"NextOrderID": -1,
										"ParticleIndex": 0,
										"addData": "{\r\n\t\"X\": 0,\r\n\t\"Y\": 2,\r\n\t\"TargetID\": -1,\r\n\t\"UseSmalling\": false\r\n}"
									},
									{
										"ID": 68,
										"Order": 11,
										"Time": 1.3,
										"Color": "RED",
										"Type": "TutorialEmphasis",
										"isNotUseOrder": false,
										"NextOrderID": -1,
										"ParticleIndex": 0
									},
									{
										"ID": 69,
										"Order": 12,
										"Time": 0.3,
										"Color": "RED",
										"Type": "TutorialAlpha",
										"isNotUseOrder": false,
										"NextOrderID": -1,
										"ParticleIndex": 0,
										"addData": "{\r\n\t\"StartAlpha\": 100,\r\n\t\"EndAlpha\": 0\r\n}"
									}
								],
							"Color": "RED",
							"ParticlesIndex": 
								[
									0,
									0,
									0,
									0,
									0,
									0,
									0,
									0,
									0,
									0
								],
							"SpriteOrder": 0
						},
						{
							"ID": 15,
							"Type": "Parent",
							"ItemIndex": 0,
							"X": 0,
							"Y": 0,
							"TutorialOrders": 
								[],
							"Color": "RED",
							"ParticlesIndex": 
								[],
							"SpriteOrder": 0
						},
						{
							"ID": 16,
							"Type": "Panel",
							"ItemIndex": 23,
							"X": -1,
							"Y": 1,
							"TutorialOrders": 
								[
									{
										"ID": 70,
										"Order": 1,
										"Time": 0.3,
										"Color": "RED",
										"Type": "TutorialAlpha",
										"isNotUseOrder": false,
										"NextOrderID": -1,
										"ParticleIndex": 0,
										"addData": "{\r\n\t\"StartAlpha\": 0,\r\n\t\"EndAlpha\": 100\r\n}"
									},
									{
										"ID": 71,
										"Order": 12,
										"Time": 0.3,
										"Color": "RED",
										"Type": "TutorialAlpha",
										"isNotUseOrder": false,
										"NextOrderID": -1,
										"ParticleIndex": 0,
										"addData": "{\r\n\t\"StartAlpha\": 100,\r\n\t\"EndAlpha\": 0\r\n}"
									}
								],
							"Color": "None",
							"ParticlesIndex": 
								[
									0,
									0,
									0,
									0,
									0,
									0,
									0,
									0,
									0,
									0,
									0
								],
							"SpriteOrder": 0
						},
						{
							"ID": 17,
							"Type": "Panel",
							"ItemIndex": 23,
							"X": 1,
							"Y": 1,
							"TutorialOrders": 
								[
									{
										"ID": 72,
										"Order": 1,
										"Time": 0.3,
										"Color": "RED",
										"Type": "TutorialAlpha",
										"isNotUseOrder": false,
										"NextOrderID": -1,
										"ParticleIndex": 0,
										"addData": "{\r\n\t\"StartAlpha\": 0,\r\n\t\"EndAlpha\": 100\r\n}"
									},
									{
										"ID": 73,
										"Order": 12,
										"Time": 0.3,
										"Color": "RED",
										"Type": "TutorialAlpha",
										"isNotUseOrder": false,
										"NextOrderID": -1,
										"ParticleIndex": 0,
										"addData": "{\r\n\t\"StartAlpha\": 100,\r\n\t\"EndAlpha\": 0\r\n}"
									}
								],
							"Color": "None",
							"ParticlesIndex": 
								[
									0,
									0,
									0,
									0,
									0,
									0,
									0,
									0,
									0,
									0,
									0
								],
							"SpriteOrder": 0
						},
						{
							"ID": 18,
							"Type": "Panel",
							"ItemIndex": 23,
							"X": -1,
							"Y": -2,
							"TutorialOrders": 
								[
									{
										"ID": 74,
										"Order": 1,
										"Time": 0.3,
										"Color": "RED",
										"Type": "TutorialAlpha",
										"isNotUseOrder": false,
										"NextOrderID": -1,
										"ParticleIndex": 0,
										"addData": "{\r\n\t\"StartAlpha\": 0,\r\n\t\"EndAlpha\": 100\r\n}"
									},
									{
										"ID": 75,
										"Order": 3,
										"Time": 0.3,
										"Color": "RED",
										"Type": "TutorialScale",
										"isNotUseOrder": false,
										"NextOrderID": -1,
										"ParticleIndex": 0,
										"addData": "{\r\n\t\"isPingPong\": true,\r\n\t\"StartScale\": 1.39,\r\n\t\"EndScale\": 1.7,\r\n\t\"X\": true,\r\n\t\"Y\": true\r\n}"
									},
									{
										"ID": 76,
										"Order": 4,
										"Time": 0.3,
										"Color": "RED",
										"Type": "TutorialScale",
										"isNotUseOrder": false,
										"NextOrderID": -1,
										"ParticleIndex": 0,
										"addData": "{\r\n\t\"isPingPong\": true,\r\n\t\"StartScale\": 1.39,\r\n\t\"EndScale\": 1.7,\r\n\t\"X\": true,\r\n\t\"Y\": true\r\n}"
									},
									{
										"ID": 77,
										"Order": 5,
										"Time": 0.3,
										"Color": "RED",
										"Type": "TutorialScale",
										"isNotUseOrder": false,
										"NextOrderID": -1,
										"ParticleIndex": 0,
										"addData": "{\r\n\t\"isPingPong\": true,\r\n\t\"StartScale\": 1.39,\r\n\t\"EndScale\": 1.7,\r\n\t\"X\": true,\r\n\t\"Y\": true\r\n}"
									},
									{
										"ID": 78,
										"Order": 6,
										"Time": 0.3,
										"Color": "RED",
										"Type": "TutorialScale",
										"isNotUseOrder": false,
										"NextOrderID": -1,
										"ParticleIndex": 0,
										"addData": "{\r\n\t\"isPingPong\": false,\r\n\t\"StartScale\": 1.39,\r\n\t\"EndScale\": 1.39,\r\n\t\"X\": true,\r\n\t\"Y\": true\r\n}"
									},
									{
										"ID": 79,
										"Order": 7,
										"Time": 0.8,
										"Color": "RED",
										"Type": "TutorialDelete",
										"isNotUseOrder": false,
										"NextOrderID": -1,
										"ParticleIndex": 12
									}
								],
							"Color": "None",
							"ParticlesIndex": 
								[
									0,
									0,
									0,
									0,
									0,
									0,
									0,
									0,
									0,
									0,
									0
								],
							"SpriteOrder": 0
						},
						{
							"ID": 19,
							"Type": "Panel",
							"ItemIndex": 23,
							"X": 0,
							"Y": -2,
							"TutorialOrders": 
								[
									{
										"ID": 80,
										"Order": 1,
										"Time": 0.3,
										"Color": "RED",
										"Type": "TutorialAlpha",
										"isNotUseOrder": false,
										"NextOrderID": -1,
										"ParticleIndex": 0,
										"addData": "{\r\n\t\"StartAlpha\": 0,\r\n\t\"EndAlpha\": 100\r\n}"
									},
									{
										"ID": 81,
										"Order": 3,
										"Time": 0.3,
										"Color": "RED",
										"Type": "TutorialScale",
										"isNotUseOrder": false,
										"NextOrderID": -1,
										"ParticleIndex": 0,
										"addData": "{\r\n\t\"isPingPong\": true,\r\n\t\"StartScale\": 1.39,\r\n\t\"EndScale\": 1.7,\r\n\t\"X\": true,\r\n\t\"Y\": true\r\n}"
									},
									{
										"ID": 82,
										"Order": 4,
										"Time": 0.3,
										"Color": "RED",
										"Type": "TutorialScale",
										"isNotUseOrder": false,
										"NextOrderID": -1,
										"ParticleIndex": 0,
										"addData": "{\r\n\t\"isPingPong\": true,\r\n\t\"StartScale\": 1.39,\r\n\t\"EndScale\": 1.7,\r\n\t\"X\": true,\r\n\t\"Y\": true\r\n}"
									},
									{
										"ID": 83,
										"Order": 5,
										"Time": 0.3,
										"Color": "RED",
										"Type": "TutorialScale",
										"isNotUseOrder": false,
										"NextOrderID": -1,
										"ParticleIndex": 0,
										"addData": "{\r\n\t\"isPingPong\": true,\r\n\t\"StartScale\": 1.39,\r\n\t\"EndScale\": 1.7,\r\n\t\"X\": true,\r\n\t\"Y\": true\r\n}"
									},
									{
										"ID": 84,
										"Order": 6,
										"Time": 0.3,
										"Color": "RED",
										"Type": "TutorialScale",
										"isNotUseOrder": false,
										"NextOrderID": -1,
										"ParticleIndex": 0,
										"addData": "{\r\n\t\"isPingPong\": false,\r\n\t\"StartScale\": 1.39,\r\n\t\"EndScale\": 1.39,\r\n\t\"X\": true,\r\n\t\"Y\": true\r\n}"
									},
									{
										"ID": 85,
										"Order": 7,
										"Time": 0.8,
										"Color": "RED",
										"Type": "TutorialDelete",
										"isNotUseOrder": false,
										"NextOrderID": -1,
										"ParticleIndex": 12
									}
								],
							"Color": "None",
							"ParticlesIndex": 
								[
									0,
									0,
									0,
									0,
									0,
									0,
									0,
									0,
									0,
									0,
									0
								],
							"SpriteOrder": 0
						},
						{
							"ID": 20,
							"Type": "Panel",
							"ItemIndex": 23,
							"X": 1,
							"Y": -2,
							"TutorialOrders": 
								[
									{
										"ID": 86,
										"Order": 1,
										"Time": 0.3,
										"Color": "RED",
										"Type": "TutorialAlpha",
										"isNotUseOrder": false,
										"NextOrderID": -1,
										"ParticleIndex": 0,
										"addData": "{\r\n\t\"StartAlpha\": 0,\r\n\t\"EndAlpha\": 100\r\n}"
									},
									{
										"ID": 87,
										"Order": 3,
										"Time": 0.3,
										"Color": "RED",
										"Type": "TutorialScale",
										"isNotUseOrder": false,
										"NextOrderID": -1,
										"ParticleIndex": 0,
										"addData": "{\r\n\t\"isPingPong\": true,\r\n\t\"StartScale\": 1.39,\r\n\t\"EndScale\": 1.7,\r\n\t\"X\": true,\r\n\t\"Y\": true\r\n}"
									},
									{
										"ID": 88,
										"Order": 4,
										"Time": 0.3,
										"Color": "RED",
										"Type": "TutorialScale",
										"isNotUseOrder": false,
										"NextOrderID": -1,
										"ParticleIndex": 0,
										"addData": "{\r\n\t\"isPingPong\": true,\r\n\t\"StartScale\": 1.39,\r\n\t\"EndScale\": 1.7,\r\n\t\"X\": true,\r\n\t\"Y\": true\r\n}"
									},
									{
										"ID": 89,
										"Order": 5,
										"Time": 0.3,
										"Color": "RED",
										"Type": "TutorialScale",
										"isNotUseOrder": false,
										"NextOrderID": -1,
										"ParticleIndex": 0,
										"addData": "{\r\n\t\"isPingPong\": true,\r\n\t\"StartScale\": 1.39,\r\n\t\"EndScale\": 1.7,\r\n\t\"X\": true,\r\n\t\"Y\": true\r\n}"
									},
									{
										"ID": 90,
										"Order": 6,
										"Time": 0.3,
										"Color": "RED",
										"Type": "TutorialScale",
										"isNotUseOrder": false,
										"NextOrderID": -1,
										"ParticleIndex": 0,
										"addData": "{\r\n\t\"isPingPong\": false,\r\n\t\"StartScale\": 1.39,\r\n\t\"EndScale\": 1.39,\r\n\t\"X\": true,\r\n\t\"Y\": true\r\n}"
									},
									{
										"ID": 91,
										"Order": 7,
										"Time": 0.8,
										"Color": "RED",
										"Type": "TutorialDelete",
										"isNotUseOrder": false,
										"NextOrderID": -1,
										"ParticleIndex": 12
									}
								],
							"Color": "None",
							"ParticlesIndex": 
								[
									0,
									0,
									0,
									0,
									0,
									0,
									0,
									0,
									0,
									0,
									0
								],
							"SpriteOrder": 0
						},
						{
							"ID": 21,
							"Type": "Parent",
							"ItemIndex": 0,
							"X": 0,
							"Y": 0,
							"TutorialOrders": 
								[],
							"Color": "RED",
							"ParticlesIndex": 
								[],
							"SpriteOrder": 0
						},
						{
							"ID": 22,
							"Type": "Panel",
							"ItemIndex": 0,
							"X": -1.00000012,
							"Y": -1.99999988,
							"TutorialOrders": 
								[],
							"Color": "None",
							"ParticlesIndex": 
								[],
							"SpriteOrder": -1
						},
						{
							"ID": 23,
							"Type": "Panel",
							"ItemIndex": 0,
							"X": -1.00000012,
							"Y": -0.99999994,
							"TutorialOrders": 
								[],
							"Color": "RED",
							"ParticlesIndex": 
								[],
							"SpriteOrder": -1
						},
						{
							"ID": 24,
							"Type": "Panel",
							"ItemIndex": 0,
							"X": -1.00000012,
							"Y": 0,
							"TutorialOrders": 
								[],
							"Color": "None",
							"ParticlesIndex": 
								[],
							"SpriteOrder": -1
						},
						{
							"ID": 25,
							"Type": "Panel",
							"ItemIndex": 0,
							"X": -1.00000012,
							"Y": 0.99999994,
							"TutorialOrders": 
								[],
							"Color": "RED",
							"ParticlesIndex": 
								[],
							"SpriteOrder": -1
						},
						{
							"ID": 26,
							"Type": "Panel",
							"ItemIndex": 0,
							"X": -1.00000012,
							"Y": 1.99999988,
							"TutorialOrders": 
								[],
							"Color": "None",
							"ParticlesIndex": 
								[],
							"SpriteOrder": -1
						},
						{
							"ID": 27,
							"Type": "Panel",
							"ItemIndex": 0,
							"X": 0,
							"Y": -1.99999988,
							"TutorialOrders": 
								[],
							"Color": "RED",
							"ParticlesIndex": 
								[],
							"SpriteOrder": -1
						},
						{
							"ID": 28,
							"Type": "Panel",
							"ItemIndex": 0,
							"X": 0,
							"Y": -0.99999994,
							"TutorialOrders": 
								[],
							"Color": "None",
							"ParticlesIndex": 
								[],
							"SpriteOrder": -1
						},
						{
							"ID": 29,
							"Type": "Panel",
							"ItemIndex": 0,
							"X": 0,
							"Y": 0,
							"TutorialOrders": 
								[],
							"Color": "RED",
							"ParticlesIndex": 
								[],
							"SpriteOrder": -1
						},
						{
							"ID": 30,
							"Type": "Panel",
							"ItemIndex": 0,
							"X": 0,
							"Y": 0.99999994,
							"TutorialOrders": 
								[],
							"Color": "None",
							"ParticlesIndex": 
								[],
							"SpriteOrder": -1
						},
						{
							"ID": 31,
							"Type": "Panel",
							"ItemIndex": 0,
							"X": 0,
							"Y": 1.99999988,
							"TutorialOrders": 
								[],
							"Color": "RED",
							"ParticlesIndex": 
								[],
							"SpriteOrder": -1
						},
						{
							"ID": 32,
							"Type": "Panel",
							"ItemIndex": 0,
							"X": 1,
							"Y": -1.99999988,
							"TutorialOrders": 
								[],
							"Color": "None",
							"ParticlesIndex": 
								[],
							"SpriteOrder": -1
						},
						{
							"ID": 33,
							"Type": "Panel",
							"ItemIndex": 0,
							"X": 1,
							"Y": -0.99999994,
							"TutorialOrders": 
								[],
							"Color": "RED",
							"ParticlesIndex": 
								[],
							"SpriteOrder": -1
						},
						{
							"ID": 34,
							"Type": "Panel",
							"ItemIndex": 0,
							"X": 1,
							"Y": 0,
							"TutorialOrders": 
								[],
							"Color": "None",
							"ParticlesIndex": 
								[],
							"SpriteOrder": -1
						},
						{
							"ID": 35,
							"Type": "Panel",
							"ItemIndex": 0,
							"X": 1,
							"Y": 0.99999994,
							"TutorialOrders": 
								[],
							"Color": "RED",
							"ParticlesIndex": 
								[],
							"SpriteOrder": -1
						},
						{
							"ID": 36,
							"Type": "Panel",
							"ItemIndex": 0,
							"X": 1,
							"Y": 1.99999988,
							"TutorialOrders": 
								[],
							"Color": "None",
							"ParticlesIndex": 
								[],
							"SpriteOrder": -1
						}
					],
				"ItemParent": 
					{
						"ID": 0,
						"Type": "Parent",
						"ItemIndex": 0,
						"X": 0,
						"Y": 0,
						"TutorialOrders": 
							[],
						"Color": "RED",
						"ParticlesIndex": 
							[],
						"SpriteOrder": 0
					},
				"PanelParent": 
					{
						"ID": 15,
						"Type": "Parent",
						"ItemIndex": 0,
						"X": 0,
						"Y": 0,
						"TutorialOrders": 
							[],
						"Color": "RED",
						"ParticlesIndex": 
							[],
						"SpriteOrder": 0
					},
				"PanelDefaultParent": 
					{
						"ID": 21,
						"Type": "Parent",
						"ItemIndex": 0,
						"X": 0,
						"Y": 0,
						"TutorialOrders": 
							[],
						"Color": "RED",
						"ParticlesIndex": 
							[],
						"SpriteOrder": 0
					},
				"X": -0.4,
				"Y": -0.5,
				"PanelY": 0,
				"TextTableIndex": 259
			}
		],
	"List_Seed": 
		[]
}