%YAML 1.1
%TAG !u! tag:unity3d.com,2011:
--- !u!74 &7400000
AnimationClip:
  m_ObjectHideFlags: 0
  m_PrefabParentObject: {fileID: 0}
  m_PrefabInternal: {fileID: 0}
  m_Name: Button_Press
  serializedVersion: 6
  m_Legacy: 0
  m_Compressed: 0
  m_UseHighQualityCurve: 1
  m_RotationCurves: []
  m_CompressedRotationCurves: []
  m_EulerCurves: []
  m_PositionCurves: []
  m_ScaleCurves:
  - curve:
      serializedVersion: 2
      m_Curve:
      - serializedVersion: 2
        time: 0
        value: {x: 1, y: 1, z: 1}
        inSlope: {x: -1.2000003, y: -2.3999999, z: -1.2000003}
        outSlope: {x: -1.2000003, y: -2.3999999, z: -1.2000003}
        tangentMode: 0
      - serializedVersion: 2
        time: 0.083333336
        value: {x: 0.9, y: 0.8, z: 0.9}
        inSlope: {x: -1.3499999, y: 0.29999995, z: -0.60000014}
        outSlope: {x: -1.3499999, y: 0.29999995, z: -0.60000014}
        tangentMode: 0
      - serializedVersion: 2
        time: 0.15
        value: {x: 0.8, y: 1, z: 0.9}
        inSlope: {x: 1.2500002, y: 2.5000002, z: 0}
        outSlope: {x: 1.2500002, y: 2.5000002, z: 0}
        tangentMode: 0
      - serializedVersion: 2
        time: 0.2
        value: {x: 1, y: 1.1, z: 0.9}
        inSlope: {x: 3.5000005, y: -0.5000001, z: 0}
        outSlope: {x: 3.5000005, y: -0.5000001, z: 0}
        tangentMode: 0
      - serializedVersion: 2
        time: 0.23333333
        value: {x: 1.1, y: 1, z: 0.9}
        inSlope: {x: -1.5000005, y: -1.5000005, z: 0}
        outSlope: {x: -1.5000005, y: -1.5000005, z: 0}
        tangentMode: 0
      - serializedVersion: 2
        time: 0.25
        value: {x: 1, y: 1, z: 0.9}
        inSlope: {x: -6.000002, y: 0, z: 0}
        outSlope: {x: -6.000002, y: 0, z: 0}
        tangentMode: 0
      m_PreInfinity: 2
      m_PostInfinity: 2
      m_RotationOrder: 4
    path: 
  m_FloatCurves: []
  m_PPtrCurves: []
  m_SampleRate: 60
  m_WrapMode: 0
  m_Bounds:
    m_Center: {x: 0, y: 0, z: 0}
    m_Extent: {x: 0, y: 0, z: 0}
  m_ClipBindingConstant:
    genericBindings:
    - serializedVersion: 2
      path: 0
      attribute: 3
      script: {fileID: 0}
      typeID: 4
      customType: 0
      isPPtrCurve: 0
    pptrCurveMapping: []
  m_AnimationClipSettings:
    serializedVersion: 2
    m_AdditiveReferencePoseClip: {fileID: 0}
    m_AdditiveReferencePoseTime: 0
    m_StartTime: 0
    m_StopTime: 0.25
    m_OrientationOffsetY: 0
    m_Level: 0
    m_CycleOffset: 0
    m_HasAdditiveReferencePose: 0
    m_LoopTime: 0
    m_LoopBlend: 0
    m_LoopBlendOrientation: 0
    m_LoopBlendPositionY: 0
    m_LoopBlendPositionXZ: 0
    m_KeepOriginalOrientation: 0
    m_KeepOriginalPositionY: 1
    m_KeepOriginalPositionXZ: 0
    m_HeightFromFeet: 0
    m_Mirror: 0
  m_EditorCurves:
  - curve:
      serializedVersion: 2
      m_Curve:
      - serializedVersion: 2
        time: 0
        value: 1
        inSlope: -1.2000003
        outSlope: -1.2000003
        tangentMode: 34
      - serializedVersion: 2
        time: 0.083333336
        value: 0.9
        inSlope: -1.3499999
        outSlope: -1.3499999
        tangentMode: 34
      - serializedVersion: 2
        time: 0.15
        value: 0.8
        inSlope: 1.2500002
        outSlope: 1.2500002
        tangentMode: 34
      - serializedVersion: 2
        time: 0.2
        value: 1
        inSlope: 3.5000005
        outSlope: 3.5000005
        tangentMode: 34
      - serializedVersion: 2
        time: 0.23333333
        value: 1.1
        inSlope: -1.5000005
        outSlope: -1.5000005
        tangentMode: 34
      - serializedVersion: 2
        time: 0.25
        value: 1
        inSlope: -6.000002
        outSlope: -6.000002
        tangentMode: 34
      m_PreInfinity: 2
      m_PostInfinity: 2
      m_RotationOrder: 4
    attribute: m_LocalScale.x
    path: 
    classID: 4
    script: {fileID: 0}
  - curve:
      serializedVersion: 2
      m_Curve:
      - serializedVersion: 2
        time: 0
        value: 1
        inSlope: -2.3999999
        outSlope: -2.3999999
        tangentMode: 34
      - serializedVersion: 2
        time: 0.083333336
        value: 0.8
        inSlope: 0.29999995
        outSlope: 0.29999995
        tangentMode: 34
      - serializedVersion: 2
        time: 0.15
        value: 1
        inSlope: 2.5000002
        outSlope: 2.5000002
        tangentMode: 34
      - serializedVersion: 2
        time: 0.2
        value: 1.1
        inSlope: -0.5000001
        outSlope: -0.5000001
        tangentMode: 34
      - serializedVersion: 2
        time: 0.23333333
        value: 1
        inSlope: -1.5000005
        outSlope: -1.5000005
        tangentMode: 34
      - serializedVersion: 2
        time: 0.25
        value: 1
        inSlope: 0
        outSlope: 0
        tangentMode: 34
      m_PreInfinity: 2
      m_PostInfinity: 2
      m_RotationOrder: 4
    attribute: m_LocalScale.y
    path: 
    classID: 4
    script: {fileID: 0}
  - curve:
      serializedVersion: 2
      m_Curve:
      - serializedVersion: 2
        time: 0
        value: 1
        inSlope: -1.2000003
        outSlope: -1.2000003
        tangentMode: 34
      - serializedVersion: 2
        time: 0.083333336
        value: 0.9
        inSlope: -0.60000014
        outSlope: -0.60000014
        tangentMode: 34
      - serializedVersion: 2
        time: 0.15
        value: 0.9
        inSlope: 0
        outSlope: 0
        tangentMode: 34
      - serializedVersion: 2
        time: 0.2
        value: 0.9
        inSlope: 0
        outSlope: 0
        tangentMode: 34
      - serializedVersion: 2
        time: 0.23333333
        value: 0.9
        inSlope: 0
        outSlope: 0
        tangentMode: 34
      - serializedVersion: 2
        time: 0.25
        value: 0.9
        inSlope: 0
        outSlope: 0
        tangentMode: 34
      m_PreInfinity: 2
      m_PostInfinity: 2
      m_RotationOrder: 4
    attribute: m_LocalScale.z
    path: 
    classID: 4
    script: {fileID: 0}
  m_EulerEditorCurves: []
  m_HasGenericRootTransform: 0
  m_HasMotionFloatCurves: 0
  m_GenerateMotionCurves: 0
  m_Events: []
