0|7|200|
1|15|200|
2|27|200|
3|48|300|
4|64|300|
5|75|300|
6|85|300|
7|99|400|
8|114|400|
9|123|400|
10|137|400|
11|150|500|
12|164|500|
13|177|500|
14|187|500|
15|212|600|
16|226|600|
17|242|600|
18|257|600|
19|272|700|
20|287|700|
21|300|700|
22|316|700|
23|333|700|
24|350|800|
25|368|800|
26|384|800|
27|400|800|
28|416|800|
29|433|800|
30|445|800|
31|460|800|
32|480|800|
33|500|800|
34|516|800|
35|533|800|
36|545|800|
37|560|800|
38|580|800|
39|600|800|
40|616|800|
41|633|800|
42|645|800|
43|660|800|
44|680|800|
45|700|900|
46|716|900|
47|733|900|
48|745|900|
49|760|900|
50|780|900|
51|800|900||
52|816|900||
53|833|900||
54|845|900||
55|860|900||
56|880|900||
57|900|900||
58|916|900||
59|933|900||
60|945|900||
61|960|900||
62|980|900||
63|1000|900||
64|1016|900||
65|1033|900||
66|1045|900||
67|1060|900||
68|1080|900||
