﻿{
	"isUseGravity": false,
	"panels": 
		[
			{
				"listinfo": 
					[
						{
							"paneltype": "Default_Full",
							"defence": -1,
							"value": 0
						},
						{
							"paneltype": "Bottle_Cage",
							"defence": 6,
							"value": 0
						}
					]
			},
			{
				"listinfo": 
					[
						{
							"paneltype": "Default_Full",
							"defence": -1,
							"value": 0
						}
					]
			},
			{
				"listinfo": 
					[
						{
							"paneltype": "Default_Full",
							"defence": -1,
							"value": 0
						}
					]
			},
			{
				"listinfo": 
					[
						{
							"paneltype": "Default_Full",
							"defence": -1,
							"value": 0
						}
					]
			},
			{
				"listinfo": 
					[
						{
							"paneltype": "Default_Full",
							"defence": -1,
							"value": 0
						}
					]
			},
			{
				"listinfo": 
					[
						{
							"paneltype": "Default_Full",
							"defence": -1,
							"value": 0
						}
					]
			},
			{
				"listinfo": 
					[
						{
							"paneltype": "Default_Full",
							"defence": -1,
							"value": 0
						}
					]
			},
			{
				"listinfo": 
					[
						{
							"paneltype": "Default_Full",
							"defence": -1,
							"value": 0
						},
						{
							"paneltype": "Bottle_Cage",
							"defence": 6,
							"value": 0
						}
					]
			},
			{
				"listinfo": 
					[
						{
							"paneltype": "Default_Empty",
							"defence": -1,
							"value": 0
						}
					]
			},
			{
				"listinfo": 
					[
						{
							"paneltype": "Default_Full",
							"defence": -1,
							"value": 0
						}
					]
			},
			{
				"listinfo": 
					[
						{
							"paneltype": "Default_Full",
							"defence": -1,
							"value": 0
						}
					]
			},
			{
				"listinfo": 
					[
						{
							"paneltype": "Default_Full",
							"defence": -1,
							"value": 0
						}
					]
			},
			{
				"listinfo": 
					[
						{
							"paneltype": "Default_Full",
							"defence": -1,
							"value": 0
						},
						{
							"paneltype": "Bottle_Cage",
							"defence": 4,
							"value": 0
						}
					]
			},
			{
				"listinfo": 
					[
						{
							"paneltype": "Default_Full",
							"defence": -1,
							"value": 0
						},
						{
							"paneltype": "Bottle_Cage",
							"defence": 4,
							"value": 0
						}
					]
			},
			{
				"listinfo": 
					[
						{
							"paneltype": "Default_Full",
							"defence": -1,
							"value": 0
						}
					]
			},
			{
				"listinfo": 
					[
						{
							"paneltype": "Default_Full",
							"defence": -1,
							"value": 0
						}
					]
			},
			{
				"listinfo": 
					[
						{
							"paneltype": "Default_Full",
							"defence": -1,
							"value": 0
						}
					]
			},
			{
				"listinfo": 
					[
						{
							"paneltype": "Default_Empty",
							"defence": -1,
							"value": 0
						}
					]
			},
			{
				"listinfo": 
					[
						{
							"paneltype": "Default_Full",
							"defence": -1,
							"value": 0
						}
					]
			},
			{
				"listinfo": 
					[
						{
							"paneltype": "Default_Full",
							"defence": -1,
							"value": 0
						}
					]
			},
			{
				"listinfo": 
					[
						{
							"paneltype": "Default_Full",
							"defence": -1,
							"value": 0
						}
					]
			},
			{
				"listinfo": 
					[
						{
							"paneltype": "Default_Full",
							"defence": -1,
							"value": 0
						},
						{
							"paneltype": "JewelTree_A",
							"defence": 1,
							"value": 0
						}
					]
			},
			{
				"listinfo": 
					[
						{
							"paneltype": "Default_Full",
							"defence": -1,
							"value": 0
						},
						{
							"paneltype": "JewelTree_B",
							"defence": 1,
							"value": 0
						}
					]
			},
			{
				"listinfo": 
					[
						{
							"paneltype": "Default_Full",
							"defence": -1,
							"value": 0
						}
					]
			},
			{
				"listinfo": 
					[
						{
							"paneltype": "Default_Full",
							"defence": -1,
							"value": 0
						}
					]
			},
			{
				"listinfo": 
					[
						{
							"paneltype": "Default_Full",
							"defence": -1,
							"value": 0
						}
					]
			},
			{
				"listinfo": 
					[
						{
							"paneltype": "Default_Empty",
							"defence": -1,
							"value": 0
						}
					]
			},
			{
				"listinfo": 
					[
						{
							"paneltype": "Default_Full",
							"defence": -1,
							"value": 0
						}
					]
			},
			{
				"listinfo": 
					[
						{
							"paneltype": "Default_Full",
							"defence": -1,
							"value": 0
						}
					]
			},
			{
				"listinfo": 
					[
						{
							"paneltype": "Default_Full",
							"defence": -1,
							"value": 0
						}
					]
			},
			{
				"listinfo": 
					[
						{
							"paneltype": "Default_Full",
							"defence": -1,
							"value": 0
						},
						{
							"paneltype": "JewelTree_C",
							"defence": 1,
							"value": 0
						}
					]
			},
			{
				"listinfo": 
					[
						{
							"paneltype": "Default_Full",
							"defence": -1,
							"value": 0
						},
						{
							"paneltype": "JewelTree_D",
							"defence": 1,
							"value": 0
						}
					]
			},
			{
				"listinfo": 
					[
						{
							"paneltype": "Default_Full",
							"defence": -1,
							"value": 0
						}
					]
			},
			{
				"listinfo": 
					[
						{
							"paneltype": "Default_Full",
							"defence": -1,
							"value": 0
						}
					]
			},
			{
				"listinfo": 
					[
						{
							"paneltype": "Default_Full",
							"defence": -1,
							"value": 0
						}
					]
			},
			{
				"listinfo": 
					[
						{
							"paneltype": "Default_Empty",
							"defence": -1,
							"value": 0
						}
					]
			},
			{
				"listinfo": 
					[
						{
							"paneltype": "Default_Full",
							"defence": -1,
							"value": 0
						}
					]
			},
			{
				"listinfo": 
					[
						{
							"paneltype": "Default_Full",
							"defence": -1,
							"value": 0
						}
					]
			},
			{
				"listinfo": 
					[
						{
							"paneltype": "Default_Full",
							"defence": -1,
							"value": 0
						},
						{
							"paneltype": "Bottle_Cage",
							"defence": 1,
							"value": 0
						}
					]
			},
			{
				"listinfo": 
					[
						{
							"paneltype": "Default_Full",
							"defence": -1,
							"value": 0
						},
						{
							"paneltype": "IceCream_Creator",
							"defence": -1,
							"value": 0
						}
					]
			},
			{
				"listinfo": 
					[
						{
							"paneltype": "Default_Full",
							"defence": -1,
							"value": 0
						},
						{
							"paneltype": "IceCream_Creator",
							"defence": -1,
							"value": 0
						}
					]
			},
			{
				"listinfo": 
					[
						{
							"paneltype": "Default_Full",
							"defence": -1,
							"value": 0
						},
						{
							"paneltype": "Bottle_Cage",
							"defence": 1,
							"value": 0
						}
					]
			},
			{
				"listinfo": 
					[
						{
							"paneltype": "Default_Full",
							"defence": -1,
							"value": 0
						}
					]
			},
			{
				"listinfo": 
					[
						{
							"paneltype": "Default_Full",
							"defence": -1,
							"value": 0
						}
					]
			},
			{
				"listinfo": 
					[
						{
							"paneltype": "Default_Empty",
							"defence": -1,
							"value": 0
						}
					]
			},
			{
				"listinfo": 
					[
						{
							"paneltype": "Default_Full",
							"defence": -1,
							"value": 0
						},
						{
							"paneltype": "Bottle_Cage",
							"defence": 2,
							"value": 0
						}
					]
			},
			{
				"listinfo": 
					[
						{
							"paneltype": "Default_Full",
							"defence": -1,
							"value": 0
						},
						{
							"paneltype": "Bottle_Cage",
							"defence": 2,
							"value": 0
						}
					]
			},
			{
				"listinfo": 
					[
						{
							"paneltype": "Default_Full",
							"defence": -1,
							"value": 0
						},
						{
							"paneltype": "Bottle_Cage",
							"defence": 1,
							"value": 0
						}
					]
			},
			{
				"listinfo": 
					[
						{
							"paneltype": "Default_Full",
							"defence": -1,
							"value": 0
						},
						{
							"paneltype": "Bottle_Cage",
							"defence": 2,
							"value": 0
						}
					]
			},
			{
				"listinfo": 
					[
						{
							"paneltype": "Default_Full",
							"defence": -1,
							"value": 0
						},
						{
							"paneltype": "Bottle_Cage",
							"defence": 2,
							"value": 0
						}
					]
			},
			{
				"listinfo": 
					[
						{
							"paneltype": "Default_Full",
							"defence": -1,
							"value": 0
						},
						{
							"paneltype": "Bottle_Cage",
							"defence": 1,
							"value": 0
						}
					]
			},
			{
				"listinfo": 
					[
						{
							"paneltype": "Default_Full",
							"defence": -1,
							"value": 0
						},
						{
							"paneltype": "Bottle_Cage",
							"defence": 2,
							"value": 0
						}
					]
			},
			{
				"listinfo": 
					[
						{
							"paneltype": "Default_Full",
							"defence": -1,
							"value": 0
						},
						{
							"paneltype": "Bottle_Cage",
							"defence": 2,
							"value": 0
						}
					]
			},
			{
				"listinfo": 
					[
						{
							"paneltype": "Default_Empty",
							"defence": -1,
							"value": 0
						}
					]
			},
			{
				"listinfo": 
					[
						{
							"paneltype": "Default_Full",
							"defence": -1,
							"value": 0
						},
						{
							"paneltype": "Bottle_Cage",
							"defence": 3,
							"value": 0
						}
					]
			},
			{
				"listinfo": 
					[
						{
							"paneltype": "Default_Full",
							"defence": -1,
							"value": 0
						},
						{
							"paneltype": "Bottle_Cage",
							"defence": 1,
							"value": 0
						}
					]
			},
			{
				"listinfo": 
					[
						{
							"paneltype": "Default_Full",
							"defence": -1,
							"value": 0
						},
						{
							"paneltype": "Bottle_Cage",
							"defence": 3,
							"value": 0
						}
					]
			},
			{
				"listinfo": 
					[
						{
							"paneltype": "Default_Full",
							"defence": -1,
							"value": 0
						},
						{
							"paneltype": "Bottle_Cage",
							"defence": 1,
							"value": 0
						}
					]
			},
			{
				"listinfo": 
					[
						{
							"paneltype": "Default_Full",
							"defence": -1,
							"value": 0
						},
						{
							"paneltype": "Bottle_Cage",
							"defence": 1,
							"value": 0
						}
					]
			},
			{
				"listinfo": 
					[
						{
							"paneltype": "Default_Full",
							"defence": -1,
							"value": 0
						},
						{
							"paneltype": "Bottle_Cage",
							"defence": 3,
							"value": 0
						}
					]
			},
			{
				"listinfo": 
					[
						{
							"paneltype": "Default_Full",
							"defence": -1,
							"value": 0
						},
						{
							"paneltype": "Bottle_Cage",
							"defence": 1,
							"value": 0
						}
					]
			},
			{
				"listinfo": 
					[
						{
							"paneltype": "Default_Full",
							"defence": -1,
							"value": 0
						},
						{
							"paneltype": "Bottle_Cage",
							"defence": 3,
							"value": 0
						}
					]
			},
			{
				"listinfo": 
					[
						{
							"paneltype": "Default_Empty",
							"defence": -1,
							"value": 0
						}
					]
			},
			{
				"listinfo": 
					[
						{
							"paneltype": "Default_Full",
							"defence": -1,
							"value": 0
						},
						{
							"paneltype": "Bottle_Cage",
							"defence": 1,
							"value": 0
						}
					]
			},
			{
				"listinfo": 
					[
						{
							"paneltype": "Default_Full",
							"defence": -1,
							"value": 0
						},
						{
							"paneltype": "Bottle_Cage",
							"defence": 2,
							"value": 0
						}
					]
			},
			{
				"listinfo": 
					[
						{
							"paneltype": "Default_Full",
							"defence": -1,
							"value": 0
						},
						{
							"paneltype": "Bottle_Cage",
							"defence": 1,
							"value": 0
						}
					]
			},
			{
				"listinfo": 
					[
						{
							"paneltype": "Default_Full",
							"defence": -1,
							"value": 0
						},
						{
							"paneltype": "Bottle_Cage",
							"defence": 2,
							"value": 0
						}
					]
			},
			{
				"listinfo": 
					[
						{
							"paneltype": "Default_Full",
							"defence": -1,
							"value": 0
						},
						{
							"paneltype": "Bottle_Cage",
							"defence": 2,
							"value": 0
						}
					]
			},
			{
				"listinfo": 
					[
						{
							"paneltype": "Default_Full",
							"defence": -1,
							"value": 0
						},
						{
							"paneltype": "Bottle_Cage",
							"defence": 1,
							"value": 0
						}
					]
			},
			{
				"listinfo": 
					[
						{
							"paneltype": "Default_Full",
							"defence": -1,
							"value": 0
						},
						{
							"paneltype": "Bottle_Cage",
							"defence": 2,
							"value": 0
						}
					]
			},
			{
				"listinfo": 
					[
						{
							"paneltype": "Default_Full",
							"defence": -1,
							"value": 0
						},
						{
							"paneltype": "Bottle_Cage",
							"defence": 1,
							"value": 0
						}
					]
			},
			{
				"listinfo": 
					[
						{
							"paneltype": "Default_Empty",
							"defence": -1,
							"value": 0
						}
					]
			},
			{
				"listinfo": 
					[
						{
							"paneltype": "Default_Full",
							"defence": -1,
							"value": 0
						},
						{
							"paneltype": "Bottle_Cage",
							"defence": 5,
							"value": 0
						},
						{
							"paneltype": "FoodArrive",
							"defence": -1,
							"value": 0
						}
					]
			},
			{
				"listinfo": 
					[
						{
							"paneltype": "Default_Full",
							"defence": -1,
							"value": 0
						},
						{
							"paneltype": "Bottle_Cage",
							"defence": 1,
							"value": 0
						},
						{
							"paneltype": "FoodArrive",
							"defence": -1,
							"value": 0
						}
					]
			},
			{
				"listinfo": 
					[
						{
							"paneltype": "Default_Full",
							"defence": -1,
							"value": 0
						},
						{
							"paneltype": "Bottle_Cage",
							"defence": 5,
							"value": 0
						},
						{
							"paneltype": "FoodArrive",
							"defence": -1,
							"value": 0
						}
					]
			},
			{
				"listinfo": 
					[
						{
							"paneltype": "Default_Full",
							"defence": -1,
							"value": 0
						},
						{
							"paneltype": "Bottle_Cage",
							"defence": 1,
							"value": 0
						},
						{
							"paneltype": "FoodArrive",
							"defence": -1,
							"value": 0
						}
					]
			},
			{
				"listinfo": 
					[
						{
							"paneltype": "Default_Full",
							"defence": -1,
							"value": 0
						},
						{
							"paneltype": "Bottle_Cage",
							"defence": 1,
							"value": 0
						},
						{
							"paneltype": "FoodArrive",
							"defence": -1,
							"value": 0
						}
					]
			},
			{
				"listinfo": 
					[
						{
							"paneltype": "Default_Full",
							"defence": -1,
							"value": 0
						},
						{
							"paneltype": "Bottle_Cage",
							"defence": 5,
							"value": 0
						},
						{
							"paneltype": "FoodArrive",
							"defence": -1,
							"value": 0
						}
					]
			},
			{
				"listinfo": 
					[
						{
							"paneltype": "Default_Full",
							"defence": -1,
							"value": 0
						},
						{
							"paneltype": "Bottle_Cage",
							"defence": 1,
							"value": 0
						},
						{
							"paneltype": "FoodArrive",
							"defence": -1,
							"value": 0
						}
					]
			},
			{
				"listinfo": 
					[
						{
							"paneltype": "Default_Full",
							"defence": -1,
							"value": 0
						},
						{
							"paneltype": "Bottle_Cage",
							"defence": 5,
							"value": 0
						},
						{
							"paneltype": "FoodArrive",
							"defence": -1,
							"value": 0
						}
					]
			},
			{
				"listinfo": 
					[
						{
							"paneltype": "Default_Empty",
							"defence": -1,
							"value": 0
						}
					]
			}
		],
	"items": 
		[
			"Misson_Food1",
			"Normal",
			"Normal",
			"Normal",
			"Normal",
			"Normal",
			"Normal",
			"Misson_Food3",
			"None",
			"Normal",
			"Normal",
			"Normal",
			"TimeBomb",
			"TimeBomb",
			"Normal",
			"Normal",
			"Normal",
			"None",
			"Normal",
			"Normal",
			"Normal",
			"None",
			"None",
			"Normal",
			"Normal",
			"Normal",
			"None",
			"Normal",
			"Normal",
			"Normal",
			"None",
			"None",
			"Normal",
			"Normal",
			"Normal",
			"None",
			"Normal",
			"Normal",
			"Normal",
			"None",
			"None",
			"Normal",
			"Normal",
			"Normal",
			"None",
			"Normal",
			"Normal",
			"Normal",
			"Normal",
			"Normal",
			"Normal",
			"Normal",
			"Normal",
			"None",
			"Normal",
			"Normal",
			"Normal",
			"Normal",
			"Normal",
			"Normal",
			"Normal",
			"Normal",
			"None",
			"Normal",
			"Normal",
			"Normal",
			"Normal",
			"Normal",
			"Normal",
			"Normal",
			"Normal",
			"None",
			"TimeBomb",
			"Normal",
			"TimeBomb",
			"Normal",
			"Normal",
			"TimeBomb",
			"Normal",
			"TimeBomb",
			"None"
		],
	"colors": 
		[
			"None",
			"Rnd",
			"Rnd",
			"Rnd",
			"Rnd",
			"Rnd",
			"Rnd",
			"None",
			"None",
			"Rnd",
			"Rnd",
			"Rnd",
			"Rnd",
			"Rnd",
			"Rnd",
			"Rnd",
			"Rnd",
			"None",
			"Rnd",
			"Rnd",
			"Rnd",
			"None",
			"None",
			"Rnd",
			"Rnd",
			"Rnd",
			"None",
			"Rnd",
			"Rnd",
			"Rnd",
			"None",
			"None",
			"Rnd",
			"Rnd",
			"Rnd",
			"None",
			"Rnd",
			"Rnd",
			"Rnd",
			"None",
			"None",
			"Rnd",
			"Rnd",
			"Rnd",
			"None",
			"Rnd",
			"Rnd",
			"Rnd",
			"Rnd",
			"Rnd",
			"Rnd",
			"Rnd",
			"Rnd",
			"None",
			"Rnd",
			"Rnd",
			"Rnd",
			"Rnd",
			"Rnd",
			"Rnd",
			"Rnd",
			"PURPLE",
			"None",
			"Rnd",
			"Rnd",
			"Rnd",
			"Rnd",
			"Rnd",
			"Rnd",
			"Rnd",
			"Rnd",
			"None",
			"Rnd",
			"Rnd",
			"Rnd",
			"Rnd",
			"Rnd",
			"Rnd",
			"Rnd",
			"Rnd",
			"None"
		],
	"focus": 
		[],
	"defaultSpawnLine": 
		[
			true,
			true,
			true,
			true,
			true,
			true,
			true,
			true,
			true
		],
	"foodSpawnLine": 
		[
			false,
			false,
			false,
			false,
			false,
			false,
			false,
			false,
			false
		],
	"SpiralSpawnLine": 
		[
			false,
			false,
			false,
			false,
			false,
			false,
			false,
			false,
			false
		],
	"DonutSpawnLine": 
		[
			false,
			false,
			false,
			false,
			false,
			false,
			false,
			false,
			false
		],
	"TimeBombSpawnLine": 
		[
			false,
			false,
			false,
			false,
			false,
			false,
			false,
			false,
			false
		],
	"MysterySpawnLine": 
		[
			false,
			false,
			false,
			false,
			false,
			false,
			false,
			false,
			false
		],
	"ChameleonSpawnLine": 
		[
			false,
			false,
			false,
			false,
			false,
			false,
			false,
			false,
			false
		],
	"KeySpawnLine": 
		[
			false,
			false,
			false,
			false,
			false,
			false,
			false,
			false,
			false
		],
	"appearColor": 
		[
			true,
			false,
			true,
			true,
			true,
			false
		],
	"scoreStar1": 70000,
	"scoreStar2": 84000,
	"scoreStar3": 91500,
	"limit_Move": 30,
	"missionType": "Food",
	"isOrderNMission": false,
	"isOrderSMission": true,
	"isWaferMission": false,
	"isFoodMission": true,
	"isBearMission": false,
	"isIceCreamMission": false,
	"isJamMission": false,
	"missionInfo": 
		[
			{
				"type": "Food",
				"kind": "StrawberryCake",
				"count": 1
			},
			{
				"type": "Food",
				"kind": "MintCake",
				"count": 1
			},
			{
				"type": "OrderS",
				"kind": "TimeBomb",
				"count": 0
			}
		],
	"food_MaxExist": 0,
	"food_Interval": 0,
	"food_SpawnCnt": 0,
	"Spiral_MinExist": 0,
	"Spiral_MaxExist": 0,
	"Spiral_Interval": 0,
	"Spiral_SpawnCnt": 0,
	"Donut_MinExist": 0,
	"Donut_MaxExist": 0,
	"Donut_Interval": 0,
	"Donut_SpawnCnt": 0,
	"TimeBomb_MinExist": 0,
	"TimeBomb_MaxExist": 0,
	"TimeBomb_Interval": 0,
	"TimeBomb_SpawnCnt": 0,
	"TimeBomb_FirstCount": 20,
	"Bear_MaxExist": 0,
	"Bear_Interval": 0,
	"IceCream_Interval": 1,
	"IceCreamCreator_Interval": 1,
	"Mystery_SettingType": "Mystery_Basic",
	"Mystery_MinExist": 0,
	"Mystery_MaxExist": 0,
	"Mystery_Interval": 0,
	"Mystery_SpawnCnt": 0,
	"Chameleon_MinExist": 0,
	"Chameleon_MaxExist": 0,
	"Chameleon_Interval": 0,
	"Chameleon_SpawnCnt": 0,
	"Key_MinExist": 0,
	"Key_MaxExist": 0,
	"Key_Interval": 0,
	"Key_SpawnCnt": 0,
	"S_Tree_SettingType": "Basic",
	"JewelTreeItem": 
		[
			"Key",
			"Normal",
			"Butterfly",
			"Donut"
		],
	"JewelTreeItemColor": 
		[
			"Rnd",
			"Rnd",
			"Rnd",
			"None"
		]
}