﻿{
	"DropDirs": 
		[
			[
				"U"
			],
			[
				"U"
			],
			[
				"U"
			],
			[
				"U"
			],
			[
				"U"
			],
			[
				"U"
			],
			[
				"U"
			],
			[
				"U"
			],
			[
				"U"
			],
			[
				"U"
			],
			[
				"U"
			],
			[
				"U"
			],
			[
				"U"
			],
			[
				"U"
			],
			[
				"U"
			],
			[
				"U"
			],
			[
				"U"
			],
			[
				"U"
			],
			[
				"U"
			],
			[
				"U"
			],
			[
				"U"
			],
			[
				"U"
			],
			[
				"U"
			],
			[
				"U"
			],
			[
				"U"
			],
			[
				"U"
			],
			[
				"U"
			],
			[
				"U"
			],
			[
				"U"
			],
			[
				"U"
			],
			[
				"U"
			],
			[
				"U"
			],
			[
				"U"
			],
			[
				"U"
			],
			[
				"U"
			],
			[
				"U"
			],
			[
				"U"
			],
			[
				"U"
			],
			[
				"U"
			],
			[
				"U"
			],
			[
				"U"
			],
			[
				"U"
			],
			[
				"U"
			],
			[
				"U"
			],
			[
				"U"
			],
			[
				"U"
			],
			[
				"U"
			],
			[
				"U"
			],
			[
				"U"
			],
			[
				"U"
			],
			[
				"U"
			],
			[
				"U"
			],
			[
				"U"
			],
			[
				"U"
			],
			[
				"U"
			],
			[
				"U"
			],
			[
				"U"
			],
			[
				"U"
			],
			[
				"U"
			],
			[
				"U"
			],
			[
				"U"
			],
			[
				"U"
			],
			[
				"U"
			],
			[
				"U"
			],
			[
				"U"
			],
			[
				"U"
			],
			[
				"U"
			],
			[
				"U"
			],
			[
				"U"
			],
			[
				"U"
			],
			[
				"U"
			],
			[
				"U"
			],
			[
				"U"
			],
			[
				"U"
			],
			[
				"U"
			],
			[
				"U"
			],
			[
				"U"
			],
			[
				"U"
			],
			[
				"U"
			],
			[
				"U"
			],
			[
				"U"
			]
		],
	"isUseGravity": false,
	"panels": 
		[
			{
				"listinfo": 
					[
						{
							"paneltype": "Default_Full",
							"defence": -1,
							"value": 0
						},
						{
							"paneltype": "ConveyerBelt",
							"defence": -1,
							"value": 0,
							"addData": "{\r\n\t\"Type\": \"Mid\",\r\n\t\"Dir_In\": \"Right\",\r\n\t\"Dir_Out\": \"Bottom\",\r\n\t\"WaropIndex\": 63\r\n}"
						}
					]
			},
			{
				"listinfo": 
					[
						{
							"paneltype": "Default_Full",
							"defence": -1,
							"value": 0
						},
						{
							"paneltype": "ConveyerBelt",
							"defence": -1,
							"value": 0,
							"addData": "{\r\n\t\"Type\": \"Mid\",\r\n\t\"Dir_In\": \"Right\",\r\n\t\"Dir_Out\": \"Left\",\r\n\t\"WaropIndex\": 63\r\n}"
						}
					]
			},
			{
				"listinfo": 
					[
						{
							"paneltype": "Default_Full",
							"defence": -1,
							"value": 0
						},
						{
							"paneltype": "ConveyerBelt",
							"defence": -1,
							"value": 0,
							"addData": "{\r\n\t\"Type\": \"Mid\",\r\n\t\"Dir_In\": \"Right\",\r\n\t\"Dir_Out\": \"Left\",\r\n\t\"WaropIndex\": 63\r\n}"
						}
					]
			},
			{
				"listinfo": 
					[
						{
							"paneltype": "Default_Full",
							"defence": -1,
							"value": 0
						},
						{
							"paneltype": "ConveyerBelt",
							"defence": -1,
							"value": 0,
							"addData": "{\r\n\t\"Type\": \"Mid\",\r\n\t\"Dir_In\": \"Right\",\r\n\t\"Dir_Out\": \"Left\",\r\n\t\"WaropIndex\": 63\r\n}"
						}
					]
			},
			{
				"listinfo": 
					[
						{
							"paneltype": "Default_Full",
							"defence": -1,
							"value": 0
						},
						{
							"paneltype": "ConveyerBelt",
							"defence": -1,
							"value": 0,
							"addData": "{\r\n\t\"Type\": \"Mid\",\r\n\t\"Dir_In\": \"Right\",\r\n\t\"Dir_Out\": \"Left\",\r\n\t\"WaropIndex\": 63\r\n}"
						}
					]
			},
			{
				"listinfo": 
					[
						{
							"paneltype": "Default_Full",
							"defence": -1,
							"value": 0
						},
						{
							"paneltype": "ConveyerBelt",
							"defence": -1,
							"value": 0,
							"addData": "{\r\n\t\"Type\": \"Mid\",\r\n\t\"Dir_In\": \"Right\",\r\n\t\"Dir_Out\": \"Left\",\r\n\t\"WaropIndex\": 63\r\n}"
						}
					]
			},
			{
				"listinfo": 
					[
						{
							"paneltype": "Default_Full",
							"defence": -1,
							"value": 0
						},
						{
							"paneltype": "ConveyerBelt",
							"defence": -1,
							"value": 0,
							"addData": "{\r\n\t\"Type\": \"Mid\",\r\n\t\"Dir_In\": \"Right\",\r\n\t\"Dir_Out\": \"Left\",\r\n\t\"WaropIndex\": 63\r\n}"
						}
					]
			},
			{
				"listinfo": 
					[
						{
							"paneltype": "Default_Full",
							"defence": -1,
							"value": 0
						},
						{
							"paneltype": "ConveyerBelt",
							"defence": -1,
							"value": 0,
							"addData": "{\r\n\t\"Type\": \"Mid\",\r\n\t\"Dir_In\": \"Right\",\r\n\t\"Dir_Out\": \"Left\",\r\n\t\"WaropIndex\": 63\r\n}"
						}
					]
			},
			{
				"listinfo": 
					[
						{
							"paneltype": "Default_Full",
							"defence": -1,
							"value": 0
						},
						{
							"paneltype": "ConveyerBelt",
							"defence": -1,
							"value": 0,
							"addData": "{\r\n\t\"Type\": \"Mid\",\r\n\t\"Dir_In\": \"Bottom\",\r\n\t\"Dir_Out\": \"Left\",\r\n\t\"WaropIndex\": 63\r\n}"
						}
					]
			},
			{
				"listinfo": 
					[
						{
							"paneltype": "Default_Full",
							"defence": -1,
							"value": 0
						},
						{
							"paneltype": "ConveyerBelt",
							"defence": -1,
							"value": 0,
							"addData": "{\r\n\t\"Type\": \"Mid\",\r\n\t\"Dir_In\": \"Top\",\r\n\t\"Dir_Out\": \"Bottom\",\r\n\t\"WaropIndex\": 63\r\n}"
						}
					]
			},
			{
				"listinfo": 
					[
						{
							"paneltype": "Default_Empty",
							"defence": -1,
							"value": 0
						}
					]
			},
			{
				"listinfo": 
					[
						{
							"paneltype": "Default_Empty",
							"defence": -1,
							"value": 0
						}
					]
			},
			{
				"listinfo": 
					[
						{
							"paneltype": "Default_Full",
							"defence": -1,
							"value": 0
						}
					]
			},
			{
				"listinfo": 
					[
						{
							"paneltype": "Default_Full",
							"defence": -1,
							"value": 0
						}
					]
			},
			{
				"listinfo": 
					[
						{
							"paneltype": "Default_Full",
							"defence": -1,
							"value": 0
						}
					]
			},
			{
				"listinfo": 
					[
						{
							"paneltype": "Default_Empty",
							"defence": -1,
							"value": 0
						}
					]
			},
			{
				"listinfo": 
					[
						{
							"paneltype": "Default_Empty",
							"defence": -1,
							"value": 0
						}
					]
			},
			{
				"listinfo": 
					[
						{
							"paneltype": "Default_Full",
							"defence": -1,
							"value": 0
						},
						{
							"paneltype": "ConveyerBelt",
							"defence": -1,
							"value": 0,
							"addData": "{\r\n\t\"Type\": \"Mid\",\r\n\t\"Dir_In\": \"Bottom\",\r\n\t\"Dir_Out\": \"Top\",\r\n\t\"WaropIndex\": 63\r\n}"
						}
					]
			},
			{
				"listinfo": 
					[
						{
							"paneltype": "Default_Full",
							"defence": -1,
							"value": 0
						},
						{
							"paneltype": "ConveyerBelt",
							"defence": -1,
							"value": 0,
							"addData": "{\r\n\t\"Type\": \"Mid\",\r\n\t\"Dir_In\": \"Top\",\r\n\t\"Dir_Out\": \"Bottom\",\r\n\t\"WaropIndex\": 63\r\n}"
						}
					]
			},
			{
				"listinfo": 
					[
						{
							"paneltype": "Default_Empty",
							"defence": -1,
							"value": 0
						}
					]
			},
			{
				"listinfo": 
					[
						{
							"paneltype": "Default_Full",
							"defence": -1,
							"value": 0
						}
					]
			},
			{
				"listinfo": 
					[
						{
							"paneltype": "Default_Full",
							"defence": -1,
							"value": 0
						}
					]
			},
			{
				"listinfo": 
					[
						{
							"paneltype": "Default_Full",
							"defence": -1,
							"value": 0
						}
					]
			},
			{
				"listinfo": 
					[
						{
							"paneltype": "Default_Full",
							"defence": -1,
							"value": 0
						}
					]
			},
			{
				"listinfo": 
					[
						{
							"paneltype": "Default_Full",
							"defence": -1,
							"value": 0
						}
					]
			},
			{
				"listinfo": 
					[
						{
							"paneltype": "Default_Empty",
							"defence": -1,
							"value": 0
						}
					]
			},
			{
				"listinfo": 
					[
						{
							"paneltype": "Default_Full",
							"defence": -1,
							"value": 0
						},
						{
							"paneltype": "ConveyerBelt",
							"defence": -1,
							"value": 0,
							"addData": "{\r\n\t\"Type\": \"Mid\",\r\n\t\"Dir_In\": \"Bottom\",\r\n\t\"Dir_Out\": \"Top\",\r\n\t\"WaropIndex\": 63\r\n}"
						}
					]
			},
			{
				"listinfo": 
					[
						{
							"paneltype": "Default_Full",
							"defence": -1,
							"value": 0
						},
						{
							"paneltype": "ConveyerBelt",
							"defence": -1,
							"value": 0,
							"addData": "{\r\n\t\"Type\": \"Mid\",\r\n\t\"Dir_In\": \"Top\",\r\n\t\"Dir_Out\": \"Bottom\",\r\n\t\"WaropIndex\": 63\r\n}"
						}
					]
			},
			{
				"listinfo": 
					[
						{
							"paneltype": "Default_Full",
							"defence": -1,
							"value": 0
						},
						{
							"paneltype": "Bread_Block",
							"defence": 5,
							"value": 0
						}
					]
			},
			{
				"listinfo": 
					[
						{
							"paneltype": "Default_Full",
							"defence": -1,
							"value": 0
						}
					]
			},
			{
				"listinfo": 
					[
						{
							"paneltype": "Default_Full",
							"defence": -1,
							"value": 0
						}
					]
			},
			{
				"listinfo": 
					[
						{
							"paneltype": "Default_Full",
							"defence": -1,
							"value": 0
						}
					]
			},
			{
				"listinfo": 
					[
						{
							"paneltype": "Default_Full",
							"defence": -1,
							"value": 0
						}
					]
			},
			{
				"listinfo": 
					[
						{
							"paneltype": "Default_Full",
							"defence": -1,
							"value": 0
						}
					]
			},
			{
				"listinfo": 
					[
						{
							"paneltype": "Default_Full",
							"defence": -1,
							"value": 0
						},
						{
							"paneltype": "Bread_Block",
							"defence": 5,
							"value": 0
						}
					]
			},
			{
				"listinfo": 
					[
						{
							"paneltype": "Default_Full",
							"defence": -1,
							"value": 0
						},
						{
							"paneltype": "ConveyerBelt",
							"defence": -1,
							"value": 0,
							"addData": "{\r\n\t\"Type\": \"Mid\",\r\n\t\"Dir_In\": \"Bottom\",\r\n\t\"Dir_Out\": \"Top\",\r\n\t\"WaropIndex\": 63\r\n}"
						}
					]
			},
			{
				"listinfo": 
					[
						{
							"paneltype": "Default_Full",
							"defence": -1,
							"value": 0
						},
						{
							"paneltype": "ConveyerBelt",
							"defence": -1,
							"value": 0,
							"addData": "{\r\n\t\"Type\": \"Mid\",\r\n\t\"Dir_In\": \"Top\",\r\n\t\"Dir_Out\": \"Bottom\",\r\n\t\"WaropIndex\": 63\r\n}"
						}
					]
			},
			{
				"listinfo": 
					[
						{
							"paneltype": "Default_Empty",
							"defence": -1,
							"value": 0
						}
					]
			},
			{
				"listinfo": 
					[
						{
							"paneltype": "Default_Empty",
							"defence": -1,
							"value": 0
						}
					]
			},
			{
				"listinfo": 
					[
						{
							"paneltype": "Default_Full",
							"defence": -1,
							"value": 0
						},
						{
							"paneltype": "Bread_Block",
							"defence": 5,
							"value": 0
						}
					]
			},
			{
				"listinfo": 
					[
						{
							"paneltype": "Default_Full",
							"defence": -1,
							"value": 0
						},
						{
							"paneltype": "Bread_Block",
							"defence": 5,
							"value": 0
						}
					]
			},
			{
				"listinfo": 
					[
						{
							"paneltype": "Default_Full",
							"defence": -1,
							"value": 0
						},
						{
							"paneltype": "Bread_Block",
							"defence": 5,
							"value": 0
						}
					]
			},
			{
				"listinfo": 
					[
						{
							"paneltype": "Default_Empty",
							"defence": -1,
							"value": 0
						}
					]
			},
			{
				"listinfo": 
					[
						{
							"paneltype": "Default_Empty",
							"defence": -1,
							"value": 0
						}
					]
			},
			{
				"listinfo": 
					[
						{
							"paneltype": "Default_Full",
							"defence": -1,
							"value": 0
						},
						{
							"paneltype": "ConveyerBelt",
							"defence": -1,
							"value": 0,
							"addData": "{\r\n\t\"Type\": \"Mid\",\r\n\t\"Dir_In\": \"Bottom\",\r\n\t\"Dir_Out\": \"Top\",\r\n\t\"WaropIndex\": 63\r\n}"
						}
					]
			},
			{
				"listinfo": 
					[
						{
							"paneltype": "Default_Full",
							"defence": -1,
							"value": 0
						},
						{
							"paneltype": "ConveyerBelt",
							"defence": -1,
							"value": 0,
							"addData": "{\r\n\t\"Type\": \"Mid\",\r\n\t\"Dir_In\": \"Top\",\r\n\t\"Dir_Out\": \"Bottom\",\r\n\t\"WaropIndex\": 63\r\n}"
						}
					]
			},
			{
				"listinfo": 
					[
						{
							"paneltype": "Default_Empty",
							"defence": -1,
							"value": 0
						}
					]
			},
			{
				"listinfo": 
					[
						{
							"paneltype": "Default_Full",
							"defence": -1,
							"value": 0
						}
					]
			},
			{
				"listinfo": 
					[
						{
							"paneltype": "Default_Full",
							"defence": -1,
							"value": 0
						}
					]
			},
			{
				"listinfo": 
					[
						{
							"paneltype": "Default_Full",
							"defence": -1,
							"value": 0
						}
					]
			},
			{
				"listinfo": 
					[
						{
							"paneltype": "Default_Full",
							"defence": -1,
							"value": 0
						}
					]
			},
			{
				"listinfo": 
					[
						{
							"paneltype": "Default_Full",
							"defence": -1,
							"value": 0
						}
					]
			},
			{
				"listinfo": 
					[
						{
							"paneltype": "Default_Empty",
							"defence": -1,
							"value": 0
						}
					]
			},
			{
				"listinfo": 
					[
						{
							"paneltype": "Default_Full",
							"defence": -1,
							"value": 0
						},
						{
							"paneltype": "ConveyerBelt",
							"defence": -1,
							"value": 0,
							"addData": "{\r\n\t\"Type\": \"Mid\",\r\n\t\"Dir_In\": \"Bottom\",\r\n\t\"Dir_Out\": \"Top\",\r\n\t\"WaropIndex\": 63\r\n}"
						}
					]
			},
			{
				"listinfo": 
					[
						{
							"paneltype": "Default_Full",
							"defence": -1,
							"value": 0
						},
						{
							"paneltype": "ConveyerBelt",
							"defence": -1,
							"value": 0,
							"addData": "{\r\n\t\"Type\": \"Mid\",\r\n\t\"Dir_In\": \"Top\",\r\n\t\"Dir_Out\": \"Bottom\",\r\n\t\"WaropIndex\": 63\r\n}"
						}
					]
			},
			{
				"listinfo": 
					[
						{
							"paneltype": "Default_Full",
							"defence": -1,
							"value": 0
						}
					]
			},
			{
				"listinfo": 
					[
						{
							"paneltype": "Default_Full",
							"defence": -1,
							"value": 0
						}
					]
			},
			{
				"listinfo": 
					[
						{
							"paneltype": "Default_Full",
							"defence": -1,
							"value": 0
						}
					]
			},
			{
				"listinfo": 
					[
						{
							"paneltype": "Default_Full",
							"defence": -1,
							"value": 0
						}
					]
			},
			{
				"listinfo": 
					[
						{
							"paneltype": "Default_Full",
							"defence": -1,
							"value": 0
						}
					]
			},
			{
				"listinfo": 
					[
						{
							"paneltype": "Default_Full",
							"defence": -1,
							"value": 0
						}
					]
			},
			{
				"listinfo": 
					[
						{
							"paneltype": "Default_Full",
							"defence": -1,
							"value": 0
						}
					]
			},
			{
				"listinfo": 
					[
						{
							"paneltype": "Default_Full",
							"defence": -1,
							"value": 0
						},
						{
							"paneltype": "ConveyerBelt",
							"defence": -1,
							"value": 0,
							"addData": "{\r\n\t\"Type\": \"Mid\",\r\n\t\"Dir_In\": \"Bottom\",\r\n\t\"Dir_Out\": \"Top\",\r\n\t\"WaropIndex\": 63\r\n}"
						}
					]
			},
			{
				"listinfo": 
					[
						{
							"paneltype": "Default_Full",
							"defence": -1,
							"value": 0
						},
						{
							"paneltype": "ConveyerBelt",
							"defence": -1,
							"value": 0,
							"addData": "{\r\n\t\"Type\": \"Mid\",\r\n\t\"Dir_In\": \"Top\",\r\n\t\"Dir_Out\": \"Right\",\r\n\t\"WaropIndex\": 63\r\n}"
						}
					]
			},
			{
				"listinfo": 
					[
						{
							"paneltype": "Default_Full",
							"defence": -1,
							"value": 0
						},
						{
							"paneltype": "ConveyerBelt",
							"defence": -1,
							"value": 0,
							"addData": "{\r\n\t\"Type\": \"Mid\",\r\n\t\"Dir_In\": \"Left\",\r\n\t\"Dir_Out\": \"Right\",\r\n\t\"WaropIndex\": 63\r\n}"
						}
					]
			},
			{
				"listinfo": 
					[
						{
							"paneltype": "Default_Full",
							"defence": -1,
							"value": 0
						},
						{
							"paneltype": "ConveyerBelt",
							"defence": -1,
							"value": 0,
							"addData": "{\r\n\t\"Type\": \"Mid\",\r\n\t\"Dir_In\": \"Left\",\r\n\t\"Dir_Out\": \"Right\",\r\n\t\"WaropIndex\": 63\r\n}"
						}
					]
			},
			{
				"listinfo": 
					[
						{
							"paneltype": "Default_Full",
							"defence": -1,
							"value": 0
						},
						{
							"paneltype": "ConveyerBelt",
							"defence": -1,
							"value": 0,
							"addData": "{\r\n\t\"Type\": \"Mid\",\r\n\t\"Dir_In\": \"Left\",\r\n\t\"Dir_Out\": \"Right\",\r\n\t\"WaropIndex\": 63\r\n}"
						}
					]
			},
			{
				"listinfo": 
					[
						{
							"paneltype": "Default_Full",
							"defence": -1,
							"value": 0
						},
						{
							"paneltype": "ConveyerBelt",
							"defence": -1,
							"value": 0,
							"addData": "{\r\n\t\"Type\": \"Mid\",\r\n\t\"Dir_In\": \"Left\",\r\n\t\"Dir_Out\": \"Right\",\r\n\t\"WaropIndex\": 63\r\n}"
						}
					]
			},
			{
				"listinfo": 
					[
						{
							"paneltype": "Default_Full",
							"defence": -1,
							"value": 0
						},
						{
							"paneltype": "ConveyerBelt",
							"defence": -1,
							"value": 0,
							"addData": "{\r\n\t\"Type\": \"Mid\",\r\n\t\"Dir_In\": \"Left\",\r\n\t\"Dir_Out\": \"Right\",\r\n\t\"WaropIndex\": 63\r\n}"
						}
					]
			},
			{
				"listinfo": 
					[
						{
							"paneltype": "Default_Full",
							"defence": -1,
							"value": 0
						},
						{
							"paneltype": "ConveyerBelt",
							"defence": -1,
							"value": 0,
							"addData": "{\r\n\t\"Type\": \"Mid\",\r\n\t\"Dir_In\": \"Left\",\r\n\t\"Dir_Out\": \"Right\",\r\n\t\"WaropIndex\": 63\r\n}"
						}
					]
			},
			{
				"listinfo": 
					[
						{
							"paneltype": "Default_Full",
							"defence": -1,
							"value": 0
						},
						{
							"paneltype": "ConveyerBelt",
							"defence": -1,
							"value": 0,
							"addData": "{\r\n\t\"Type\": \"Mid\",\r\n\t\"Dir_In\": \"Left\",\r\n\t\"Dir_Out\": \"Right\",\r\n\t\"WaropIndex\": 63\r\n}"
						}
					]
			},
			{
				"listinfo": 
					[
						{
							"paneltype": "Default_Full",
							"defence": -1,
							"value": 0
						},
						{
							"paneltype": "ConveyerBelt",
							"defence": -1,
							"value": 0,
							"addData": "{\r\n\t\"Type\": \"Mid\",\r\n\t\"Dir_In\": \"Left\",\r\n\t\"Dir_Out\": \"Top\",\r\n\t\"WaropIndex\": 63\r\n}"
						}
					]
			},
			{
				"listinfo": 
					[
						{
							"paneltype": "Default_Empty",
							"defence": -1,
							"value": 0
						}
					]
			},
			{
				"listinfo": 
					[
						{
							"paneltype": "Default_Empty",
							"defence": -1,
							"value": 0
						}
					]
			},
			{
				"listinfo": 
					[
						{
							"paneltype": "Default_Empty",
							"defence": -1,
							"value": 0
						}
					]
			},
			{
				"listinfo": 
					[
						{
							"paneltype": "Default_Empty",
							"defence": -1,
							"value": 0
						}
					]
			},
			{
				"listinfo": 
					[
						{
							"paneltype": "Default_Empty",
							"defence": -1,
							"value": 0
						}
					]
			},
			{
				"listinfo": 
					[
						{
							"paneltype": "Default_Empty",
							"defence": -1,
							"value": 0
						}
					]
			},
			{
				"listinfo": 
					[
						{
							"paneltype": "Default_Empty",
							"defence": -1,
							"value": 0
						}
					]
			},
			{
				"listinfo": 
					[
						{
							"paneltype": "Default_Empty",
							"defence": -1,
							"value": 0
						}
					]
			},
			{
				"listinfo": 
					[
						{
							"paneltype": "Default_Empty",
							"defence": -1,
							"value": 0
						}
					]
			}
		],
	"items": 
		[
			"Mystery",
			"Normal",
			"Normal",
			"Normal",
			"Normal",
			"Normal",
			"Normal",
			"Normal",
			"Mystery",
			"Normal",
			"None",
			"None",
			"Normal",
			"Normal",
			"Normal",
			"None",
			"None",
			"Normal",
			"Normal",
			"None",
			"Normal",
			"Normal",
			"Normal",
			"Normal",
			"Normal",
			"None",
			"Normal",
			"Normal",
			"None",
			"Normal",
			"Normal",
			"Normal",
			"Normal",
			"Normal",
			"None",
			"Normal",
			"Normal",
			"None",
			"None",
			"None",
			"None",
			"None",
			"None",
			"None",
			"Normal",
			"Normal",
			"None",
			"Normal",
			"Normal",
			"Normal",
			"Normal",
			"Normal",
			"None",
			"Normal",
			"Normal",
			"Normal",
			"Normal",
			"Normal",
			"Normal",
			"Normal",
			"Normal",
			"Normal",
			"Normal",
			"Mystery",
			"Normal",
			"Normal",
			"Normal",
			"Normal",
			"Normal",
			"Normal",
			"Normal",
			"Mystery",
			"None",
			"None",
			"None",
			"None",
			"None",
			"None",
			"None",
			"None",
			"None"
		],
	"colors": 
		[
			"Rnd",
			"Rnd",
			"Rnd",
			"Rnd",
			"RED",
			"Rnd",
			"Rnd",
			"Rnd",
			"Rnd",
			"Rnd",
			"None",
			"None",
			"RED",
			"Rnd",
			"RED",
			"None",
			"None",
			"Rnd",
			"Rnd",
			"None",
			"Rnd",
			"Rnd",
			"RED",
			"Rnd",
			"Rnd",
			"None",
			"Rnd",
			"Rnd",
			"None",
			"Rnd",
			"Rnd",
			"RED",
			"Rnd",
			"Rnd",
			"None",
			"Rnd",
			"Rnd",
			"None",
			"None",
			"None",
			"None",
			"None",
			"None",
			"None",
			"Rnd",
			"Rnd",
			"None",
			"Rnd",
			"Rnd",
			"Rnd",
			"YELLOW",
			"Rnd",
			"None",
			"Rnd",
			"Rnd",
			"Rnd",
			"Rnd",
			"YELLOW",
			"YELLOW",
			"Rnd",
			"YELLOW",
			"Rnd",
			"Rnd",
			"Rnd",
			"Rnd",
			"Rnd",
			"Rnd",
			"YELLOW",
			"Rnd",
			"Rnd",
			"Rnd",
			"Rnd",
			"None",
			"None",
			"None",
			"None",
			"None",
			"None",
			"None",
			"None",
			"None"
		],
	"focus": 
		[],
	"defaultSpawnLine": 
		[
			true,
			true,
			true,
			true,
			true,
			true,
			true,
			true,
			true
		],
	"foodSpawnLine": 
		[
			false,
			false,
			false,
			false,
			false,
			false,
			false,
			false,
			false
		],
	"SpiralSpawnLine": 
		[
			false,
			false,
			false,
			false,
			false,
			false,
			false,
			false,
			false
		],
	"DonutSpawnLine": 
		[
			false,
			false,
			false,
			false,
			false,
			false,
			false,
			false,
			false
		],
	"TimeBombSpawnLine": 
		[
			false,
			false,
			false,
			false,
			false,
			false,
			false,
			false,
			false
		],
	"MysterySpawnLine": 
		[
			true,
			false,
			false,
			true,
			true,
			true,
			false,
			false,
			true
		],
	"ChameleonSpawnLine": 
		[
			false,
			false,
			false,
			false,
			false,
			false,
			false,
			false,
			false
		],
	"KeySpawnLine": 
		[
			false,
			false,
			false,
			false,
			false,
			false,
			false,
			false,
			false
		],
	"appearColor": 
		[
			true,
			true,
			true,
			true,
			false,
			false
		],
	"scoreStar1": 11000,
	"scoreStar2": 16000,
	"scoreStar3": 20000,
	"limit_Move": 30,
	"missionType": "OrderS",
	"isOrderNMission": false,
	"isOrderSMission": true,
	"isWaferMission": false,
	"isFoodMission": false,
	"isBearMission": false,
	"isIceCreamMission": false,
	"isJamMission": false,
	"missionInfo": 
		[
			{
				"type": "OrderS",
				"kind": "Line",
				"count": 20
			},
			{
				"type": "OrderS",
				"kind": "Rainbow",
				"count": 1
			},
			{
				"type": "OrderS",
				"kind": "Bomb",
				"count": 10
			}
		],
	"food_MaxExist": 0,
	"food_Interval": 0,
	"food_SpawnCnt": 0,
	"Spiral_MinExist": 0,
	"Spiral_MaxExist": 0,
	"Spiral_Interval": 0,
	"Spiral_SpawnCnt": 0,
	"Donut_MinExist": 0,
	"Donut_MaxExist": 0,
	"Donut_Interval": 0,
	"Donut_SpawnCnt": 0,
	"TimeBomb_MinExist": 0,
	"TimeBomb_MaxExist": 0,
	"TimeBomb_Interval": 0,
	"TimeBomb_SpawnCnt": 0,
	"TimeBomb_FirstCount": 16,
	"Bear_MaxExist": 0,
	"Bear_Interval": 0,
	"IceCream_Interval": 1,
	"IceCreamCreator_Interval": 1,
	"Mystery_SettingType": "Mystery_Basic",
	"Mystery_MinExist": 1,
	"Mystery_MaxExist": 6,
	"Mystery_Interval": 1,
	"Mystery_SpawnCnt": 1,
	"Chameleon_MinExist": 0,
	"Chameleon_MaxExist": 0,
	"Chameleon_Interval": 0,
	"Chameleon_SpawnCnt": 0,
	"Key_MinExist": 0,
	"Key_MaxExist": 0,
	"Key_Interval": 0,
	"Key_SpawnCnt": 0,
	"S_Tree_SettingType": "Basic",
	"JewelTreeItem": 
		[
			"Line_X",
			"Line_X",
			"Line_X",
			"Line_X"
		],
	"JewelTreeItemColor": 
		[
			"Rnd",
			"Rnd",
			"Rnd",
			"Rnd"
		]
}