﻿{
	"DropDirs": 
		[
			[
				"U"
			],
			[
				"U"
			],
			[
				"U"
			],
			[
				"U"
			],
			[
				"U"
			],
			[
				"U"
			],
			[
				"U"
			],
			[
				"U"
			],
			[
				"U"
			],
			[
				"U"
			],
			[
				"U"
			],
			[
				"U"
			],
			[
				"U"
			],
			[
				"U"
			],
			[
				"U"
			],
			[
				"U"
			],
			[
				"U"
			],
			[
				"U"
			],
			[
				"U"
			],
			[
				"U"
			],
			[
				"U"
			],
			[
				"U"
			],
			[
				"U"
			],
			[
				"U"
			],
			[
				"U"
			],
			[
				"U"
			],
			[
				"U"
			],
			[
				"U"
			],
			[
				"U"
			],
			[
				"U"
			],
			[
				"U"
			],
			[
				"U"
			],
			[
				"U"
			],
			[
				"U"
			],
			[
				"U"
			],
			[
				"U"
			],
			[
				"U"
			],
			[
				"U"
			],
			[
				"U"
			],
			[
				"U"
			],
			[
				"U"
			],
			[
				"U"
			],
			[
				"U"
			],
			[
				"U"
			],
			[
				"U"
			],
			[
				"U"
			],
			[
				"U"
			],
			[
				"U"
			],
			[
				"U"
			],
			[
				"U"
			],
			[
				"U"
			],
			[
				"U"
			],
			[
				"U"
			],
			[
				"U"
			],
			[
				"U"
			],
			[
				"U"
			],
			[
				"U"
			],
			[
				"U"
			],
			[
				"U"
			],
			[
				"U"
			],
			[
				"U"
			],
			[
				"U"
			],
			[
				"U"
			],
			[
				"U"
			],
			[
				"U"
			],
			[
				"U"
			],
			[
				"U"
			],
			[
				"U"
			],
			[
				"U"
			],
			[
				"U"
			],
			[
				"U"
			],
			[
				"U"
			],
			[
				"U"
			],
			[
				"U"
			],
			[
				"U"
			],
			[
				"U"
			],
			[
				"U"
			],
			[
				"U"
			],
			[
				"U"
			],
			[
				"U"
			],
			[
				"U"
			]
		],
	"isUseGravity": false,
	"panels": 
		[
			{
				"listinfo": 
					[
						{
							"paneltype": "Default_Full",
							"defence": -1,
							"value": 0
						}
					]
			},
			{
				"listinfo": 
					[
						{
							"paneltype": "Default_Full",
							"defence": -1,
							"value": 0
						}
					]
			},
			{
				"listinfo": 
					[
						{
							"paneltype": "Default_Full",
							"defence": -1,
							"value": 0
						}
					]
			},
			{
				"listinfo": 
					[
						{
							"paneltype": "Default_Full",
							"defence": -1,
							"value": 0
						}
					]
			},
			{
				"listinfo": 
					[
						{
							"paneltype": "Default_Full",
							"defence": -1,
							"value": 0
						}
					]
			},
			{
				"listinfo": 
					[
						{
							"paneltype": "Default_Full",
							"defence": -1,
							"value": 0
						}
					]
			},
			{
				"listinfo": 
					[
						{
							"paneltype": "Default_Full",
							"defence": -1,
							"value": 0
						}
					]
			},
			{
				"listinfo": 
					[
						{
							"paneltype": "Default_Full",
							"defence": -1,
							"value": 0
						}
					]
			},
			{
				"listinfo": 
					[
						{
							"paneltype": "Default_Full",
							"defence": -1,
							"value": 0
						}
					]
			},
			{
				"listinfo": 
					[
						{
							"paneltype": "Default_Full",
							"defence": -1,
							"value": 0
						}
					]
			},
			{
				"listinfo": 
					[
						{
							"paneltype": "Default_Full",
							"defence": -1,
							"value": 0
						}
					]
			},
			{
				"listinfo": 
					[
						{
							"paneltype": "Default_Full",
							"defence": -1,
							"value": 0
						}
					]
			},
			{
				"listinfo": 
					[
						{
							"paneltype": "Default_Full",
							"defence": -1,
							"value": 0
						}
					]
			},
			{
				"listinfo": 
					[
						{
							"paneltype": "Default_Full",
							"defence": -1,
							"value": 0
						}
					]
			},
			{
				"listinfo": 
					[
						{
							"paneltype": "Default_Full",
							"defence": -1,
							"value": 0
						}
					]
			},
			{
				"listinfo": 
					[
						{
							"paneltype": "Default_Full",
							"defence": -1,
							"value": 0
						}
					]
			},
			{
				"listinfo": 
					[
						{
							"paneltype": "Default_Full",
							"defence": -1,
							"value": 0
						}
					]
			},
			{
				"listinfo": 
					[
						{
							"paneltype": "Default_Full",
							"defence": -1,
							"value": 0
						}
					]
			},
			{
				"listinfo": 
					[
						{
							"paneltype": "Default_Full",
							"defence": -1,
							"value": 0
						}
					]
			},
			{
				"listinfo": 
					[
						{
							"paneltype": "Default_Full",
							"defence": -1,
							"value": 0
						}
					]
			},
			{
				"listinfo": 
					[
						{
							"paneltype": "Default_Full",
							"defence": -1,
							"value": 0
						}
					]
			},
			{
				"listinfo": 
					[
						{
							"paneltype": "Default_Full",
							"defence": -1,
							"value": 0
						}
					]
			},
			{
				"listinfo": 
					[
						{
							"paneltype": "Default_Full",
							"defence": -1,
							"value": 0
						}
					]
			},
			{
				"listinfo": 
					[
						{
							"paneltype": "Default_Full",
							"defence": -1,
							"value": 0
						}
					]
			},
			{
				"listinfo": 
					[
						{
							"paneltype": "Default_Full",
							"defence": -1,
							"value": 0
						}
					]
			},
			{
				"listinfo": 
					[
						{
							"paneltype": "Default_Full",
							"defence": -1,
							"value": 0
						}
					]
			},
			{
				"listinfo": 
					[
						{
							"paneltype": "Default_Full",
							"defence": -1,
							"value": 0
						}
					]
			},
			{
				"listinfo": 
					[
						{
							"paneltype": "Default_Full",
							"defence": -1,
							"value": 0
						},
						{
							"paneltype": "ConveyerBelt",
							"defence": -1,
							"value": 0,
							"addData": "{\r\n\t\"Type\": \"End\",\r\n\t\"Dir_In\": \"Right\",\r\n\t\"Dir_Out\": \"Left\",\r\n\t\"WaropIndex\": 35\r\n}"
						}
					]
			},
			{
				"listinfo": 
					[
						{
							"paneltype": "Default_Full",
							"defence": -1,
							"value": 0
						},
						{
							"paneltype": "ConveyerBelt",
							"defence": -1,
							"value": 0,
							"addData": "{\r\n\t\"Type\": \"Mid\",\r\n\t\"Dir_In\": \"Right\",\r\n\t\"Dir_Out\": \"Left\",\r\n\t\"WaropIndex\": 35\r\n}"
						}
					]
			},
			{
				"listinfo": 
					[
						{
							"paneltype": "Default_Full",
							"defence": -1,
							"value": 0
						},
						{
							"paneltype": "ConveyerBelt",
							"defence": -1,
							"value": 0,
							"addData": "{\r\n\t\"Type\": \"Mid\",\r\n\t\"Dir_In\": \"Right\",\r\n\t\"Dir_Out\": \"Left\",\r\n\t\"WaropIndex\": 35\r\n}"
						}
					]
			},
			{
				"listinfo": 
					[
						{
							"paneltype": "Default_Full",
							"defence": -1,
							"value": 0
						},
						{
							"paneltype": "ConveyerBelt",
							"defence": -1,
							"value": 0,
							"addData": "{\r\n\t\"Type\": \"Mid\",\r\n\t\"Dir_In\": \"Right\",\r\n\t\"Dir_Out\": \"Left\",\r\n\t\"WaropIndex\": 35\r\n}"
						}
					]
			},
			{
				"listinfo": 
					[
						{
							"paneltype": "Default_Full",
							"defence": -1,
							"value": 0
						},
						{
							"paneltype": "ConveyerBelt",
							"defence": -1,
							"value": 0,
							"addData": "{\r\n\t\"Type\": \"Mid\",\r\n\t\"Dir_In\": \"Right\",\r\n\t\"Dir_Out\": \"Left\",\r\n\t\"WaropIndex\": 35\r\n}"
						}
					]
			},
			{
				"listinfo": 
					[
						{
							"paneltype": "Default_Full",
							"defence": -1,
							"value": 0
						},
						{
							"paneltype": "ConveyerBelt",
							"defence": -1,
							"value": 0,
							"addData": "{\r\n\t\"Type\": \"Mid\",\r\n\t\"Dir_In\": \"Right\",\r\n\t\"Dir_Out\": \"Left\",\r\n\t\"WaropIndex\": 35\r\n}"
						}
					]
			},
			{
				"listinfo": 
					[
						{
							"paneltype": "Default_Full",
							"defence": -1,
							"value": 0
						},
						{
							"paneltype": "ConveyerBelt",
							"defence": -1,
							"value": 0,
							"addData": "{\r\n\t\"Type\": \"Mid\",\r\n\t\"Dir_In\": \"Right\",\r\n\t\"Dir_Out\": \"Left\",\r\n\t\"WaropIndex\": 35\r\n}"
						}
					]
			},
			{
				"listinfo": 
					[
						{
							"paneltype": "Default_Full",
							"defence": -1,
							"value": 0
						},
						{
							"paneltype": "ConveyerBelt",
							"defence": -1,
							"value": 0,
							"addData": "{\r\n\t\"Type\": \"Mid\",\r\n\t\"Dir_In\": \"Right\",\r\n\t\"Dir_Out\": \"Left\",\r\n\t\"WaropIndex\": 35\r\n}"
						}
					]
			},
			{
				"listinfo": 
					[
						{
							"paneltype": "Default_Full",
							"defence": -1,
							"value": 0
						},
						{
							"paneltype": "ConveyerBelt",
							"defence": -1,
							"value": 0,
							"addData": "{\r\n\t\"Type\": \"Start\",\r\n\t\"Dir_In\": \"Right\",\r\n\t\"Dir_Out\": \"Left\",\r\n\t\"WaropIndex\": 35\r\n}"
						}
					]
			},
			{
				"listinfo": 
					[
						{
							"paneltype": "Default_Full",
							"defence": -1,
							"value": 0
						}
					]
			},
			{
				"listinfo": 
					[
						{
							"paneltype": "Default_Empty",
							"defence": -1,
							"value": 0
						}
					]
			},
			{
				"listinfo": 
					[
						{
							"paneltype": "Default_Full",
							"defence": -1,
							"value": 0
						}
					]
			},
			{
				"listinfo": 
					[
						{
							"paneltype": "Default_Empty",
							"defence": -1,
							"value": 0
						}
					]
			},
			{
				"listinfo": 
					[
						{
							"paneltype": "Default_Empty",
							"defence": -1,
							"value": 0
						}
					]
			},
			{
				"listinfo": 
					[
						{
							"paneltype": "Default_Empty",
							"defence": -1,
							"value": 0
						}
					]
			},
			{
				"listinfo": 
					[
						{
							"paneltype": "Default_Full",
							"defence": -1,
							"value": 0
						}
					]
			},
			{
				"listinfo": 
					[
						{
							"paneltype": "Default_Empty",
							"defence": -1,
							"value": 0
						}
					]
			},
			{
				"listinfo": 
					[
						{
							"paneltype": "Default_Full",
							"defence": -1,
							"value": 0
						}
					]
			},
			{
				"listinfo": 
					[
						{
							"paneltype": "Default_Full",
							"defence": -1,
							"value": 0
						},
						{
							"paneltype": "ConveyerBelt",
							"defence": -1,
							"value": 0,
							"addData": "{\r\n\t\"Type\": \"Start\",\r\n\t\"Dir_In\": \"Left\",\r\n\t\"Dir_Out\": \"Right\",\r\n\t\"WaropIndex\": 45\r\n}"
						}
					]
			},
			{
				"listinfo": 
					[
						{
							"paneltype": "Default_Full",
							"defence": -1,
							"value": 0
						},
						{
							"paneltype": "ConveyerBelt",
							"defence": -1,
							"value": 0,
							"addData": "{\r\n\t\"Type\": \"Mid\",\r\n\t\"Dir_In\": \"Left\",\r\n\t\"Dir_Out\": \"Right\",\r\n\t\"WaropIndex\": 45\r\n}"
						}
					]
			},
			{
				"listinfo": 
					[
						{
							"paneltype": "Default_Full",
							"defence": -1,
							"value": 0
						},
						{
							"paneltype": "ConveyerBelt",
							"defence": -1,
							"value": 0,
							"addData": "{\r\n\t\"Type\": \"Mid\",\r\n\t\"Dir_In\": \"Left\",\r\n\t\"Dir_Out\": \"Right\",\r\n\t\"WaropIndex\": 45\r\n}"
						}
					]
			},
			{
				"listinfo": 
					[
						{
							"paneltype": "Default_Full",
							"defence": -1,
							"value": 0
						},
						{
							"paneltype": "ConveyerBelt",
							"defence": -1,
							"value": 0,
							"addData": "{\r\n\t\"Type\": \"Mid\",\r\n\t\"Dir_In\": \"Left\",\r\n\t\"Dir_Out\": \"Right\",\r\n\t\"WaropIndex\": 45\r\n}"
						}
					]
			},
			{
				"listinfo": 
					[
						{
							"paneltype": "Default_Full",
							"defence": -1,
							"value": 0
						},
						{
							"paneltype": "ConveyerBelt",
							"defence": -1,
							"value": 0,
							"addData": "{\r\n\t\"Type\": \"Mid\",\r\n\t\"Dir_In\": \"Left\",\r\n\t\"Dir_Out\": \"Right\",\r\n\t\"WaropIndex\": 45\r\n}"
						}
					]
			},
			{
				"listinfo": 
					[
						{
							"paneltype": "Default_Full",
							"defence": -1,
							"value": 0
						},
						{
							"paneltype": "ConveyerBelt",
							"defence": -1,
							"value": 0,
							"addData": "{\r\n\t\"Type\": \"Mid\",\r\n\t\"Dir_In\": \"Left\",\r\n\t\"Dir_Out\": \"Right\",\r\n\t\"WaropIndex\": 45\r\n}"
						}
					]
			},
			{
				"listinfo": 
					[
						{
							"paneltype": "Default_Full",
							"defence": -1,
							"value": 0
						},
						{
							"paneltype": "ConveyerBelt",
							"defence": -1,
							"value": 0,
							"addData": "{\r\n\t\"Type\": \"Mid\",\r\n\t\"Dir_In\": \"Left\",\r\n\t\"Dir_Out\": \"Right\",\r\n\t\"WaropIndex\": 45\r\n}"
						}
					]
			},
			{
				"listinfo": 
					[
						{
							"paneltype": "Default_Full",
							"defence": -1,
							"value": 0
						},
						{
							"paneltype": "ConveyerBelt",
							"defence": -1,
							"value": 0,
							"addData": "{\r\n\t\"Type\": \"Mid\",\r\n\t\"Dir_In\": \"Left\",\r\n\t\"Dir_Out\": \"Right\",\r\n\t\"WaropIndex\": 45\r\n}"
						}
					]
			},
			{
				"listinfo": 
					[
						{
							"paneltype": "Default_Full",
							"defence": -1,
							"value": 0
						},
						{
							"paneltype": "ConveyerBelt",
							"defence": -1,
							"value": 0,
							"addData": "{\r\n\t\"Type\": \"End\",\r\n\t\"Dir_In\": \"Left\",\r\n\t\"Dir_Out\": \"Right\",\r\n\t\"WaropIndex\": 45\r\n}"
						}
					]
			},
			{
				"listinfo": 
					[
						{
							"paneltype": "Default_Full",
							"defence": -1,
							"value": 0
						}
					]
			},
			{
				"listinfo": 
					[
						{
							"paneltype": "Default_Full",
							"defence": -1,
							"value": 0
						}
					]
			},
			{
				"listinfo": 
					[
						{
							"paneltype": "Default_Full",
							"defence": -1,
							"value": 0
						}
					]
			},
			{
				"listinfo": 
					[
						{
							"paneltype": "Default_Full",
							"defence": -1,
							"value": 0
						}
					]
			},
			{
				"listinfo": 
					[
						{
							"paneltype": "Default_Full",
							"defence": -1,
							"value": 0
						}
					]
			},
			{
				"listinfo": 
					[
						{
							"paneltype": "Default_Full",
							"defence": -1,
							"value": 0
						}
					]
			},
			{
				"listinfo": 
					[
						{
							"paneltype": "Default_Full",
							"defence": -1,
							"value": 0
						}
					]
			},
			{
				"listinfo": 
					[
						{
							"paneltype": "Default_Full",
							"defence": -1,
							"value": 0
						}
					]
			},
			{
				"listinfo": 
					[
						{
							"paneltype": "Default_Full",
							"defence": -1,
							"value": 0
						}
					]
			},
			{
				"listinfo": 
					[
						{
							"paneltype": "Default_Full",
							"defence": -1,
							"value": 0
						}
					]
			},
			{
				"listinfo": 
					[
						{
							"paneltype": "Default_Full",
							"defence": -1,
							"value": 0
						}
					]
			},
			{
				"listinfo": 
					[
						{
							"paneltype": "Default_Full",
							"defence": -1,
							"value": 0
						}
					]
			},
			{
				"listinfo": 
					[
						{
							"paneltype": "Default_Full",
							"defence": -1,
							"value": 0
						}
					]
			},
			{
				"listinfo": 
					[
						{
							"paneltype": "Default_Full",
							"defence": -1,
							"value": 0
						}
					]
			},
			{
				"listinfo": 
					[
						{
							"paneltype": "Default_Full",
							"defence": -1,
							"value": 0
						}
					]
			},
			{
				"listinfo": 
					[
						{
							"paneltype": "Default_Full",
							"defence": -1,
							"value": 0
						}
					]
			},
			{
				"listinfo": 
					[
						{
							"paneltype": "Default_Full",
							"defence": -1,
							"value": 0
						}
					]
			},
			{
				"listinfo": 
					[
						{
							"paneltype": "Default_Full",
							"defence": -1,
							"value": 0
						}
					]
			},
			{
				"listinfo": 
					[
						{
							"paneltype": "Default_Full",
							"defence": -1,
							"value": 0
						},
						{
							"paneltype": "JellyBearStart",
							"defence": -1,
							"value": 0
						}
					]
			},
			{
				"listinfo": 
					[
						{
							"paneltype": "Default_Full",
							"defence": -1,
							"value": 0
						}
					]
			},
			{
				"listinfo": 
					[
						{
							"paneltype": "Default_Full",
							"defence": -1,
							"value": 0
						}
					]
			},
			{
				"listinfo": 
					[
						{
							"paneltype": "Default_Full",
							"defence": -1,
							"value": 0
						}
					]
			},
			{
				"listinfo": 
					[
						{
							"paneltype": "Default_Full",
							"defence": -1,
							"value": 0
						},
						{
							"paneltype": "JellyBearStart",
							"defence": -1,
							"value": 0
						}
					]
			},
			{
				"listinfo": 
					[
						{
							"paneltype": "Default_Full",
							"defence": -1,
							"value": 0
						}
					]
			},
			{
				"listinfo": 
					[
						{
							"paneltype": "Default_Full",
							"defence": -1,
							"value": 0
						}
					]
			},
			{
				"listinfo": 
					[
						{
							"paneltype": "Default_Full",
							"defence": -1,
							"value": 0
						}
					]
			},
			{
				"listinfo": 
					[
						{
							"paneltype": "Default_Full",
							"defence": -1,
							"value": 0
						},
						{
							"paneltype": "JellyBearStart",
							"defence": -1,
							"value": 0
						}
					]
			}
		],
	"items": 
		[
			"Spiral",
			"Spiral",
			"Spiral",
			"Spiral",
			"Spiral",
			"Spiral",
			"Spiral",
			"Spiral",
			"Spiral",
			"Spiral",
			"Spiral",
			"Spiral",
			"Spiral",
			"Spiral",
			"Spiral",
			"Spiral",
			"Spiral",
			"Spiral",
			"Normal",
			"Normal",
			"Normal",
			"Normal",
			"Normal",
			"Normal",
			"Normal",
			"Normal",
			"Normal",
			"Spiral",
			"Spiral",
			"Spiral",
			"Spiral",
			"Spiral",
			"Spiral",
			"Spiral",
			"Spiral",
			"Spiral",
			"TimeBomb",
			"None",
			"TimeBomb",
			"None",
			"None",
			"None",
			"TimeBomb",
			"None",
			"TimeBomb",
			"Spiral",
			"Spiral",
			"Spiral",
			"Spiral",
			"Spiral",
			"Spiral",
			"Spiral",
			"Spiral",
			"Spiral",
			"Normal",
			"Normal",
			"Normal",
			"Normal",
			"Normal",
			"Normal",
			"Normal",
			"Normal",
			"Normal",
			"Normal",
			"Normal",
			"Normal",
			"Normal",
			"Normal",
			"Normal",
			"Normal",
			"Normal",
			"Normal",
			"Normal",
			"Normal",
			"Normal",
			"Normal",
			"Normal",
			"Normal",
			"Normal",
			"Normal",
			"Normal"
		],
	"colors": 
		[
			"None",
			"None",
			"None",
			"None",
			"None",
			"None",
			"None",
			"None",
			"None",
			"None",
			"None",
			"None",
			"None",
			"None",
			"None",
			"None",
			"None",
			"None",
			"Rnd",
			"Rnd",
			"Rnd",
			"Rnd",
			"Rnd",
			"Rnd",
			"Rnd",
			"Rnd",
			"Rnd",
			"None",
			"None",
			"None",
			"None",
			"None",
			"None",
			"None",
			"None",
			"None",
			"Rnd",
			"None",
			"Rnd",
			"None",
			"None",
			"None",
			"Rnd",
			"None",
			"Rnd",
			"None",
			"None",
			"None",
			"None",
			"None",
			"None",
			"None",
			"None",
			"None",
			"Rnd",
			"Rnd",
			"Rnd",
			"Rnd",
			"Rnd",
			"Rnd",
			"Rnd",
			"Rnd",
			"Rnd",
			"Rnd",
			"Rnd",
			"Rnd",
			"Rnd",
			"Rnd",
			"Rnd",
			"Rnd",
			"Rnd",
			"Rnd",
			"Rnd",
			"Rnd",
			"Rnd",
			"Rnd",
			"Rnd",
			"Rnd",
			"Rnd",
			"Rnd",
			"Rnd"
		],
	"focus": 
		[],
	"defaultSpawnLine": 
		[
			true,
			true,
			true,
			true,
			true,
			true,
			true,
			true,
			true
		],
	"foodSpawnLine": 
		[
			false,
			false,
			false,
			false,
			false,
			false,
			false,
			false,
			false
		],
	"SpiralSpawnLine": 
		[
			true,
			true,
			true,
			true,
			true,
			true,
			true,
			true,
			true
		],
	"DonutSpawnLine": 
		[
			false,
			false,
			false,
			false,
			false,
			false,
			false,
			false,
			false
		],
	"TimeBombSpawnLine": 
		[
			true,
			false,
			true,
			false,
			false,
			false,
			true,
			false,
			true
		],
	"MysterySpawnLine": 
		[
			false,
			false,
			false,
			false,
			false,
			false,
			false,
			false,
			false
		],
	"ChameleonSpawnLine": 
		[
			false,
			false,
			false,
			false,
			false,
			false,
			false,
			false,
			false
		],
	"KeySpawnLine": 
		[
			false,
			false,
			false,
			false,
			false,
			false,
			false,
			false,
			false
		],
	"appearColor": 
		[
			true,
			true,
			true,
			true,
			false,
			false
		],
	"scoreStar1": 15000,
	"scoreStar2": 24000,
	"scoreStar3": 33000,
	"limit_Move": 28,
	"missionType": "Bear",
	"isOrderNMission": false,
	"isOrderSMission": false,
	"isWaferMission": false,
	"isFoodMission": false,
	"isBearMission": true,
	"isIceCreamMission": false,
	"isJamMission": false,
	"missionInfo": 
		[
			{
				"type": "Bear",
				"kind": "Bear",
				"count": 13
			}
		],
	"food_MaxExist": 0,
	"food_Interval": 0,
	"food_SpawnCnt": 0,
	"Spiral_MinExist": 1,
	"Spiral_MaxExist": 36,
	"Spiral_Interval": 1,
	"Spiral_SpawnCnt": 4,
	"Donut_MinExist": 0,
	"Donut_MaxExist": 0,
	"Donut_Interval": 0,
	"Donut_SpawnCnt": 0,
	"TimeBomb_MinExist": 1,
	"TimeBomb_MaxExist": 4,
	"TimeBomb_Interval": 1,
	"TimeBomb_SpawnCnt": 1,
	"TimeBomb_FirstCount": 20,
	"Bear_MaxExist": 2,
	"Bear_Interval": 2,
	"IceCream_Interval": 1,
	"IceCreamCreator_Interval": 1,
	"Mystery_SettingType": "Mystery_Basic",
	"Mystery_MinExist": 0,
	"Mystery_MaxExist": 0,
	"Mystery_Interval": 0,
	"Mystery_SpawnCnt": 0,
	"Chameleon_MinExist": 0,
	"Chameleon_MaxExist": 0,
	"Chameleon_Interval": 0,
	"Chameleon_SpawnCnt": 0,
	"Key_MinExist": 0,
	"Key_MaxExist": 0,
	"Key_Interval": 0,
	"Key_SpawnCnt": 0,
	"S_Tree_SettingType": "Basic",
	"JewelTreeItem": 
		[
			"Line_X",
			"Line_X",
			"Line_X",
			"Line_X"
		],
	"JewelTreeItemColor": 
		[
			"Rnd",
			"Rnd",
			"Rnd",
			"Rnd"
		]
}