﻿{
	"panels": 
		[
			{
				"listinfo": 
					[
						{
							"paneltype": "Default_Full",
							"defence": -1,
							"value": 0
						},
						{
							"paneltype": "Creator_Food",
							"defence": -1,
							"value": 0
						}
					]
			},
			{
				"listinfo": 
					[
						{
							"paneltype": "Default_Full",
							"defence": -1,
							"value": 0
						},
						{
							"paneltype": "ConveyerBelt",
							"defence": -1,
							"value": 0,
							"addData": "{\r\n\t\"Type\": \"Mid\",\r\n\t\"Dir_In\": \"Right\",\r\n\t\"Dir_Out\": \"Bottom\",\r\n\t\"WaropIndex\": 3\r\n}"
						}
					]
			},
			{
				"listinfo": 
					[
						{
							"paneltype": "Default_Full",
							"defence": -1,
							"value": 0
						},
						{
							"paneltype": "ConveyerBelt",
							"defence": -1,
							"value": 0,
							"addData": "{\r\n\t\"Type\": \"Mid\",\r\n\t\"Dir_In\": \"Right\",\r\n\t\"Dir_Out\": \"Left\",\r\n\t\"WaropIndex\": 3\r\n}"
						},
						{
							"paneltype": "Warp_Out",
							"defence": -1,
							"value": 0
						}
					]
			},
			{
				"listinfo": 
					[
						{
							"paneltype": "Default_Full",
							"defence": -1,
							"value": 0
						},
						{
							"paneltype": "ConveyerBelt",
							"defence": -1,
							"value": 0,
							"addData": "{\r\n\t\"Type\": \"Mid\",\r\n\t\"Dir_In\": \"Bottom\",\r\n\t\"Dir_Out\": \"Left\",\r\n\t\"WaropIndex\": 3\r\n}"
						}
					]
			},
			{
				"listinfo": 
					[
						{
							"paneltype": "Default_Empty",
							"defence": -1,
							"value": 0
						}
					]
			},
			{
				"listinfo": 
					[
						{
							"paneltype": "Default_Full",
							"defence": -1,
							"value": 0
						},
						{
							"paneltype": "ConveyerBelt",
							"defence": -1,
							"value": 0,
							"addData": "{\r\n\t\"Type\": \"Mid\",\r\n\t\"Dir_In\": \"Right\",\r\n\t\"Dir_Out\": \"Bottom\",\r\n\t\"WaropIndex\": 3\r\n}"
						}
					]
			},
			{
				"listinfo": 
					[
						{
							"paneltype": "Default_Full",
							"defence": -1,
							"value": 0
						},
						{
							"paneltype": "ConveyerBelt",
							"defence": -1,
							"value": 0,
							"addData": "{\r\n\t\"Type\": \"Mid\",\r\n\t\"Dir_In\": \"Right\",\r\n\t\"Dir_Out\": \"Left\",\r\n\t\"WaropIndex\": 3\r\n}"
						},
						{
							"paneltype": "Warp_Out",
							"defence": -1,
							"value": 1
						}
					]
			},
			{
				"listinfo": 
					[
						{
							"paneltype": "Default_Full",
							"defence": -1,
							"value": 0
						},
						{
							"paneltype": "ConveyerBelt",
							"defence": -1,
							"value": 0,
							"addData": "{\r\n\t\"Type\": \"Mid\",\r\n\t\"Dir_In\": \"Bottom\",\r\n\t\"Dir_Out\": \"Left\",\r\n\t\"WaropIndex\": 3\r\n}"
						}
					]
			},
			{
				"listinfo": 
					[
						{
							"paneltype": "Default_Full",
							"defence": -1,
							"value": 0
						},
						{
							"paneltype": "Creator_Food",
							"defence": -1,
							"value": 0
						}
					]
			},
			{
				"listinfo": 
					[
						{
							"paneltype": "Default_Full",
							"defence": -1,
							"value": 0
						},
						{
							"paneltype": "ConveyerBelt",
							"defence": -1,
							"value": 0,
							"addData": "{\r\n\t\"Type\": \"Mid\",\r\n\t\"Dir_In\": \"Right\",\r\n\t\"Dir_Out\": \"Bottom\",\r\n\t\"WaropIndex\": 3\r\n}"
						}
					]
			},
			{
				"listinfo": 
					[
						{
							"paneltype": "Default_Full",
							"defence": -1,
							"value": 0
						},
						{
							"paneltype": "ConveyerBelt",
							"defence": -1,
							"value": 0,
							"addData": "{\r\n\t\"Type\": \"Mid\",\r\n\t\"Dir_In\": \"Top\",\r\n\t\"Dir_Out\": \"Left\",\r\n\t\"WaropIndex\": 3\r\n}"
						}
					]
			},
			{
				"listinfo": 
					[
						{
							"paneltype": "Default_Full",
							"defence": -1,
							"value": 0
						}
					]
			},
			{
				"listinfo": 
					[
						{
							"paneltype": "Default_Full",
							"defence": -1,
							"value": 0
						},
						{
							"paneltype": "ConveyerBelt",
							"defence": -1,
							"value": 0,
							"addData": "{\r\n\t\"Type\": \"Mid\",\r\n\t\"Dir_In\": \"Right\",\r\n\t\"Dir_Out\": \"Top\",\r\n\t\"WaropIndex\": 3\r\n}"
						}
					]
			},
			{
				"listinfo": 
					[
						{
							"paneltype": "Default_Full",
							"defence": -1,
							"value": 0
						},
						{
							"paneltype": "ConveyerBelt",
							"defence": -1,
							"value": 0,
							"addData": "{\r\n\t\"Type\": \"Mid\",\r\n\t\"Dir_In\": \"Right\",\r\n\t\"Dir_Out\": \"Left\",\r\n\t\"WaropIndex\": 3\r\n}"
						}
					]
			},
			{
				"listinfo": 
					[
						{
							"paneltype": "Default_Full",
							"defence": -1,
							"value": 0
						},
						{
							"paneltype": "ConveyerBelt",
							"defence": -1,
							"value": 0,
							"addData": "{\r\n\t\"Type\": \"Mid\",\r\n\t\"Dir_In\": \"Top\",\r\n\t\"Dir_Out\": \"Left\",\r\n\t\"WaropIndex\": 3\r\n}"
						}
					]
			},
			{
				"listinfo": 
					[
						{
							"paneltype": "Default_Full",
							"defence": -1,
							"value": 0
						}
					]
			},
			{
				"listinfo": 
					[
						{
							"paneltype": "Default_Full",
							"defence": -1,
							"value": 0
						},
						{
							"paneltype": "ConveyerBelt",
							"defence": -1,
							"value": 0,
							"addData": "{\r\n\t\"Type\": \"Mid\",\r\n\t\"Dir_In\": \"Right\",\r\n\t\"Dir_Out\": \"Top\",\r\n\t\"WaropIndex\": 3\r\n}"
						}
					]
			},
			{
				"listinfo": 
					[
						{
							"paneltype": "Default_Full",
							"defence": -1,
							"value": 0
						},
						{
							"paneltype": "ConveyerBelt",
							"defence": -1,
							"value": 0,
							"addData": "{\r\n\t\"Type\": \"Mid\",\r\n\t\"Dir_In\": \"Bottom\",\r\n\t\"Dir_Out\": \"Left\",\r\n\t\"WaropIndex\": 3\r\n}"
						}
					]
			},
			{
				"listinfo": 
					[
						{
							"paneltype": "Default_Full",
							"defence": -1,
							"value": 0
						},
						{
							"paneltype": "ConveyerBelt",
							"defence": -1,
							"value": 0,
							"addData": "{\r\n\t\"Type\": \"Mid\",\r\n\t\"Dir_In\": \"Top\",\r\n\t\"Dir_Out\": \"Bottom\",\r\n\t\"WaropIndex\": 3\r\n}"
						}
					]
			},
			{
				"listinfo": 
					[
						{
							"paneltype": "Default_Full",
							"defence": -1,
							"value": 0
						}
					]
			},
			{
				"listinfo": 
					[
						{
							"paneltype": "Default_Full",
							"defence": -1,
							"value": 0
						},
						{
							"paneltype": "Bottle_Cage",
							"defence": 5,
							"value": 0
						}
					]
			},
			{
				"listinfo": 
					[
						{
							"paneltype": "Default_Full",
							"defence": -1,
							"value": 0
						}
					]
			},
			{
				"listinfo": 
					[
						{
							"paneltype": "Default_Full",
							"defence": -1,
							"value": 0
						}
					]
			},
			{
				"listinfo": 
					[
						{
							"paneltype": "Default_Full",
							"defence": -1,
							"value": 0
						}
					]
			},
			{
				"listinfo": 
					[
						{
							"paneltype": "Default_Full",
							"defence": -1,
							"value": 0
						},
						{
							"paneltype": "Bottle_Cage",
							"defence": 5,
							"value": 0
						}
					]
			},
			{
				"listinfo": 
					[
						{
							"paneltype": "Default_Full",
							"defence": -1,
							"value": 0
						}
					]
			},
			{
				"listinfo": 
					[
						{
							"paneltype": "Default_Full",
							"defence": -1,
							"value": 0
						},
						{
							"paneltype": "ConveyerBelt",
							"defence": -1,
							"value": 0,
							"addData": "{\r\n\t\"Type\": \"Mid\",\r\n\t\"Dir_In\": \"Bottom\",\r\n\t\"Dir_Out\": \"Top\",\r\n\t\"WaropIndex\": 3\r\n}"
						}
					]
			},
			{
				"listinfo": 
					[
						{
							"paneltype": "Default_Full",
							"defence": -1,
							"value": 0
						},
						{
							"paneltype": "ConveyerBelt",
							"defence": -1,
							"value": 0,
							"addData": "{\r\n\t\"Type\": \"Mid\",\r\n\t\"Dir_In\": \"Top\",\r\n\t\"Dir_Out\": \"Right\",\r\n\t\"WaropIndex\": 3\r\n}"
						},
						{
							"paneltype": "Warp_In",
							"defence": -1,
							"value": 0
						}
					]
			},
			{
				"listinfo": 
					[
						{
							"paneltype": "Default_Full",
							"defence": -1,
							"value": 0
						},
						{
							"paneltype": "ConveyerBelt",
							"defence": -1,
							"value": 0,
							"addData": "{\r\n\t\"Type\": \"Mid\",\r\n\t\"Dir_In\": \"Left\",\r\n\t\"Dir_Out\": \"Bottom\",\r\n\t\"WaropIndex\": 3\r\n}"
						}
					]
			},
			{
				"listinfo": 
					[
						{
							"paneltype": "Default_Full",
							"defence": -1,
							"value": 0
						}
					]
			},
			{
				"listinfo": 
					[
						{
							"paneltype": "Default_Full",
							"defence": -1,
							"value": 0
						}
					]
			},
			{
				"listinfo": 
					[
						{
							"paneltype": "Default_Full",
							"defence": -1,
							"value": 0
						},
						{
							"paneltype": "MagicColor",
							"defence": -1,
							"value": 0
						}
					]
			},
			{
				"listinfo": 
					[
						{
							"paneltype": "Default_Full",
							"defence": -1,
							"value": 0
						}
					]
			},
			{
				"listinfo": 
					[
						{
							"paneltype": "Default_Full",
							"defence": -1,
							"value": 0
						}
					]
			},
			{
				"listinfo": 
					[
						{
							"paneltype": "Default_Full",
							"defence": -1,
							"value": 0
						},
						{
							"paneltype": "ConveyerBelt",
							"defence": -1,
							"value": 0,
							"addData": "{\r\n\t\"Type\": \"Mid\",\r\n\t\"Dir_In\": \"Bottom\",\r\n\t\"Dir_Out\": \"Right\",\r\n\t\"WaropIndex\": 3\r\n}"
						}
					]
			},
			{
				"listinfo": 
					[
						{
							"paneltype": "Default_Full",
							"defence": -1,
							"value": 0
						},
						{
							"paneltype": "ConveyerBelt",
							"defence": -1,
							"value": 0,
							"addData": "{\r\n\t\"Type\": \"Mid\",\r\n\t\"Dir_In\": \"Left\",\r\n\t\"Dir_Out\": \"Top\",\r\n\t\"WaropIndex\": 3\r\n}"
						},
						{
							"paneltype": "Warp_In",
							"defence": -1,
							"value": 1
						}
					]
			},
			{
				"listinfo": 
					[
						{
							"paneltype": "Creator_Empty",
							"defence": -1,
							"value": 0
						}
					]
			},
			{
				"listinfo": 
					[
						{
							"paneltype": "Default_Full",
							"defence": -1,
							"value": 0
						},
						{
							"paneltype": "ConveyerBelt",
							"defence": -1,
							"value": 0,
							"addData": "{\r\n\t\"Type\": \"Mid\",\r\n\t\"Dir_In\": \"Top\",\r\n\t\"Dir_Out\": \"Right\",\r\n\t\"WaropIndex\": 3\r\n}"
						}
					]
			},
			{
				"listinfo": 
					[
						{
							"paneltype": "Default_Full",
							"defence": -1,
							"value": 0
						},
						{
							"paneltype": "ConveyerBelt",
							"defence": -1,
							"value": 0,
							"addData": "{\r\n\t\"Type\": \"Mid\",\r\n\t\"Dir_In\": \"Left\",\r\n\t\"Dir_Out\": \"Bottom\",\r\n\t\"WaropIndex\": 3\r\n}"
						}
					]
			},
			{
				"listinfo": 
					[
						{
							"paneltype": "Default_Full",
							"defence": -1,
							"value": 0
						}
					]
			},
			{
				"listinfo": 
					[
						{
							"paneltype": "Default_Full",
							"defence": -1,
							"value": 0
						}
					]
			},
			{
				"listinfo": 
					[
						{
							"paneltype": "Default_Full",
							"defence": -1,
							"value": 0
						}
					]
			},
			{
				"listinfo": 
					[
						{
							"paneltype": "Default_Full",
							"defence": -1,
							"value": 0
						},
						{
							"paneltype": "ConveyerBelt",
							"defence": -1,
							"value": 0,
							"addData": "{\r\n\t\"Type\": \"Mid\",\r\n\t\"Dir_In\": \"Bottom\",\r\n\t\"Dir_Out\": \"Right\",\r\n\t\"WaropIndex\": 3\r\n}"
						}
					]
			},
			{
				"listinfo": 
					[
						{
							"paneltype": "Default_Full",
							"defence": -1,
							"value": 0
						},
						{
							"paneltype": "ConveyerBelt",
							"defence": -1,
							"value": 0,
							"addData": "{\r\n\t\"Type\": \"Mid\",\r\n\t\"Dir_In\": \"Left\",\r\n\t\"Dir_Out\": \"Top\",\r\n\t\"WaropIndex\": 3\r\n}"
						}
					]
			},
			{
				"listinfo": 
					[
						{
							"paneltype": "Creator_Empty",
							"defence": -1,
							"value": 0
						}
					]
			},
			{
				"listinfo": 
					[
						{
							"paneltype": "Default_Full",
							"defence": -1,
							"value": 0
						},
						{
							"paneltype": "ConveyerBelt",
							"defence": -1,
							"value": 0,
							"addData": "{\r\n\t\"Type\": \"Start\",\r\n\t\"Dir_In\": \"Left\",\r\n\t\"Dir_Out\": \"Right\",\r\n\t\"WaropIndex\": 45\r\n}"
						},
						{
							"paneltype": "FoodArrive",
							"defence": -1,
							"value": 0
						}
					]
			},
			{
				"listinfo": 
					[
						{
							"paneltype": "Default_Full",
							"defence": -1,
							"value": 0
						},
						{
							"paneltype": "ConveyerBelt",
							"defence": -1,
							"value": 0,
							"addData": "{\r\n\t\"Type\": \"End\",\r\n\t\"Dir_In\": \"Left\",\r\n\t\"Dir_Out\": \"Right\",\r\n\t\"WaropIndex\": 45\r\n}"
						}
					]
			},
			{
				"listinfo": 
					[
						{
							"paneltype": "Default_Full",
							"defence": -1,
							"value": 0
						},
						{
							"paneltype": "ConveyerBelt",
							"defence": -1,
							"value": 0,
							"addData": "{\r\n\t\"Type\": \"Mid\",\r\n\t\"Dir_In\": \"Top\",\r\n\t\"Dir_Out\": \"Right\",\r\n\t\"WaropIndex\": 3\r\n}"
						}
					]
			},
			{
				"listinfo": 
					[
						{
							"paneltype": "Default_Full",
							"defence": -1,
							"value": 0
						},
						{
							"paneltype": "ConveyerBelt",
							"defence": -1,
							"value": 0,
							"addData": "{\r\n\t\"Type\": \"Mid\",\r\n\t\"Dir_In\": \"Left\",\r\n\t\"Dir_Out\": \"Bottom\",\r\n\t\"WaropIndex\": 3\r\n}"
						}
					]
			},
			{
				"listinfo": 
					[
						{
							"paneltype": "Default_Full",
							"defence": -1,
							"value": 0
						}
					]
			},
			{
				"listinfo": 
					[
						{
							"paneltype": "Default_Full",
							"defence": -1,
							"value": 0
						},
						{
							"paneltype": "ConveyerBelt",
							"defence": -1,
							"value": 0,
							"addData": "{\r\n\t\"Type\": \"Mid\",\r\n\t\"Dir_In\": \"Bottom\",\r\n\t\"Dir_Out\": \"Right\",\r\n\t\"WaropIndex\": 3\r\n}"
						}
					]
			},
			{
				"listinfo": 
					[
						{
							"paneltype": "Default_Full",
							"defence": -1,
							"value": 0
						},
						{
							"paneltype": "ConveyerBelt",
							"defence": -1,
							"value": 0,
							"addData": "{\r\n\t\"Type\": \"Mid\",\r\n\t\"Dir_In\": \"Left\",\r\n\t\"Dir_Out\": \"Top\",\r\n\t\"WaropIndex\": 3\r\n}"
						}
					]
			},
			{
				"listinfo": 
					[
						{
							"paneltype": "Default_Full",
							"defence": -1,
							"value": 0
						},
						{
							"paneltype": "ConveyerBelt",
							"defence": -1,
							"value": 0,
							"addData": "{\r\n\t\"Type\": \"Start\",\r\n\t\"Dir_In\": \"Left\",\r\n\t\"Dir_Out\": \"Right\",\r\n\t\"WaropIndex\": 52\r\n}"
						}
					]
			},
			{
				"listinfo": 
					[
						{
							"paneltype": "Default_Full",
							"defence": -1,
							"value": 0
						},
						{
							"paneltype": "ConveyerBelt",
							"defence": -1,
							"value": 0,
							"addData": "{\r\n\t\"Type\": \"End\",\r\n\t\"Dir_In\": \"Left\",\r\n\t\"Dir_Out\": \"Right\",\r\n\t\"WaropIndex\": 52\r\n}"
						},
						{
							"paneltype": "FoodArrive",
							"defence": -1,
							"value": 0
						}
					]
			},
			{
				"listinfo": 
					[
						{
							"paneltype": "Default_Empty",
							"defence": -1,
							"value": 0
						}
					]
			},
			{
				"listinfo": 
					[
						{
							"paneltype": "Default_Full",
							"defence": -1,
							"value": 0
						},
						{
							"paneltype": "ConveyerBelt",
							"defence": -1,
							"value": 0,
							"addData": "{\r\n\t\"Type\": \"Start\",\r\n\t\"Dir_In\": \"Left\",\r\n\t\"Dir_Out\": \"Right\",\r\n\t\"WaropIndex\": 55\r\n}"
						},
						{
							"paneltype": "FoodArrive",
							"defence": -1,
							"value": 0
						}
					]
			},
			{
				"listinfo": 
					[
						{
							"paneltype": "Default_Full",
							"defence": -1,
							"value": 0
						},
						{
							"paneltype": "ConveyerBelt",
							"defence": -1,
							"value": 0,
							"addData": "{\r\n\t\"Type\": \"End\",\r\n\t\"Dir_In\": \"Left\",\r\n\t\"Dir_Out\": \"Right\",\r\n\t\"WaropIndex\": 55\r\n}"
						}
					]
			},
			{
				"listinfo": 
					[
						{
							"paneltype": "Default_Full",
							"defence": -1,
							"value": 0
						},
						{
							"paneltype": "ConveyerBelt",
							"defence": -1,
							"value": 0,
							"addData": "{\r\n\t\"Type\": \"Mid\",\r\n\t\"Dir_In\": \"Top\",\r\n\t\"Dir_Out\": \"Right\",\r\n\t\"WaropIndex\": 3\r\n}"
						}
					]
			},
			{
				"listinfo": 
					[
						{
							"paneltype": "Default_Full",
							"defence": -1,
							"value": 0
						},
						{
							"paneltype": "ConveyerBelt",
							"defence": -1,
							"value": 0,
							"addData": "{\r\n\t\"Type\": \"Mid\",\r\n\t\"Dir_In\": \"Left\",\r\n\t\"Dir_Out\": \"Right\",\r\n\t\"WaropIndex\": 3\r\n}"
						}
					]
			},
			{
				"listinfo": 
					[
						{
							"paneltype": "Default_Full",
							"defence": -1,
							"value": 0
						},
						{
							"paneltype": "ConveyerBelt",
							"defence": -1,
							"value": 0,
							"addData": "{\r\n\t\"Type\": \"Mid\",\r\n\t\"Dir_In\": \"Left\",\r\n\t\"Dir_Out\": \"Top\",\r\n\t\"WaropIndex\": 3\r\n}"
						}
					]
			},
			{
				"listinfo": 
					[
						{
							"paneltype": "Default_Full",
							"defence": -1,
							"value": 0
						},
						{
							"paneltype": "ConveyerBelt",
							"defence": -1,
							"value": 0,
							"addData": "{\r\n\t\"Type\": \"Start\",\r\n\t\"Dir_In\": \"Left\",\r\n\t\"Dir_Out\": \"Right\",\r\n\t\"WaropIndex\": 60\r\n}"
						}
					]
			},
			{
				"listinfo": 
					[
						{
							"paneltype": "Default_Full",
							"defence": -1,
							"value": 0
						},
						{
							"paneltype": "ConveyerBelt",
							"defence": -1,
							"value": 0,
							"addData": "{\r\n\t\"Type\": \"End\",\r\n\t\"Dir_In\": \"Left\",\r\n\t\"Dir_Out\": \"Right\",\r\n\t\"WaropIndex\": 60\r\n}"
						},
						{
							"paneltype": "FoodArrive",
							"defence": -1,
							"value": 0
						}
					]
			},
			{
				"listinfo": 
					[
						{
							"paneltype": "Default_Empty",
							"defence": -1,
							"value": 0
						}
					]
			},
			{
				"listinfo": 
					[
						{
							"paneltype": "Default_Empty",
							"defence": -1,
							"value": 0
						}
					]
			},
			{
				"listinfo": 
					[
						{
							"paneltype": "Default_Empty",
							"defence": -1,
							"value": 0
						}
					]
			},
			{
				"listinfo": 
					[
						{
							"paneltype": "Default_Full",
							"defence": -1,
							"value": 0
						},
						{
							"paneltype": "ConveyerBelt",
							"defence": -1,
							"value": 0,
							"addData": "{\r\n\t\"Type\": \"Start\",\r\n\t\"Dir_In\": \"Left\",\r\n\t\"Dir_Out\": \"Right\",\r\n\t\"WaropIndex\": 65\r\n}"
						},
						{
							"paneltype": "FoodArrive",
							"defence": -1,
							"value": 0
						}
					]
			},
			{
				"listinfo": 
					[
						{
							"paneltype": "Default_Full",
							"defence": -1,
							"value": 0
						},
						{
							"paneltype": "ConveyerBelt",
							"defence": -1,
							"value": 0,
							"addData": "{\r\n\t\"Type\": \"End\",\r\n\t\"Dir_In\": \"Left\",\r\n\t\"Dir_Out\": \"Right\",\r\n\t\"WaropIndex\": 65\r\n}"
						}
					]
			},
			{
				"listinfo": 
					[
						{
							"paneltype": "Default_Full",
							"defence": -1,
							"value": 0
						},
						{
							"paneltype": "Ice_Cage",
							"defence": 2,
							"value": 0
						}
					]
			},
			{
				"listinfo": 
					[
						{
							"paneltype": "Default_Full",
							"defence": -1,
							"value": 0
						},
						{
							"paneltype": "ConveyerBelt",
							"defence": -1,
							"value": 0,
							"addData": "{\r\n\t\"Type\": \"Start\",\r\n\t\"Dir_In\": \"Left\",\r\n\t\"Dir_Out\": \"Right\",\r\n\t\"WaropIndex\": 68\r\n}"
						}
					]
			},
			{
				"listinfo": 
					[
						{
							"paneltype": "Default_Full",
							"defence": -1,
							"value": 0
						},
						{
							"paneltype": "ConveyerBelt",
							"defence": -1,
							"value": 0,
							"addData": "{\r\n\t\"Type\": \"End\",\r\n\t\"Dir_In\": \"Left\",\r\n\t\"Dir_Out\": \"Right\",\r\n\t\"WaropIndex\": 68\r\n}"
						},
						{
							"paneltype": "FoodArrive",
							"defence": -1,
							"value": 0
						}
					]
			},
			{
				"listinfo": 
					[
						{
							"paneltype": "Default_Empty",
							"defence": -1,
							"value": 0
						}
					]
			},
			{
				"listinfo": 
					[
						{
							"paneltype": "Default_Empty",
							"defence": -1,
							"value": 0
						}
					]
			},
			{
				"listinfo": 
					[
						{
							"paneltype": "Default_Empty",
							"defence": -1,
							"value": 0
						}
					]
			},
			{
				"listinfo": 
					[
						{
							"paneltype": "Default_Empty",
							"defence": -1,
							"value": 0
						}
					]
			},
			{
				"listinfo": 
					[
						{
							"paneltype": "Default_Empty",
							"defence": -1,
							"value": 0
						}
					]
			},
			{
				"listinfo": 
					[
						{
							"paneltype": "Default_Full",
							"defence": -1,
							"value": 0
						},
						{
							"paneltype": "Ice_Cage",
							"defence": 2,
							"value": 0
						},
						{
							"paneltype": "FoodArrive",
							"defence": -1,
							"value": 0
						}
					]
			},
			{
				"listinfo": 
					[
						{
							"paneltype": "Default_Full",
							"defence": -1,
							"value": 0
						},
						{
							"paneltype": "Ice_Cage",
							"defence": 2,
							"value": 0
						},
						{
							"paneltype": "FoodArrive",
							"defence": -1,
							"value": 0
						}
					]
			},
			{
				"listinfo": 
					[
						{
							"paneltype": "Default_Full",
							"defence": -1,
							"value": 0
						},
						{
							"paneltype": "Ice_Cage",
							"defence": 2,
							"value": 0
						},
						{
							"paneltype": "FoodArrive",
							"defence": -1,
							"value": 0
						}
					]
			},
			{
				"listinfo": 
					[
						{
							"paneltype": "Default_Empty",
							"defence": -1,
							"value": 0
						}
					]
			},
			{
				"listinfo": 
					[
						{
							"paneltype": "Default_Empty",
							"defence": -1,
							"value": 0
						}
					]
			},
			{
				"listinfo": 
					[
						{
							"paneltype": "Default_Empty",
							"defence": -1,
							"value": 0
						}
					]
			}
		],
	"items": 
		[
			"None",
			"Normal",
			"Normal",
			"Normal",
			"None",
			"Normal",
			"Normal",
			"Normal",
			"None",
			"Normal",
			"Normal",
			"Donut",
			"Donut",
			"Normal",
			"Donut",
			"Donut",
			"Normal",
			"Normal",
			"Normal",
			"Donut",
			"Misson_Food4",
			"Spiral",
			"Donut",
			"Spiral",
			"Misson_Food5",
			"Donut",
			"Normal",
			"Normal",
			"Normal",
			"Donut",
			"Spiral",
			"Key",
			"Spiral",
			"Donut",
			"Normal",
			"Normal",
			"None",
			"Normal",
			"Normal",
			"Donut",
			"Spiral",
			"Donut",
			"Normal",
			"Normal",
			"None",
			"Normal",
			"Normal",
			"Normal",
			"Normal",
			"Donut",
			"Normal",
			"Normal",
			"Normal",
			"Normal",
			"Normal",
			"Normal",
			"Normal",
			"Normal",
			"Normal",
			"Normal",
			"Normal",
			"Normal",
			"None",
			"Normal",
			"Normal",
			"Normal",
			"Normal",
			"Key",
			"Normal",
			"Normal",
			"None",
			"None",
			"Normal",
			"Normal",
			"Normal",
			"Key",
			"Key",
			"Key",
			"None",
			"Normal",
			"Normal"
		],
	"colors": 
		[
			"None",
			"Rnd",
			"Rnd",
			"Rnd",
			"None",
			"Rnd",
			"Rnd",
			"Rnd",
			"None",
			"Rnd",
			"Rnd",
			"None",
			"None",
			"Rnd",
			"None",
			"None",
			"Rnd",
			"Rnd",
			"Rnd",
			"None",
			"None",
			"None",
			"None",
			"None",
			"None",
			"None",
			"Rnd",
			"Rnd",
			"Rnd",
			"None",
			"None",
			"Rnd",
			"None",
			"None",
			"Rnd",
			"Rnd",
			"None",
			"Rnd",
			"Rnd",
			"None",
			"None",
			"None",
			"Rnd",
			"Rnd",
			"None",
			"Rnd",
			"Rnd",
			"Rnd",
			"Rnd",
			"None",
			"Rnd",
			"Rnd",
			"Rnd",
			"Rnd",
			"Rnd",
			"Rnd",
			"Rnd",
			"RED",
			"RED",
			"Rnd",
			"Rnd",
			"Rnd",
			"None",
			"Rnd",
			"Rnd",
			"Rnd",
			"Rnd",
			"Rnd",
			"RED",
			"Rnd",
			"None",
			"None",
			"Rnd",
			"Rnd",
			"Rnd",
			"Rnd",
			"Rnd",
			"Rnd",
			"None",
			"Rnd",
			"Rnd"
		],
	"focus": 
		[],
	"defaultSpawnLine": 
		[
			true,
			true,
			true,
			true,
			true,
			true,
			true,
			true,
			true
		],
	"foodSpawnLine": 
		[
			true,
			false,
			false,
			false,
			false,
			false,
			false,
			false,
			true
		],
	"SpiralSpawnLine": 
		[
			false,
			false,
			false,
			false,
			false,
			false,
			false,
			false,
			false
		],
	"DonutSpawnLine": 
		[
			false,
			false,
			false,
			false,
			false,
			false,
			false,
			false,
			false
		],
	"TimeBombSpawnLine": 
		[
			false,
			false,
			false,
			false,
			false,
			false,
			false,
			false,
			false
		],
	"MysterySpawnLine": 
		[
			false,
			false,
			false,
			false,
			false,
			false,
			false,
			false,
			false
		],
	"ChameleonSpawnLine": 
		[
			false,
			false,
			false,
			false,
			false,
			false,
			false,
			false,
			false
		],
	"KeySpawnLine": 
		[
			false,
			false,
			false,
			false,
			false,
			false,
			false,
			false,
			false
		],
	"appearColor": 
		[
			true,
			false,
			true,
			true,
			true,
			true
		],
	"scoreStar1": 5400,
	"scoreStar2": 15000,
	"scoreStar3": 26000,
	"limit_Move": 24,
	"missionType": "Food",
	"isOrderNMission": false,
	"isOrderSMission": false,
	"isWaferMission": false,
	"isFoodMission": true,
	"isBearMission": false,
	"isIceCreamMission": false,
	"isJamMission": false,
	"missionInfo": 
		[
			{
				"type": "Food",
				"kind": "Parfait",
				"count": 3
			},
			{
				"type": "Food",
				"kind": "WhiteCake",
				"count": 2
			}
		],
	"food_MaxExist": 2,
	"food_Interval": 1,
	"food_SpawnCnt": 1,
	"Spiral_MinExist": 0,
	"Spiral_MaxExist": 0,
	"Spiral_Interval": 0,
	"Spiral_SpawnCnt": 0,
	"Donut_MinExist": 0,
	"Donut_MaxExist": 0,
	"Donut_Interval": 0,
	"Donut_SpawnCnt": 0,
	"TimeBomb_MinExist": 1,
	"TimeBomb_MaxExist": 1,
	"TimeBomb_Interval": 0,
	"TimeBomb_SpawnCnt": 0,
	"TimeBomb_FirstCount": 15,
	"Bear_MaxExist": 0,
	"Bear_Interval": 0,
	"IceCream_Interval": 1,
	"IceCreamCreator_Interval": 1,
	"Mystery_SettingType": "Mystery_Basic",
	"Mystery_MinExist": 1,
	"Mystery_MaxExist": 1,
	"Mystery_Interval": 0,
	"Mystery_SpawnCnt": 0,
	"Chameleon_MinExist": 0,
	"Chameleon_MaxExist": 0,
	"Chameleon_Interval": 0,
	"Chameleon_SpawnCnt": 0,
	"Key_MinExist": 0,
	"Key_MaxExist": 0,
	"Key_Interval": 0,
	"Key_SpawnCnt": 0,
	"S_Tree_SettingType": "Basic",
	"JewelTreeItem": 
		[
			"Line_X",
			"Line_X",
			"Line_X",
			"Line_X"
		],
	"JewelTreeItemColor": 
		[
			"Rnd",
			"Rnd",
			"Rnd",
			"Rnd"
		]
}