﻿{
	"panels": 
		[
			{
				"listinfo": 
					[
						{
							"paneltype": "Default_Full",
							"defence": -1,
							"value": 0
						},
						{
							"paneltype": "ConveyerBelt",
							"defence": -1,
							"value": 0,
							"addData": "{\r\n\t\"Type\": \"Mid\",\r\n\t\"Dir_In\": \"Bottom\",\r\n\t\"Dir_Out\": \"Right\",\r\n\t\"WaropIndex\": 45\r\n}"
						}
					]
			},
			{
				"listinfo": 
					[
						{
							"paneltype": "Default_Full",
							"defence": -1,
							"value": 0
						},
						{
							"paneltype": "ConveyerBelt",
							"defence": -1,
							"value": 0,
							"addData": "{\r\n\t\"Type\": \"Mid\",\r\n\t\"Dir_In\": \"Left\",\r\n\t\"Dir_Out\": \"Right\",\r\n\t\"WaropIndex\": 45\r\n}"
						}
					]
			},
			{
				"listinfo": 
					[
						{
							"paneltype": "Default_Full",
							"defence": -1,
							"value": 0
						},
						{
							"paneltype": "ConveyerBelt",
							"defence": -1,
							"value": 0,
							"addData": "{\r\n\t\"Type\": \"Mid\",\r\n\t\"Dir_In\": \"Left\",\r\n\t\"Dir_Out\": \"Right\",\r\n\t\"WaropIndex\": 45\r\n}"
						}
					]
			},
			{
				"listinfo": 
					[
						{
							"paneltype": "Default_Full",
							"defence": -1,
							"value": 0
						},
						{
							"paneltype": "ConveyerBelt",
							"defence": -1,
							"value": 0,
							"addData": "{\r\n\t\"Type\": \"Mid\",\r\n\t\"Dir_In\": \"Left\",\r\n\t\"Dir_Out\": \"Right\",\r\n\t\"WaropIndex\": 45\r\n}"
						}
					]
			},
			{
				"listinfo": 
					[
						{
							"paneltype": "Default_Full",
							"defence": -1,
							"value": 0
						},
						{
							"paneltype": "ConveyerBelt",
							"defence": -1,
							"value": 0,
							"addData": "{\r\n\t\"Type\": \"Mid\",\r\n\t\"Dir_In\": \"Left\",\r\n\t\"Dir_Out\": \"Right\",\r\n\t\"WaropIndex\": 45\r\n}"
						}
					]
			},
			{
				"listinfo": 
					[
						{
							"paneltype": "Default_Full",
							"defence": -1,
							"value": 0
						},
						{
							"paneltype": "ConveyerBelt",
							"defence": -1,
							"value": 0,
							"addData": "{\r\n\t\"Type\": \"Mid\",\r\n\t\"Dir_In\": \"Left\",\r\n\t\"Dir_Out\": \"Right\",\r\n\t\"WaropIndex\": 45\r\n}"
						}
					]
			},
			{
				"listinfo": 
					[
						{
							"paneltype": "Default_Full",
							"defence": -1,
							"value": 0
						},
						{
							"paneltype": "ConveyerBelt",
							"defence": -1,
							"value": 0,
							"addData": "{\r\n\t\"Type\": \"Mid\",\r\n\t\"Dir_In\": \"Left\",\r\n\t\"Dir_Out\": \"Right\",\r\n\t\"WaropIndex\": 45\r\n}"
						}
					]
			},
			{
				"listinfo": 
					[
						{
							"paneltype": "Default_Full",
							"defence": -1,
							"value": 0
						},
						{
							"paneltype": "ConveyerBelt",
							"defence": -1,
							"value": 0,
							"addData": "{\r\n\t\"Type\": \"Mid\",\r\n\t\"Dir_In\": \"Left\",\r\n\t\"Dir_Out\": \"Right\",\r\n\t\"WaropIndex\": 45\r\n}"
						}
					]
			},
			{
				"listinfo": 
					[
						{
							"paneltype": "Default_Full",
							"defence": -1,
							"value": 0
						},
						{
							"paneltype": "ConveyerBelt",
							"defence": -1,
							"value": 0,
							"addData": "{\r\n\t\"Type\": \"Mid\",\r\n\t\"Dir_In\": \"Left\",\r\n\t\"Dir_Out\": \"Bottom\",\r\n\t\"WaropIndex\": 45\r\n}"
						}
					]
			},
			{
				"listinfo": 
					[
						{
							"paneltype": "Default_Full",
							"defence": -1,
							"value": 0
						},
						{
							"paneltype": "ConveyerBelt",
							"defence": -1,
							"value": 0,
							"addData": "{\r\n\t\"Type\": \"Mid\",\r\n\t\"Dir_In\": \"Bottom\",\r\n\t\"Dir_Out\": \"Top\",\r\n\t\"WaropIndex\": 45\r\n}"
						}
					]
			},
			{
				"listinfo": 
					[
						{
							"paneltype": "Default_Empty",
							"defence": -1,
							"value": 0
						}
					]
			},
			{
				"listinfo": 
					[
						{
							"paneltype": "Default_Empty",
							"defence": -1,
							"value": 0
						}
					]
			},
			{
				"listinfo": 
					[
						{
							"paneltype": "Default_Empty",
							"defence": -1,
							"value": 0
						}
					]
			},
			{
				"listinfo": 
					[
						{
							"paneltype": "Default_Full",
							"defence": -1,
							"value": 0
						}
					]
			},
			{
				"listinfo": 
					[
						{
							"paneltype": "Default_Empty",
							"defence": -1,
							"value": 0
						}
					]
			},
			{
				"listinfo": 
					[
						{
							"paneltype": "Default_Empty",
							"defence": -1,
							"value": 0
						}
					]
			},
			{
				"listinfo": 
					[
						{
							"paneltype": "Default_Empty",
							"defence": -1,
							"value": 0
						}
					]
			},
			{
				"listinfo": 
					[
						{
							"paneltype": "Default_Full",
							"defence": -1,
							"value": 0
						},
						{
							"paneltype": "ConveyerBelt",
							"defence": -1,
							"value": 0,
							"addData": "{\r\n\t\"Type\": \"Mid\",\r\n\t\"Dir_In\": \"Top\",\r\n\t\"Dir_Out\": \"Bottom\",\r\n\t\"WaropIndex\": 45\r\n}"
						}
					]
			},
			{
				"listinfo": 
					[
						{
							"paneltype": "Default_Full",
							"defence": -1,
							"value": 0
						},
						{
							"paneltype": "ConveyerBelt",
							"defence": -1,
							"value": 0,
							"addData": "{\r\n\t\"Type\": \"Mid\",\r\n\t\"Dir_In\": \"Bottom\",\r\n\t\"Dir_Out\": \"Top\",\r\n\t\"WaropIndex\": 45\r\n}"
						}
					]
			},
			{
				"listinfo": 
					[
						{
							"paneltype": "Default_Empty",
							"defence": -1,
							"value": 0
						}
					]
			},
			{
				"listinfo": 
					[
						{
							"paneltype": "Default_Full",
							"defence": -1,
							"value": 0
						}
					]
			},
			{
				"listinfo": 
					[
						{
							"paneltype": "Default_Full",
							"defence": -1,
							"value": 0
						}
					]
			},
			{
				"listinfo": 
					[
						{
							"paneltype": "Default_Full",
							"defence": -1,
							"value": 0
						}
					]
			},
			{
				"listinfo": 
					[
						{
							"paneltype": "Default_Full",
							"defence": -1,
							"value": 0
						}
					]
			},
			{
				"listinfo": 
					[
						{
							"paneltype": "Default_Full",
							"defence": -1,
							"value": 0
						}
					]
			},
			{
				"listinfo": 
					[
						{
							"paneltype": "Default_Empty",
							"defence": -1,
							"value": 0
						}
					]
			},
			{
				"listinfo": 
					[
						{
							"paneltype": "Default_Full",
							"defence": -1,
							"value": 0
						},
						{
							"paneltype": "ConveyerBelt",
							"defence": -1,
							"value": 0,
							"addData": "{\r\n\t\"Type\": \"Mid\",\r\n\t\"Dir_In\": \"Top\",\r\n\t\"Dir_Out\": \"Bottom\",\r\n\t\"WaropIndex\": 45\r\n}"
						}
					]
			},
			{
				"listinfo": 
					[
						{
							"paneltype": "Default_Full",
							"defence": -1,
							"value": 0
						},
						{
							"paneltype": "ConveyerBelt",
							"defence": -1,
							"value": 0,
							"addData": "{\r\n\t\"Type\": \"Mid\",\r\n\t\"Dir_In\": \"Bottom\",\r\n\t\"Dir_Out\": \"Top\",\r\n\t\"WaropIndex\": 45\r\n}"
						}
					]
			},
			{
				"listinfo": 
					[
						{
							"paneltype": "Default_Full",
							"defence": -1,
							"value": 0
						},
						{
							"paneltype": "Cake_A",
							"defence": 3,
							"value": 0
						}
					]
			},
			{
				"listinfo": 
					[
						{
							"paneltype": "Default_Full",
							"defence": -1,
							"value": 0
						},
						{
							"paneltype": "Cake_B",
							"defence": 3,
							"value": 0
						}
					]
			},
			{
				"listinfo": 
					[
						{
							"paneltype": "Default_Full",
							"defence": -1,
							"value": 0
						}
					]
			},
			{
				"listinfo": 
					[
						{
							"paneltype": "Default_Full",
							"defence": -1,
							"value": 0
						}
					]
			},
			{
				"listinfo": 
					[
						{
							"paneltype": "Default_Full",
							"defence": -1,
							"value": 0
						}
					]
			},
			{
				"listinfo": 
					[
						{
							"paneltype": "Default_Full",
							"defence": -1,
							"value": 0
						},
						{
							"paneltype": "Cake_A",
							"defence": 3,
							"value": 0
						}
					]
			},
			{
				"listinfo": 
					[
						{
							"paneltype": "Default_Full",
							"defence": -1,
							"value": 0
						},
						{
							"paneltype": "Cake_B",
							"defence": 3,
							"value": 0
						}
					]
			},
			{
				"listinfo": 
					[
						{
							"paneltype": "Default_Full",
							"defence": -1,
							"value": 0
						},
						{
							"paneltype": "ConveyerBelt",
							"defence": -1,
							"value": 0,
							"addData": "{\r\n\t\"Type\": \"Mid\",\r\n\t\"Dir_In\": \"Top\",\r\n\t\"Dir_Out\": \"Bottom\",\r\n\t\"WaropIndex\": 45\r\n}"
						}
					]
			},
			{
				"listinfo": 
					[
						{
							"paneltype": "Default_Full",
							"defence": -1,
							"value": 0
						},
						{
							"paneltype": "ConveyerBelt",
							"defence": -1,
							"value": 0,
							"addData": "{\r\n\t\"Type\": \"Mid\",\r\n\t\"Dir_In\": \"Bottom\",\r\n\t\"Dir_Out\": \"Top\",\r\n\t\"WaropIndex\": 45\r\n}"
						}
					]
			},
			{
				"listinfo": 
					[
						{
							"paneltype": "Default_Full",
							"defence": -1,
							"value": 0
						},
						{
							"paneltype": "Cake_C",
							"defence": 3,
							"value": 0
						}
					]
			},
			{
				"listinfo": 
					[
						{
							"paneltype": "Default_Full",
							"defence": -1,
							"value": 0
						},
						{
							"paneltype": "Cake_D",
							"defence": 3,
							"value": 0
						}
					]
			},
			{
				"listinfo": 
					[
						{
							"paneltype": "Default_Full",
							"defence": -1,
							"value": 0
						},
						{
							"paneltype": "Ice_Cage",
							"defence": 2,
							"value": 0
						}
					]
			},
			{
				"listinfo": 
					[
						{
							"paneltype": "Default_Full",
							"defence": -1,
							"value": 0
						},
						{
							"paneltype": "Ice_Cage",
							"defence": 1,
							"value": 0
						}
					]
			},
			{
				"listinfo": 
					[
						{
							"paneltype": "Default_Full",
							"defence": -1,
							"value": 0
						},
						{
							"paneltype": "Ice_Cage",
							"defence": 1,
							"value": 0
						}
					]
			},
			{
				"listinfo": 
					[
						{
							"paneltype": "Default_Full",
							"defence": -1,
							"value": 0
						},
						{
							"paneltype": "Cake_C",
							"defence": 3,
							"value": 0
						}
					]
			},
			{
				"listinfo": 
					[
						{
							"paneltype": "Default_Full",
							"defence": -1,
							"value": 0
						},
						{
							"paneltype": "Cake_D",
							"defence": 3,
							"value": 0
						}
					]
			},
			{
				"listinfo": 
					[
						{
							"paneltype": "Default_Full",
							"defence": -1,
							"value": 0
						},
						{
							"paneltype": "ConveyerBelt",
							"defence": -1,
							"value": 0,
							"addData": "{\r\n\t\"Type\": \"Mid\",\r\n\t\"Dir_In\": \"Top\",\r\n\t\"Dir_Out\": \"Bottom\",\r\n\t\"WaropIndex\": 45\r\n}"
						}
					]
			},
			{
				"listinfo": 
					[
						{
							"paneltype": "Default_Full",
							"defence": -1,
							"value": 0
						},
						{
							"paneltype": "ConveyerBelt",
							"defence": -1,
							"value": 0,
							"addData": "{\r\n\t\"Type\": \"Start\",\r\n\t\"Dir_In\": \"Bottom\",\r\n\t\"Dir_Out\": \"Top\",\r\n\t\"WaropIndex\": 45\r\n}"
						}
					]
			},
			{
				"listinfo": 
					[
						{
							"paneltype": "Default_Full",
							"defence": -1,
							"value": 0
						},
						{
							"paneltype": "Ice_Cage",
							"defence": 2,
							"value": 0
						}
					]
			},
			{
				"listinfo": 
					[
						{
							"paneltype": "Default_Full",
							"defence": -1,
							"value": 0
						},
						{
							"paneltype": "Ice_Cage",
							"defence": 2,
							"value": 0
						}
					]
			},
			{
				"listinfo": 
					[
						{
							"paneltype": "Default_Full",
							"defence": -1,
							"value": 0
						},
						{
							"paneltype": "Ice_Cage",
							"defence": 2,
							"value": 0
						}
					]
			},
			{
				"listinfo": 
					[
						{
							"paneltype": "Default_Full",
							"defence": -1,
							"value": 0
						},
						{
							"paneltype": "Ice_Cage",
							"defence": 2,
							"value": 0
						}
					]
			},
			{
				"listinfo": 
					[
						{
							"paneltype": "Default_Full",
							"defence": -1,
							"value": 0
						},
						{
							"paneltype": "Ice_Cage",
							"defence": 2,
							"value": 0
						}
					]
			},
			{
				"listinfo": 
					[
						{
							"paneltype": "Default_Full",
							"defence": -1,
							"value": 0
						},
						{
							"paneltype": "Ice_Cage",
							"defence": 2,
							"value": 0
						}
					]
			},
			{
				"listinfo": 
					[
						{
							"paneltype": "Default_Full",
							"defence": -1,
							"value": 0
						},
						{
							"paneltype": "Ice_Cage",
							"defence": 2,
							"value": 0
						}
					]
			},
			{
				"listinfo": 
					[
						{
							"paneltype": "Default_Full",
							"defence": -1,
							"value": 0
						},
						{
							"paneltype": "ConveyerBelt",
							"defence": -1,
							"value": 0,
							"addData": "{\r\n\t\"Type\": \"End\",\r\n\t\"Dir_In\": \"Top\",\r\n\t\"Dir_Out\": \"Bottom\",\r\n\t\"WaropIndex\": 45\r\n}"
						}
					]
			},
			{
				"listinfo": 
					[
						{
							"paneltype": "Creator_Empty",
							"defence": -1,
							"value": 0
						}
					]
			},
			{
				"listinfo": 
					[
						{
							"paneltype": "Creator_Empty",
							"defence": -1,
							"value": 0
						}
					]
			},
			{
				"listinfo": 
					[
						{
							"paneltype": "Default_Full",
							"defence": -1,
							"value": 0
						}
					]
			},
			{
				"listinfo": 
					[
						{
							"paneltype": "Default_Full",
							"defence": -1,
							"value": 0
						}
					]
			},
			{
				"listinfo": 
					[
						{
							"paneltype": "Default_Full",
							"defence": -1,
							"value": 0
						}
					]
			},
			{
				"listinfo": 
					[
						{
							"paneltype": "Default_Full",
							"defence": -1,
							"value": 0
						}
					]
			},
			{
				"listinfo": 
					[
						{
							"paneltype": "Default_Full",
							"defence": -1,
							"value": 0
						}
					]
			},
			{
				"listinfo": 
					[
						{
							"paneltype": "Creator_Empty",
							"defence": -1,
							"value": 0
						}
					]
			},
			{
				"listinfo": 
					[
						{
							"paneltype": "Creator_Empty",
							"defence": -1,
							"value": 0
						}
					]
			},
			{
				"listinfo": 
					[
						{
							"paneltype": "Default_Full",
							"defence": -1,
							"value": 0
						},
						{
							"paneltype": "IceCream_Block",
							"defence": 3,
							"value": 0
						}
					]
			},
			{
				"listinfo": 
					[
						{
							"paneltype": "Default_Full",
							"defence": -1,
							"value": 0
						},
						{
							"paneltype": "IceCream_Block",
							"defence": 3,
							"value": 0
						}
					]
			},
			{
				"listinfo": 
					[
						{
							"paneltype": "Default_Full",
							"defence": -1,
							"value": 0
						}
					]
			},
			{
				"listinfo": 
					[
						{
							"paneltype": "Default_Full",
							"defence": -1,
							"value": 0
						}
					]
			},
			{
				"listinfo": 
					[
						{
							"paneltype": "Default_Full",
							"defence": -1,
							"value": 0
						}
					]
			},
			{
				"listinfo": 
					[
						{
							"paneltype": "Default_Full",
							"defence": -1,
							"value": 0
						}
					]
			},
			{
				"listinfo": 
					[
						{
							"paneltype": "Default_Full",
							"defence": -1,
							"value": 0
						}
					]
			},
			{
				"listinfo": 
					[
						{
							"paneltype": "Default_Full",
							"defence": -1,
							"value": 0
						},
						{
							"paneltype": "IceCream_Block",
							"defence": 3,
							"value": 0
						}
					]
			},
			{
				"listinfo": 
					[
						{
							"paneltype": "Default_Full",
							"defence": -1,
							"value": 0
						},
						{
							"paneltype": "IceCream_Block",
							"defence": 3,
							"value": 0
						}
					]
			},
			{
				"listinfo": 
					[
						{
							"paneltype": "Default_Full",
							"defence": -1,
							"value": 0
						},
						{
							"paneltype": "IceCream_Block",
							"defence": 3,
							"value": 0
						}
					]
			},
			{
				"listinfo": 
					[
						{
							"paneltype": "Default_Full",
							"defence": -1,
							"value": 0
						},
						{
							"paneltype": "IceCream_Block",
							"defence": 3,
							"value": 0
						}
					]
			},
			{
				"listinfo": 
					[
						{
							"paneltype": "Default_Full",
							"defence": -1,
							"value": 0
						}
					]
			},
			{
				"listinfo": 
					[
						{
							"paneltype": "Default_Full",
							"defence": -1,
							"value": 0
						}
					]
			},
			{
				"listinfo": 
					[
						{
							"paneltype": "Default_Full",
							"defence": -1,
							"value": 0
						}
					]
			},
			{
				"listinfo": 
					[
						{
							"paneltype": "Default_Full",
							"defence": -1,
							"value": 0
						}
					]
			},
			{
				"listinfo": 
					[
						{
							"paneltype": "Default_Full",
							"defence": -1,
							"value": 0
						}
					]
			},
			{
				"listinfo": 
					[
						{
							"paneltype": "Default_Full",
							"defence": -1,
							"value": 0
						},
						{
							"paneltype": "IceCream_Block",
							"defence": 3,
							"value": 0
						}
					]
			},
			{
				"listinfo": 
					[
						{
							"paneltype": "Default_Full",
							"defence": -1,
							"value": 0
						},
						{
							"paneltype": "IceCream_Block",
							"defence": 3,
							"value": 0
						}
					]
			}
		],
	"items": 
		[
			"Normal",
			"Normal",
			"Normal",
			"Normal",
			"Normal",
			"Normal",
			"Normal",
			"Normal",
			"Normal",
			"Normal",
			"None",
			"None",
			"None",
			"Normal",
			"None",
			"None",
			"None",
			"Normal",
			"Normal",
			"None",
			"Normal",
			"Normal",
			"Normal",
			"Normal",
			"Normal",
			"None",
			"Normal",
			"Normal",
			"None",
			"None",
			"Normal",
			"Normal",
			"Normal",
			"None",
			"None",
			"Normal",
			"Normal",
			"None",
			"None",
			"Line_X",
			"Line_X",
			"Line_X",
			"None",
			"None",
			"Normal",
			"Normal",
			"Line_Y",
			"Normal",
			"Normal",
			"Normal",
			"Normal",
			"Normal",
			"Line_Y",
			"Normal",
			"None",
			"None",
			"Normal",
			"Normal",
			"Normal",
			"Normal",
			"Normal",
			"None",
			"None",
			"None",
			"None",
			"Normal",
			"Normal",
			"Normal",
			"Normal",
			"Normal",
			"None",
			"None",
			"None",
			"None",
			"Normal",
			"Normal",
			"Normal",
			"Normal",
			"Normal",
			"None",
			"None"
		],
	"colors": 
		[
			"Rnd",
			"Rnd",
			"Rnd",
			"Rnd",
			"Rnd",
			"Rnd",
			"Rnd",
			"Rnd",
			"Rnd",
			"Rnd",
			"None",
			"None",
			"None",
			"Rnd",
			"None",
			"None",
			"None",
			"Rnd",
			"Rnd",
			"None",
			"Rnd",
			"Rnd",
			"RED",
			"Rnd",
			"Rnd",
			"None",
			"Rnd",
			"Rnd",
			"None",
			"None",
			"RED",
			"Rnd",
			"RED",
			"None",
			"None",
			"Rnd",
			"RED",
			"None",
			"None",
			"Rnd",
			"Rnd",
			"Rnd",
			"None",
			"None",
			"RED",
			"ORANGE",
			"Rnd",
			"Rnd",
			"Rnd",
			"Rnd",
			"Rnd",
			"Rnd",
			"Rnd",
			"RED",
			"None",
			"None",
			"Rnd",
			"Rnd",
			"Rnd",
			"Rnd",
			"Rnd",
			"None",
			"None",
			"None",
			"None",
			"PURPLE",
			"GREEN",
			"ORANGE",
			"ORANGE",
			"PURPLE",
			"None",
			"None",
			"None",
			"None",
			"RED",
			"PURPLE",
			"GREEN",
			"PURPLE",
			"RED",
			"None",
			"None"
		],
	"focus": 
		[],
	"defaultSpawnLine": 
		[
			true,
			true,
			true,
			true,
			true,
			true,
			true,
			true,
			true
		],
	"foodSpawnLine": 
		[
			false,
			false,
			false,
			false,
			false,
			false,
			false,
			false,
			false
		],
	"SpiralSpawnLine": 
		[
			false,
			false,
			false,
			false,
			false,
			false,
			false,
			false,
			false
		],
	"DonutSpawnLine": 
		[
			false,
			false,
			false,
			false,
			false,
			false,
			false,
			false,
			false
		],
	"TimeBombSpawnLine": 
		[
			true,
			true,
			true,
			true,
			true,
			true,
			true,
			true,
			true
		],
	"MysterySpawnLine": 
		[
			false,
			false,
			false,
			false,
			false,
			false,
			false,
			false,
			false
		],
	"ChameleonSpawnLine": 
		[
			false,
			false,
			false,
			false,
			false,
			false,
			false,
			false,
			false
		],
	"KeySpawnLine": 
		[
			false,
			false,
			false,
			false,
			false,
			false,
			false,
			false,
			false
		],
	"appearColor": 
		[
			true,
			false,
			true,
			false,
			true,
			true
		],
	"scoreStar1": 5200,
	"scoreStar2": 15000,
	"scoreStar3": 25000,
	"limit_Move": 23,
	"missionType": "IceCream",
	"isOrderNMission": false,
	"isOrderSMission": false,
	"isWaferMission": false,
	"isFoodMission": false,
	"isBearMission": false,
	"isIceCreamMission": true,
	"isJamMission": false,
	"missionInfo": 
		[
			{
				"type": "IceCream",
				"kind": "IceCream",
				"count": 0
			}
		],
	"food_MaxExist": 0,
	"food_Interval": 0,
	"food_SpawnCnt": 0,
	"Spiral_MinExist": 0,
	"Spiral_MaxExist": 0,
	"Spiral_Interval": 0,
	"Spiral_SpawnCnt": 0,
	"Donut_MinExist": 0,
	"Donut_MaxExist": 0,
	"Donut_Interval": 0,
	"Donut_SpawnCnt": 0,
	"TimeBomb_MinExist": 1,
	"TimeBomb_MaxExist": 6,
	"TimeBomb_Interval": 2,
	"TimeBomb_SpawnCnt": 1,
	"TimeBomb_FirstCount": 15,
	"Bear_MaxExist": 0,
	"Bear_Interval": 0,
	"IceCream_Interval": 1,
	"IceCreamCreator_Interval": 1,
	"Mystery_SettingType": "Mystery_Basic",
	"Mystery_MinExist": 1,
	"Mystery_MaxExist": 1,
	"Mystery_Interval": 0,
	"Mystery_SpawnCnt": 0,
	"Chameleon_MinExist": 0,
	"Chameleon_MaxExist": 0,
	"Chameleon_Interval": 0,
	"Chameleon_SpawnCnt": 0,
	"Key_MinExist": 0,
	"Key_MaxExist": 0,
	"Key_Interval": 0,
	"Key_SpawnCnt": 0,
	"S_Tree_SettingType": "Basic",
	"JewelTreeItem": 
		[
			"Line_X",
			"Line_X",
			"Line_X",
			"Line_X"
		],
	"JewelTreeItemColor": 
		[
			"Rnd",
			"Rnd",
			"Rnd",
			"Rnd"
		]
}