﻿{
	"panels": 
		[
			{
				"listinfo": 
					[
						{
							"paneltype": "Default_Full",
							"defence": -1,
							"value": 0
						},
						{
							"paneltype": "JewelTree_A",
							"defence": 1,
							"value": 0
						}
					]
			},
			{
				"listinfo": 
					[
						{
							"paneltype": "Default_Full",
							"defence": -1,
							"value": 0
						},
						{
							"paneltype": "JewelTree_B",
							"defence": 1,
							"value": 0
						}
					]
			},
			{
				"listinfo": 
					[
						{
							"paneltype": "Default_Full",
							"defence": -1,
							"value": 0
						},
						{
							"paneltype": "JewelTree_A",
							"defence": 1,
							"value": 0
						}
					]
			},
			{
				"listinfo": 
					[
						{
							"paneltype": "Default_Full",
							"defence": -1,
							"value": 0
						},
						{
							"paneltype": "JewelTree_B",
							"defence": 1,
							"value": 0
						}
					]
			},
			{
				"listinfo": 
					[
						{
							"paneltype": "Default_Full",
							"defence": -1,
							"value": 0
						}
					]
			},
			{
				"listinfo": 
					[
						{
							"paneltype": "Default_Full",
							"defence": -1,
							"value": 0
						},
						{
							"paneltype": "JewelTree_A",
							"defence": 1,
							"value": 0
						}
					]
			},
			{
				"listinfo": 
					[
						{
							"paneltype": "Default_Full",
							"defence": -1,
							"value": 0
						},
						{
							"paneltype": "JewelTree_B",
							"defence": 1,
							"value": 0
						}
					]
			},
			{
				"listinfo": 
					[
						{
							"paneltype": "Default_Full",
							"defence": -1,
							"value": 0
						},
						{
							"paneltype": "JewelTree_A",
							"defence": 1,
							"value": 0
						}
					]
			},
			{
				"listinfo": 
					[
						{
							"paneltype": "Default_Full",
							"defence": -1,
							"value": 0
						},
						{
							"paneltype": "JewelTree_B",
							"defence": 1,
							"value": 0
						}
					]
			},
			{
				"listinfo": 
					[
						{
							"paneltype": "Default_Full",
							"defence": -1,
							"value": 0
						},
						{
							"paneltype": "JewelTree_C",
							"defence": 1,
							"value": 0
						}
					]
			},
			{
				"listinfo": 
					[
						{
							"paneltype": "Default_Full",
							"defence": -1,
							"value": 0
						},
						{
							"paneltype": "JewelTree_D",
							"defence": 1,
							"value": 0
						}
					]
			},
			{
				"listinfo": 
					[
						{
							"paneltype": "Default_Full",
							"defence": -1,
							"value": 0
						},
						{
							"paneltype": "JewelTree_C",
							"defence": 1,
							"value": 0
						}
					]
			},
			{
				"listinfo": 
					[
						{
							"paneltype": "Default_Full",
							"defence": -1,
							"value": 0
						},
						{
							"paneltype": "JewelTree_D",
							"defence": 1,
							"value": 0
						}
					]
			},
			{
				"listinfo": 
					[
						{
							"paneltype": "Default_Full",
							"defence": -1,
							"value": 0
						}
					]
			},
			{
				"listinfo": 
					[
						{
							"paneltype": "Default_Full",
							"defence": -1,
							"value": 0
						},
						{
							"paneltype": "JewelTree_C",
							"defence": 1,
							"value": 0
						}
					]
			},
			{
				"listinfo": 
					[
						{
							"paneltype": "Default_Full",
							"defence": -1,
							"value": 0
						},
						{
							"paneltype": "JewelTree_D",
							"defence": 1,
							"value": 0
						}
					]
			},
			{
				"listinfo": 
					[
						{
							"paneltype": "Default_Full",
							"defence": -1,
							"value": 0
						},
						{
							"paneltype": "JewelTree_C",
							"defence": 1,
							"value": 0
						}
					]
			},
			{
				"listinfo": 
					[
						{
							"paneltype": "Default_Full",
							"defence": -1,
							"value": 0
						},
						{
							"paneltype": "JewelTree_D",
							"defence": 1,
							"value": 0
						}
					]
			},
			{
				"listinfo": 
					[
						{
							"paneltype": "Creator_Empty",
							"defence": -1,
							"value": 0
						}
					]
			},
			{
				"listinfo": 
					[
						{
							"paneltype": "Creator_Empty",
							"defence": -1,
							"value": 0
						}
					]
			},
			{
				"listinfo": 
					[
						{
							"paneltype": "Creator_Empty",
							"defence": -1,
							"value": 0
						}
					]
			},
			{
				"listinfo": 
					[
						{
							"paneltype": "Creator_Empty",
							"defence": -1,
							"value": 0
						}
					]
			},
			{
				"listinfo": 
					[
						{
							"paneltype": "Default_Full",
							"defence": -1,
							"value": 0
						}
					]
			},
			{
				"listinfo": 
					[
						{
							"paneltype": "Creator_Empty",
							"defence": -1,
							"value": 0
						}
					]
			},
			{
				"listinfo": 
					[
						{
							"paneltype": "Creator_Empty",
							"defence": -1,
							"value": 0
						}
					]
			},
			{
				"listinfo": 
					[
						{
							"paneltype": "Creator_Empty",
							"defence": -1,
							"value": 0
						}
					]
			},
			{
				"listinfo": 
					[
						{
							"paneltype": "Creator_Empty",
							"defence": -1,
							"value": 0
						}
					]
			},
			{
				"listinfo": 
					[
						{
							"paneltype": "Default_Full",
							"defence": -1,
							"value": 0
						},
						{
							"paneltype": "Warp_In",
							"defence": -1,
							"value": 0
						}
					]
			},
			{
				"listinfo": 
					[
						{
							"paneltype": "Default_Full",
							"defence": -1,
							"value": 0
						}
					]
			},
			{
				"listinfo": 
					[
						{
							"paneltype": "Default_Full",
							"defence": -1,
							"value": 0
						}
					]
			},
			{
				"listinfo": 
					[
						{
							"paneltype": "Default_Full",
							"defence": -1,
							"value": 0
						}
					]
			},
			{
				"listinfo": 
					[
						{
							"paneltype": "Default_Full",
							"defence": -1,
							"value": 0
						}
					]
			},
			{
				"listinfo": 
					[
						{
							"paneltype": "Default_Full",
							"defence": -1,
							"value": 0
						}
					]
			},
			{
				"listinfo": 
					[
						{
							"paneltype": "Default_Full",
							"defence": -1,
							"value": 0
						}
					]
			},
			{
				"listinfo": 
					[
						{
							"paneltype": "Default_Full",
							"defence": -1,
							"value": 0
						}
					]
			},
			{
				"listinfo": 
					[
						{
							"paneltype": "Default_Full",
							"defence": -1,
							"value": 0
						},
						{
							"paneltype": "MagicColor",
							"defence": -1,
							"value": 0
						}
					]
			},
			{
				"listinfo": 
					[
						{
							"paneltype": "Default_Full",
							"defence": -1,
							"value": 0
						}
					]
			},
			{
				"listinfo": 
					[
						{
							"paneltype": "Default_Full",
							"defence": -1,
							"value": 0
						}
					]
			},
			{
				"listinfo": 
					[
						{
							"paneltype": "Default_Full",
							"defence": -1,
							"value": 0
						},
						{
							"paneltype": "Ring",
							"defence": 7,
							"value": 0
						}
					]
			},
			{
				"listinfo": 
					[
						{
							"paneltype": "Default_Full",
							"defence": -1,
							"value": 0
						}
					]
			},
			{
				"listinfo": 
					[
						{
							"paneltype": "Default_Full",
							"defence": -1,
							"value": 0
						},
						{
							"paneltype": "MagicColor",
							"defence": -1,
							"value": 0
						}
					]
			},
			{
				"listinfo": 
					[
						{
							"paneltype": "Default_Full",
							"defence": -1,
							"value": 0
						}
					]
			},
			{
				"listinfo": 
					[
						{
							"paneltype": "Default_Full",
							"defence": -1,
							"value": 0
						},
						{
							"paneltype": "Ring",
							"defence": 7,
							"value": 0
						}
					]
			},
			{
				"listinfo": 
					[
						{
							"paneltype": "Default_Full",
							"defence": -1,
							"value": 0
						}
					]
			},
			{
				"listinfo": 
					[
						{
							"paneltype": "Default_Full",
							"defence": -1,
							"value": 0
						}
					]
			},
			{
				"listinfo": 
					[
						{
							"paneltype": "Default_Full",
							"defence": -1,
							"value": 0
						}
					]
			},
			{
				"listinfo": 
					[
						{
							"paneltype": "Default_Full",
							"defence": -1,
							"value": 0
						}
					]
			},
			{
				"listinfo": 
					[
						{
							"paneltype": "Default_Full",
							"defence": -1,
							"value": 0
						},
						{
							"paneltype": "Ring",
							"defence": 7,
							"value": 0
						}
					]
			},
			{
				"listinfo": 
					[
						{
							"paneltype": "Default_Full",
							"defence": -1,
							"value": 0
						}
					]
			},
			{
				"listinfo": 
					[
						{
							"paneltype": "Default_Full",
							"defence": -1,
							"value": 0
						}
					]
			},
			{
				"listinfo": 
					[
						{
							"paneltype": "Default_Full",
							"defence": -1,
							"value": 0
						}
					]
			},
			{
				"listinfo": 
					[
						{
							"paneltype": "Default_Full",
							"defence": -1,
							"value": 0
						},
						{
							"paneltype": "Ring",
							"defence": 7,
							"value": 0
						}
					]
			},
			{
				"listinfo": 
					[
						{
							"paneltype": "Default_Full",
							"defence": -1,
							"value": 0
						}
					]
			},
			{
				"listinfo": 
					[
						{
							"paneltype": "Default_Full",
							"defence": -1,
							"value": 0
						}
					]
			},
			{
				"listinfo": 
					[
						{
							"paneltype": "Default_Full",
							"defence": -1,
							"value": 0
						},
						{
							"paneltype": "Ring",
							"defence": 7,
							"value": 0
						}
					]
			},
			{
				"listinfo": 
					[
						{
							"paneltype": "Default_Full",
							"defence": -1,
							"value": 0
						},
						{
							"paneltype": "MagicColor",
							"defence": -1,
							"value": 0
						}
					]
			},
			{
				"listinfo": 
					[
						{
							"paneltype": "Default_Full",
							"defence": -1,
							"value": 0
						}
					]
			},
			{
				"listinfo": 
					[
						{
							"paneltype": "Default_Full",
							"defence": -1,
							"value": 0
						},
						{
							"paneltype": "MagicColor",
							"defence": -1,
							"value": 0
						}
					]
			},
			{
				"listinfo": 
					[
						{
							"paneltype": "Default_Full",
							"defence": -1,
							"value": 0
						}
					]
			},
			{
				"listinfo": 
					[
						{
							"paneltype": "Default_Full",
							"defence": -1,
							"value": 0
						},
						{
							"paneltype": "MagicColor",
							"defence": -1,
							"value": 0
						}
					]
			},
			{
				"listinfo": 
					[
						{
							"paneltype": "Default_Full",
							"defence": -1,
							"value": 0
						}
					]
			},
			{
				"listinfo": 
					[
						{
							"paneltype": "Default_Full",
							"defence": -1,
							"value": 0
						},
						{
							"paneltype": "MagicColor",
							"defence": -1,
							"value": 0
						}
					]
			},
			{
				"listinfo": 
					[
						{
							"paneltype": "Default_Full",
							"defence": -1,
							"value": 0
						},
						{
							"paneltype": "Ring",
							"defence": 7,
							"value": 0
						}
					]
			},
			{
				"listinfo": 
					[
						{
							"paneltype": "Default_Full",
							"defence": -1,
							"value": 0
						},
						{
							"paneltype": "Ring",
							"defence": 7,
							"value": 0
						}
					]
			},
			{
				"listinfo": 
					[
						{
							"paneltype": "Default_Full",
							"defence": -1,
							"value": 0
						}
					]
			},
			{
				"listinfo": 
					[
						{
							"paneltype": "Default_Full",
							"defence": -1,
							"value": 0
						},
						{
							"paneltype": "Ring",
							"defence": 7,
							"value": 0
						}
					]
			},
			{
				"listinfo": 
					[
						{
							"paneltype": "Default_Full",
							"defence": -1,
							"value": 0
						},
						{
							"paneltype": "Ring",
							"defence": 7,
							"value": 0
						}
					]
			},
			{
				"listinfo": 
					[
						{
							"paneltype": "Default_Full",
							"defence": -1,
							"value": 0
						}
					]
			},
			{
				"listinfo": 
					[
						{
							"paneltype": "Default_Full",
							"defence": -1,
							"value": 0
						},
						{
							"paneltype": "Ring",
							"defence": 7,
							"value": 0
						}
					]
			},
			{
				"listinfo": 
					[
						{
							"paneltype": "Default_Full",
							"defence": -1,
							"value": 0
						},
						{
							"paneltype": "Ring",
							"defence": 7,
							"value": 0
						}
					]
			},
			{
				"listinfo": 
					[
						{
							"paneltype": "Default_Full",
							"defence": -1,
							"value": 0
						}
					]
			},
			{
				"listinfo": 
					[
						{
							"paneltype": "Default_Full",
							"defence": -1,
							"value": 0
						},
						{
							"paneltype": "Ring",
							"defence": 7,
							"value": 0
						}
					]
			},
			{
				"listinfo": 
					[
						{
							"paneltype": "Default_Full",
							"defence": -1,
							"value": 0
						}
					]
			},
			{
				"listinfo": 
					[
						{
							"paneltype": "Default_Full",
							"defence": -1,
							"value": 0
						}
					]
			},
			{
				"listinfo": 
					[
						{
							"paneltype": "Default_Full",
							"defence": -1,
							"value": 0
						}
					]
			},
			{
				"listinfo": 
					[
						{
							"paneltype": "Default_Full",
							"defence": -1,
							"value": 0
						}
					]
			},
			{
				"listinfo": 
					[
						{
							"paneltype": "Default_Full",
							"defence": -1,
							"value": 0
						}
					]
			},
			{
				"listinfo": 
					[
						{
							"paneltype": "Default_Full",
							"defence": -1,
							"value": 0
						}
					]
			},
			{
				"listinfo": 
					[
						{
							"paneltype": "Default_Full",
							"defence": -1,
							"value": 0
						}
					]
			},
			{
				"listinfo": 
					[
						{
							"paneltype": "Default_Full",
							"defence": -1,
							"value": 0
						}
					]
			},
			{
				"listinfo": 
					[
						{
							"paneltype": "Default_Full",
							"defence": -1,
							"value": 0
						}
					]
			}
		],
	"items": 
		[
			"None",
			"None",
			"None",
			"None",
			"Normal",
			"None",
			"None",
			"None",
			"None",
			"None",
			"None",
			"None",
			"None",
			"Normal",
			"None",
			"None",
			"None",
			"None",
			"None",
			"None",
			"None",
			"None",
			"Normal",
			"None",
			"None",
			"None",
			"None",
			"Normal",
			"Normal",
			"Normal",
			"Normal",
			"Normal",
			"Normal",
			"Normal",
			"Normal",
			"Normal",
			"Normal",
			"Normal",
			"None",
			"Normal",
			"Normal",
			"Normal",
			"None",
			"Normal",
			"Normal",
			"Normal",
			"Normal",
			"None",
			"Normal",
			"Normal",
			"Normal",
			"None",
			"Normal",
			"Normal",
			"None",
			"Normal",
			"Normal",
			"Normal",
			"Normal",
			"Normal",
			"Normal",
			"Normal",
			"None",
			"None",
			"Normal",
			"None",
			"None",
			"Normal",
			"None",
			"None",
			"Normal",
			"None",
			"Normal",
			"Normal",
			"Normal",
			"Normal",
			"Normal",
			"Normal",
			"Normal",
			"Normal",
			"Normal"
		],
	"colors": 
		[
			"None",
			"None",
			"None",
			"None",
			"Rnd",
			"None",
			"None",
			"None",
			"None",
			"None",
			"None",
			"None",
			"None",
			"Rnd",
			"None",
			"None",
			"None",
			"None",
			"None",
			"None",
			"None",
			"None",
			"Rnd",
			"None",
			"None",
			"None",
			"None",
			"Rnd",
			"GREEN",
			"Rnd",
			"RED",
			"RED",
			"Rnd",
			"RED",
			"Rnd",
			"Rnd",
			"Rnd",
			"GREEN",
			"None",
			"Rnd",
			"Rnd",
			"RED",
			"None",
			"Rnd",
			"Rnd",
			"GREEN",
			"Rnd",
			"None",
			"Rnd",
			"Rnd",
			"Rnd",
			"None",
			"Rnd",
			"Rnd",
			"None",
			"GREEN",
			"Rnd",
			"Rnd",
			"Rnd",
			"Rnd",
			"Rnd",
			"Rnd",
			"None",
			"None",
			"Rnd",
			"None",
			"None",
			"Rnd",
			"None",
			"None",
			"Rnd",
			"None",
			"Rnd",
			"Rnd",
			"Rnd",
			"Rnd",
			"Rnd",
			"Rnd",
			"Rnd",
			"Rnd",
			"Rnd"
		],
	"defaultSpawnLine": 
		[
			true,
			true,
			true,
			true,
			true,
			true,
			true,
			true,
			true
		],
	"foodSpawnLine": 
		[
			false,
			false,
			false,
			false,
			false,
			false,
			false,
			false,
			false
		],
	"SpiralSpawnLine": 
		[
			false,
			false,
			false,
			false,
			false,
			false,
			false,
			false,
			false
		],
	"DonutSpawnLine": 
		[
			false,
			false,
			false,
			false,
			true,
			false,
			false,
			false,
			false
		],
	"TimeBombSpawnLine": 
		[
			false,
			false,
			false,
			false,
			false,
			false,
			false,
			false,
			false
		],
	"MysterySpawnLine": 
		[
			false,
			false,
			false,
			false,
			false,
			false,
			false,
			false,
			false
		],
	"ChameleonSpawnLine": 
		[
			false,
			false,
			false,
			false,
			false,
			false,
			false,
			false,
			false
		],
	"KeySpawnLine": 
		[
			false,
			false,
			false,
			false,
			false,
			false,
			false,
			false,
			false
		],
	"appearColor": 
		[
			true,
			true,
			true,
			true,
			false,
			false
		],
	"scoreStar1": 11000,
	"scoreStar2": 19000,
	"scoreStar3": 30000,
	"limit_Move": 32,
	"missionType": "OrderS",
	"isOrderNMission": false,
	"isOrderSMission": true,
	"isWaferMission": false,
	"isFoodMission": false,
	"isBearMission": false,
	"isIceCreamMission": false,
	"isJamMission": false,
	"missionInfo": 
		[
			{
				"type": "OrderS",
				"kind": "Rainbow",
				"count": 20
			},
			{
				"type": "OrderS",
				"kind": "Line",
				"count": 45
			}
		],
	"food_MaxExist": 0,
	"food_Interval": 0,
	"food_SpawnCnt": 0,
	"Spiral_MinExist": 1,
	"Spiral_MaxExist": 10,
	"Spiral_Interval": 1,
	"Spiral_SpawnCnt": 5,
	"Donut_MinExist": 0,
	"Donut_MaxExist": 0,
	"Donut_Interval": 0,
	"Donut_SpawnCnt": 0,
	"TimeBomb_MinExist": 1,
	"TimeBomb_MaxExist": 1,
	"TimeBomb_Interval": 0,
	"TimeBomb_SpawnCnt": 0,
	"TimeBomb_FirstCount": 15,
	"Bear_MaxExist": 0,
	"Bear_Interval": 0,
	"IceCream_Interval": 1,
	"IceCreamCreator_Interval": 1,
	"Mystery_SettingType": "Mystery_Basic",
	"Mystery_MinExist": 1,
	"Mystery_MaxExist": 1,
	"Mystery_Interval": 0,
	"Mystery_SpawnCnt": 0,
	"Chameleon_MinExist": 0,
	"Chameleon_MaxExist": 0,
	"Chameleon_Interval": 0,
	"Chameleon_SpawnCnt": 0,
	"Key_MinExist": 0,
	"Key_MaxExist": 0,
	"Key_Interval": 0,
	"Key_SpawnCnt": 0,
	"S_Tree_SettingType": "Basic",
	"JewelTreeItem": 
		[
			"Line_Y",
			"Line_Y",
			"Normal",
			"Rainbow"
		],
	"JewelTreeItemColor": 
		[
			"Rnd",
			"Rnd",
			"Rnd",
			"None"
		]
}