{
	"Index": 289,
	"panels": 
		[
			0,
			0,
			0,
			0,
			0,
			0,
			0,
			0,
			0,
			8,
			0,
			8,
			8,
			0,
			8,
			8,
			0,
			8,
			0,
			0,
			0,
			0,
			0,
			0,
			0,
			0,
			0,
			0,
			0,
			0,
			0,
			0,
			0,
			0,
			0,
			0,
			0,
			0,
			0,
			0,
			0,
			0,
			0,
			0,
			0,
			0,
			8,
			0,
			8,
			0,
			8,
			0,
			8,
			0,
			0,
			25,
			0,
			25,
			0,
			25,
			0,
			25,
			0,
			0,
			0,
			0,
			0,
			0,
			0,
			0,
			0,
			0,
			1,
			0,
			8,
			8,
			1,
			8,
			8,
			0,
			1
		],
	"strengths": 
		[
			-1,
			-1,
			-1,
			-1,
			-1,
			-1,
			-1,
			-1,
			-1,
			1,
			-1,
			1,
			1,
			-1,
			1,
			1,
			-1,
			1,
			-1,
			-1,
			-1,
			-1,
			-1,
			-1,
			-1,
			-1,
			-1,
			-1,
			-1,
			-1,
			-1,
			-1,
			-1,
			-1,
			-1,
			-1,
			-1,
			-1,
			-1,
			-1,
			-1,
			-1,
			-1,
			-1,
			-1,
			-1,
			1,
			-1,
			1,
			-1,
			1,
			-1,
			1,
			-1,
			-1,
			-1,
			-1,
			-1,
			-1,
			-1,
			-1,
			-1,
			-1,
			-1,
			-1,
			-1,
			-1,
			-1,
			-1,
			-1,
			-1,
			-1,
			-1,
			-1,
			1,
			1,
			-1,
			1,
			1,
			-1,
			-1
		],
	"shaded": 
		[
			0,
			1,
			1,
			1,
			1,
			1,
			1,
			1,
			0,
			-1,
			1,
			-1,
			-1,
			1,
			-1,
			-1,
			1,
			-1,
			2,
			2,
			2,
			2,
			2,
			2,
			2,
			2,
			2,
			2,
			2,
			2,
			2,
			2,
			2,
			2,
			2,
			2,
			2,
			2,
			2,
			2,
			2,
			2,
			2,
			2,
			2,
			2,
			0,
			2,
			0,
			2,
			0,
			2,
			0,
			2,
			0,
			0,
			0,
			0,
			0,
			0,
			0,
			0,
			0,
			0,
			0,
			0,
			0,
			0,
			0,
			0,
			0,
			0,
			-1,
			-1,
			-1,
			-1,
			-1,
			-1,
			-1,
			-1,
			-1
		],
	"pieces": 
		[
			0,
			0,
			0,
			0,
			0,
			0,
			0,
			0,
			0,
			1,
			0,
			2,
			3,
			0,
			3,
			2,
			0,
			1,
			0,
			0,
			0,
			0,
			0,
			0,
			0,
			0,
			0,
			0,
			0,
			0,
			0,
			0,
			0,
			0,
			0,
			0,
			0,
			0,
			0,
			0,
			0,
			0,
			0,
			0,
			0,
			0,
			1,
			0,
			2,
			0,
			2,
			0,
			1,
			0,
			0,
			0,
			0,
			0,
			0,
			0,
			0,
			0,
			0,
			0,
			0,
			0,
			0,
			0,
			0,
			0,
			0,
			0,
			0,
			0,
			4,
			4,
			0,
			4,
			4,
			0,
			0
		],
	"colors": 
		[
			0,
			0,
			0,
			0,
			0,
			0,
			0,
			0,
			0,
			0,
			0,
			0,
			0,
			0,
			0,
			0,
			0,
			0,
			0,
			0,
			0,
			0,
			0,
			0,
			0,
			0,
			0,
			0,
			0,
			0,
			0,
			0,
			0,
			0,
			0,
			0,
			0,
			0,
			0,
			0,
			0,
			0,
			0,
			0,
			0,
			0,
			0,
			0,
			0,
			0,
			0,
			0,
			0,
			0,
			0,
			0,
			0,
			0,
			0,
			0,
			0,
			0,
			0,
			0,
			0,
			0,
			0,
			0,
			0,
			0,
			0,
			0,
			0,
			0,
			0,
			0,
			0,
			0,
			0,
			0,
			0
		],
	"panelInfos": 
		[
			"",
			"",
			"",
			"",
			"",
			"",
			"",
			"",
			"",
			"",
			"",
			"",
			"",
			"",
			"",
			"",
			"",
			"",
			"",
			"",
			"",
			"",
			"",
			"",
			"",
			"",
			"",
			"",
			"",
			"",
			"",
			"",
			"",
			"",
			"",
			"",
			"",
			"",
			"",
			"",
			"",
			"",
			"",
			"",
			"",
			"",
			"",
			"",
			"",
			"",
			"",
			"",
			"",
			"",
			"",
			"",
			"",
			"",
			"",
			"",
			"",
			"",
			"",
			"",
			"",
			"",
			"",
			"",
			"",
			"",
			"",
			"",
			"",
			"",
			"",
			"",
			"",
			"",
			"",
			"",
			""
		],
	"startPieces": 
		[
			true,
			true,
			true,
			true,
			true,
			true,
			true,
			true,
			true,
			true,
			true,
			true,
			true,
			true,
			true,
			true,
			true,
			true,
			true,
			true,
			true,
			true,
			true,
			true,
			true,
			true,
			true,
			true,
			true,
			true,
			true,
			true,
			true,
			true,
			true,
			true,
			true,
			true,
			true,
			true,
			true,
			true,
			true,
			true,
			true,
			true,
			true,
			true,
			true,
			true,
			true,
			true,
			true,
			true,
			true,
			true,
			true,
			true,
			true,
			true,
			true,
			true,
			true,
			true,
			true,
			true,
			true,
			true,
			true,
			true,
			true,
			true,
			true,
			true,
			true,
			true,
			true,
			true,
			true,
			true,
			true
		],
	"isTimerGame": false,
	"isMaxMovesGame": true,
	"isClearShadedGame": true,
	"isClearChocolateGame": false,
	"isGetTypesGame": false,
	"isTreasureGame": false,
	"isSpecialJewelGame": false,
	"isPenguinGame": false,
	"isYetiGame": false,
	"givenTime": 0,
	"allowedMoves": 31,
	"scoreRequiredWin": true,
	"scoreEndsGame": false,
	"scoreToReach": 
		[
			14000,
			21050,
			40100
		],
	"shadesRequiredWin": false,
	"shadesEndsGame": false,
	"chocolateRequiredWin": false,
	"chocolateEndsGame": false,
	"typesRequiredWin": false,
	"typesEndsGame": false,
	"numToGet": 
		[
			0,
			0,
			0,
			0,
			0,
			0
		],
	"treasureRequiredWin": false,
	"treasureEndsGame": false,
	"enableTreasure": false,
	"icePop": 0,
	"icecreamCone": 0,
	"maxOnScreen": 3,
	"chanceToSpawn": 0,
	"treasureGoal": 
		[],
	"easyProbability": 
		[
			11,
			21,
			29,
			14,
			14,
			11
		],
	"normalProbability": 
		[
			10,
			21,
			28,
			14,
			14,
			14
		],
	"enableTimeBomb": false,
	"movePerTimeBomb": 5,
	"minTimeBombCount": 1,
	"maxTimeBombCount": 81,
	"defaultFallBackTime": 9,
	"fallBackTime": 
		[
			0,
			0,
			0,
			0,
			0,
			0,
			0,
			0,
			0,
			0,
			0,
			0,
			0,
			0,
			0,
			0,
			0,
			0,
			0,
			0,
			0,
			0,
			0,
			0,
			0,
			0,
			0,
			0,
			0,
			0,
			0,
			0,
			0,
			0,
			0,
			0,
			0,
			0,
			0,
			0,
			0,
			0,
			0,
			0,
			0,
			0,
			0,
			0,
			0,
			0,
			0,
			0,
			0,
			0,
			0,
			0,
			0,
			0,
			0,
			0,
			0,
			0,
			0,
			0,
			0,
			0,
			0,
			0,
			0,
			0,
			0,
			0,
			0,
			0,
			0,
			0,
			0,
			0,
			0,
			0,
			0
		],
	"enableSpiralSnow": false,
	"movePerSpiralSnow": 5,
	"minSpiralSnowCount": 1,
	"maxSpiralSnowCount": 1,
	"specialJewels": 
		[
			0,
			0,
			0,
			0,
			0,
			0,
			0,
			0,
			0,
			0,
			0,
			0,
			0,
			0
		],
	"maxPenguinOnScreen": 4,
	"numberOfPenguin": 0,
	"penguinSpawn": 
		[],
	"movePerPenguin": 0,
	"enableMysteryPiece": false,
	"movePerMysteryPiece": 5,
	"minMysteryPieceCount": 1,
	"maxMysteryPieceCount": 81,
	"mysteryPieceConvertProbability": 
		[
			60,
			60,
			5,
			70,
			70,
			20,
			50,
			30,
			5,
			5,
			0,
			40,
			0,
			0,
			70,
			40,
			70,
			10,
			0
		],
	"enableChameleon": false,
	"movePerChameleon": 5,
	"minChameleonPieceCount": 0,
	"maxChameleonPieceCount": 81,
	"chameleonSpawnColumn": 
		[],
	"yetiHealth": 40,
	"attackPerMove": 0,
	"yetiBallDropProbability": 100,
	"minYetiBallPieceCount": 4,
	"maxYetiBallPieceCount": 4,
	"minYetiAttackCount": 0,
	"maxYetiAttackCount": 0,
	"attackConvertProbability": 
		[
			5,
			0,
			0,
			0,
			0,
			15,
			0,
			20,
			20
		],
	"yetiBallSpawnColumn": 
		[
			0,
			1,
			2,
			3,
			4,
			5,
			6,
			7,
			8
		],
	"episodeIdx": 3,
	"portalTypes": 
		[
			0,
			0,
			0,
			0,
			0,
			0,
			0,
			0,
			0,
			0,
			0,
			0,
			0,
			0,
			0,
			0,
			0,
			0,
			0,
			0,
			0,
			0,
			0,
			0,
			0,
			0,
			0,
			0,
			0,
			0,
			0,
			0,
			0,
			0,
			0,
			0,
			0,
			0,
			0,
			0,
			0,
			0,
			0,
			0,
			0,
			0,
			0,
			0,
			0,
			0,
			0,
			0,
			0,
			0,
			0,
			0,
			0,
			0,
			0,
			0,
			0,
			0,
			0,
			0,
			0,
			0,
			0,
			0,
			0,
			0,
			0,
			0,
			0,
			0,
			0,
			0,
			0,
			0,
			0,
			0,
			0
		],
	"portalIndices": 
		[
			0,
			0,
			0,
			0,
			0,
			0,
			0,
			0,
			0,
			0,
			0,
			0,
			0,
			0,
			0,
			0,
			0,
			0,
			0,
			0,
			0,
			0,
			0,
			0,
			0,
			0,
			0,
			0,
			0,
			0,
			0,
			0,
			0,
			0,
			0,
			0,
			0,
			0,
			0,
			0,
			0,
			0,
			0,
			0,
			0,
			0,
			0,
			0,
			0,
			0,
			0,
			0,
			0,
			0,
			0,
			0,
			0,
			0,
			0,
			0,
			0,
			0,
			0,
			0,
			0,
			0,
			0,
			0,
			0,
			0,
			0,
			0,
			0,
			0,
			0,
			0,
			0,
			0,
			0,
			0,
			0
		],
	"defaultSpawnColumn": 
		[
			0,
			1,
			2,
			3,
			4,
			5,
			6,
			7,
			8
		],
	"movePerTreasure": 7,
	"treasureSpawnCountPerMove": 1,
	"spiralSnowSpawnCountPerMove": 1,
	"timeBombSpawnCountPerMove": 0,
	"mysteryPieceSpawnCountPerMove": 0,
	"chameleonSpawnCountPerMove": 0,
	"isClearBlockerGame": false,
	"isClearCageGame": false,
	"isClearSnowGame": false,
	"isClearIcingGame": false,
	"isClearTimeBombGame": false,
	"isClearMysteryGame": false,
	"treasures": 
		[
			0,
			0,
			0,
			0,
			0
		],
	"blockers": 
		[
			0,
			0,
			0
		],
	"blockerInfos": 
		[
			{
				"enable": false,
				"interval": 4,
				"minCount": 10,
				"maxCount": 81,
				"spawnCount": 0
			},
			{
				"enable": false,
				"interval": 0,
				"minCount": 1,
				"maxCount": 1,
				"spawnCount": 0
			},
			{
				"enable": false,
				"interval": 0,
				"minCount": 1,
				"maxCount": 1,
				"spawnCount": 0
			}
		],
	"treasureSpawnColumn": 
		[],
	"isClearCakeGame": false,
	"isClearChameleonGame": false,
	"numberOfChameleon": 0,
	"isClearPieGame": false,
	"numberOfPie": 0,
	"pieceNumberForLavaCake": 0,
	"pieceColorForLavaCake": 0,
	"blockerSpawnColumn": 
		[]
}