{
	"Index": 385,
	"panels": 
		[
			0,
			0,
			0,
			0,
			0,
			1,
			0,
			0,
			0,
			0,
			0,
			0,
			0,
			0,
			1,
			0,
			0,
			0,
			0,
			0,
			0,
			0,
			0,
			1,
			1,
			1,
			1,
			0,
			0,
			0,
			0,
			0,
			0,
			0,
			0,
			0,
			22,
			22,
			22,
			22,
			22,
			22,
			22,
			22,
			22,
			0,
			0,
			0,
			0,
			0,
			0,
			0,
			0,
			0,
			1,
			1,
			1,
			1,
			0,
			0,
			0,
			0,
			0,
			0,
			0,
			0,
			1,
			0,
			0,
			0,
			0,
			0,
			0,
			0,
			0,
			1,
			0,
			0,
			0,
			0,
			0
		],
	"strengths": 
		[
			-1,
			-1,
			-1,
			-1,
			-1,
			-1,
			-1,
			-1,
			-1,
			-1,
			-1,
			-1,
			-1,
			-1,
			-1,
			-1,
			-1,
			-1,
			-1,
			-1,
			-1,
			-1,
			-1,
			-1,
			-1,
			-1,
			-1,
			-1,
			-1,
			-1,
			-1,
			-1,
			-1,
			-1,
			-1,
			-1,
			-1,
			-1,
			-1,
			-1,
			-1,
			-1,
			-1,
			-1,
			-1,
			-1,
			-1,
			-1,
			-1,
			-1,
			-1,
			-1,
			-1,
			-1,
			-1,
			-1,
			-1,
			-1,
			-1,
			-1,
			-1,
			-1,
			-1,
			-1,
			-1,
			-1,
			-1,
			-1,
			-1,
			-1,
			-1,
			-1,
			-1,
			-1,
			-1,
			-1,
			-1,
			-1,
			-1,
			-1,
			-1
		],
	"shaded": 
		[
			-1,
			-1,
			-1,
			-1,
			-1,
			-1,
			-1,
			-1,
			-1,
			-1,
			-1,
			-1,
			-1,
			-1,
			-1,
			-1,
			-1,
			-1,
			-1,
			-1,
			-1,
			-1,
			-1,
			-1,
			-1,
			-1,
			-1,
			-1,
			-1,
			-1,
			-1,
			-1,
			-1,
			-1,
			-1,
			-1,
			-1,
			-1,
			-1,
			-1,
			-1,
			-1,
			-1,
			-1,
			-1,
			-1,
			-1,
			-1,
			-1,
			-1,
			-1,
			-1,
			-1,
			-1,
			-1,
			-1,
			-1,
			-1,
			-1,
			-1,
			-1,
			-1,
			-1,
			-1,
			-1,
			-1,
			-1,
			-1,
			-1,
			-1,
			-1,
			-1,
			-1,
			-1,
			-1,
			-1,
			-1,
			-1,
			-1,
			-1,
			-1
		],
	"pieces": 
		[
			0,
			0,
			0,
			0,
			0,
			0,
			8,
			8,
			8,
			0,
			0,
			0,
			0,
			0,
			0,
			8,
			8,
			8,
			0,
			0,
			0,
			0,
			0,
			0,
			0,
			0,
			0,
			0,
			0,
			0,
			0,
			0,
			0,
			0,
			0,
			0,
			0,
			0,
			0,
			0,
			0,
			0,
			0,
			0,
			0,
			0,
			0,
			0,
			0,
			0,
			0,
			0,
			0,
			0,
			0,
			0,
			0,
			0,
			0,
			0,
			0,
			0,
			0,
			8,
			8,
			8,
			0,
			0,
			2,
			1,
			2,
			0,
			8,
			8,
			8,
			0,
			1,
			8,
			8,
			8,
			2
		],
	"colors": 
		[
			0,
			0,
			0,
			0,
			0,
			0,
			-1,
			-1,
			-1,
			0,
			0,
			0,
			0,
			0,
			0,
			-1,
			-1,
			-1,
			0,
			0,
			0,
			0,
			0,
			0,
			0,
			0,
			0,
			0,
			0,
			0,
			0,
			0,
			0,
			0,
			0,
			0,
			0,
			0,
			0,
			0,
			0,
			0,
			0,
			0,
			0,
			0,
			0,
			0,
			0,
			0,
			0,
			0,
			0,
			0,
			0,
			0,
			0,
			0,
			0,
			0,
			0,
			0,
			0,
			-1,
			-1,
			-1,
			0,
			0,
			6,
			4,
			1,
			0,
			-1,
			-1,
			-1,
			0,
			3,
			-1,
			-1,
			-1,
			2
		],
	"panelInfos": 
		[
			"",
			"",
			"",
			"",
			"",
			"",
			"",
			"",
			"",
			"",
			"",
			"",
			"",
			"",
			"",
			"",
			"",
			"",
			"",
			"",
			"",
			"",
			"",
			"",
			"",
			"",
			"",
			"",
			"",
			"",
			"",
			"",
			"",
			"",
			"",
			"",
			"{\r\n\t\"Type\": \"BEGIN\",\r\n\t\"In\": \"LEFT\",\r\n\t\"Out\": \"RIGHT\",\r\n\t\"ImageType\": \"DEFAULT\",\r\n\t\"PortalIndex\": 0\r\n}",
			"{\r\n\t\"Type\": \"MIDDLE\",\r\n\t\"In\": \"LEFT\",\r\n\t\"Out\": \"RIGHT\",\r\n\t\"ImageType\": \"DEFAULT\",\r\n\t\"PortalIndex\": 0\r\n}",
			"{\r\n\t\"Type\": \"MIDDLE\",\r\n\t\"In\": \"LEFT\",\r\n\t\"Out\": \"RIGHT\",\r\n\t\"ImageType\": \"DEFAULT\",\r\n\t\"PortalIndex\": 0\r\n}",
			"{\r\n\t\"Type\": \"MIDDLE\",\r\n\t\"In\": \"LEFT\",\r\n\t\"Out\": \"RIGHT\",\r\n\t\"ImageType\": \"DEFAULT\",\r\n\t\"PortalIndex\": 0\r\n}",
			"{\r\n\t\"Type\": \"MIDDLE\",\r\n\t\"In\": \"LEFT\",\r\n\t\"Out\": \"RIGHT\",\r\n\t\"ImageType\": \"DEFAULT\",\r\n\t\"PortalIndex\": 0\r\n}",
			"{\r\n\t\"Type\": \"MIDDLE\",\r\n\t\"In\": \"LEFT\",\r\n\t\"Out\": \"RIGHT\",\r\n\t\"ImageType\": \"DEFAULT\",\r\n\t\"PortalIndex\": 0\r\n}",
			"{\r\n\t\"Type\": \"MIDDLE\",\r\n\t\"In\": \"LEFT\",\r\n\t\"Out\": \"RIGHT\",\r\n\t\"ImageType\": \"DEFAULT\",\r\n\t\"PortalIndex\": 0\r\n}",
			"{\r\n\t\"Type\": \"MIDDLE\",\r\n\t\"In\": \"LEFT\",\r\n\t\"Out\": \"RIGHT\",\r\n\t\"ImageType\": \"DEFAULT\",\r\n\t\"PortalIndex\": 0\r\n}",
			"{\r\n\t\"Type\": \"END\",\r\n\t\"In\": \"LEFT\",\r\n\t\"Out\": \"RIGHT\",\r\n\t\"ImageType\": \"DEFAULT\",\r\n\t\"PortalIndex\": 0\r\n}",
			"",
			"",
			"",
			"",
			"",
			"",
			"",
			"",
			"",
			"",
			"",
			"",
			"",
			"",
			"",
			"",
			"",
			"",
			"",
			"",
			"",
			"",
			"",
			"",
			"",
			"",
			"",
			"",
			"",
			"",
			"",
			"",
			"",
			"",
			"",
			""
		],
	"startPieces": 
		[
			true,
			true,
			true,
			true,
			true,
			true,
			true,
			true,
			true,
			true,
			true,
			true,
			true,
			true,
			true,
			true,
			true,
			true,
			true,
			true,
			true,
			true,
			true,
			true,
			true,
			true,
			true,
			true,
			true,
			true,
			true,
			true,
			true,
			true,
			true,
			true,
			true,
			true,
			true,
			true,
			true,
			true,
			true,
			true,
			true,
			true,
			true,
			true,
			true,
			true,
			true,
			true,
			true,
			true,
			true,
			true,
			true,
			true,
			true,
			true,
			true,
			true,
			true,
			true,
			true,
			true,
			true,
			true,
			true,
			true,
			true,
			true,
			true,
			true,
			true,
			true,
			true,
			true,
			true,
			true,
			true
		],
	"isTimerGame": false,
	"isMaxMovesGame": true,
	"isClearShadedGame": false,
	"isClearChocolateGame": false,
	"isGetTypesGame": true,
	"isTreasureGame": false,
	"isSpecialJewelGame": true,
	"isPenguinGame": false,
	"isYetiGame": false,
	"givenTime": 0,
	"allowedMoves": 30,
	"scoreRequiredWin": true,
	"scoreEndsGame": false,
	"scoreToReach": 
		[
			2950,
			6900,
			17050
		],
	"shadesRequiredWin": false,
	"shadesEndsGame": false,
	"chocolateRequiredWin": false,
	"chocolateEndsGame": false,
	"typesRequiredWin": false,
	"typesEndsGame": false,
	"numToGet": 
		[
			0,
			42,
			0,
			0,
			0,
			48
		],
	"treasureRequiredWin": false,
	"treasureEndsGame": false,
	"enableTreasure": false,
	"icePop": 0,
	"icecreamCone": 0,
	"maxOnScreen": 3,
	"chanceToSpawn": 0,
	"treasureGoal": 
		[],
	"easyProbability": 
		[
			17,
			21,
			21,
			21,
			0,
			21
		],
	"normalProbability": 
		[
			20,
			20,
			20,
			20,
			0,
			20
		],
	"enableTimeBomb": false,
	"movePerTimeBomb": 5,
	"minTimeBombCount": 2,
	"maxTimeBombCount": 81,
	"defaultFallBackTime": 16,
	"fallBackTime": 
		[
			0,
			0,
			0,
			0,
			0,
			0,
			0,
			0,
			0,
			0,
			0,
			0,
			0,
			0,
			0,
			0,
			0,
			0,
			0,
			0,
			0,
			0,
			0,
			0,
			0,
			0,
			0,
			0,
			0,
			0,
			0,
			0,
			0,
			0,
			0,
			0,
			0,
			0,
			0,
			0,
			0,
			0,
			0,
			0,
			0,
			0,
			0,
			0,
			0,
			0,
			0,
			0,
			0,
			0,
			0,
			0,
			0,
			0,
			0,
			0,
			0,
			0,
			0,
			0,
			0,
			0,
			0,
			0,
			0,
			0,
			0,
			0,
			0,
			0,
			0,
			0,
			0,
			0,
			0,
			0,
			0
		],
	"enableSpiralSnow": false,
	"movePerSpiralSnow": 0,
	"minSpiralSnowCount": 0,
	"maxSpiralSnowCount": 0,
	"specialJewels": 
		[
			15,
			0,
			0,
			0,
			0,
			0,
			0,
			0,
			0,
			0,
			0,
			0,
			0,
			0
		],
	"maxPenguinOnScreen": 4,
	"numberOfPenguin": 0,
	"penguinSpawn": 
		[],
	"movePerPenguin": 0,
	"enableMysteryPiece": true,
	"movePerMysteryPiece": 8,
	"minMysteryPieceCount": 3,
	"maxMysteryPieceCount": 81,
	"mysteryPieceConvertProbability": 
		[
			90,
			90,
			12,
			70,
			70,
			12,
			50,
			30,
			10,
			5,
			1,
			50,
			0,
			0,
			50,
			40,
			20,
			10,
			0
		],
	"enableChameleon": false,
	"movePerChameleon": 5,
	"minChameleonPieceCount": 0,
	"maxChameleonPieceCount": 81,
	"chameleonSpawnColumn": 
		[],
	"yetiHealth": 0,
	"attackPerMove": 0,
	"yetiBallDropProbability": 0,
	"minYetiBallPieceCount": 0,
	"maxYetiBallPieceCount": 0,
	"minYetiAttackCount": 0,
	"maxYetiAttackCount": 0,
	"attackConvertProbability": 
		[
			25,
			20,
			10,
			5,
			5,
			5,
			5,
			20,
			5
		],
	"yetiBallSpawnColumn": 
		[],
	"episodeIdx": 2,
	"portalTypes": 
		[
			0,
			0,
			0,
			0,
			0,
			0,
			0,
			0,
			0,
			0,
			0,
			0,
			0,
			0,
			0,
			1,
			1,
			1,
			0,
			0,
			0,
			0,
			0,
			0,
			0,
			0,
			0,
			0,
			0,
			0,
			0,
			0,
			0,
			0,
			0,
			0,
			0,
			0,
			0,
			0,
			0,
			0,
			0,
			0,
			0,
			0,
			0,
			0,
			0,
			0,
			0,
			0,
			0,
			0,
			0,
			0,
			0,
			0,
			0,
			0,
			0,
			0,
			0,
			2,
			2,
			2,
			0,
			0,
			0,
			0,
			0,
			0,
			0,
			0,
			0,
			0,
			0,
			0,
			0,
			0,
			0
		],
	"portalIndices": 
		[
			0,
			0,
			0,
			0,
			0,
			0,
			0,
			0,
			0,
			0,
			0,
			0,
			0,
			0,
			0,
			1,
			2,
			3,
			0,
			0,
			0,
			0,
			0,
			0,
			0,
			0,
			0,
			0,
			0,
			0,
			0,
			0,
			0,
			0,
			0,
			0,
			0,
			0,
			0,
			0,
			0,
			0,
			0,
			0,
			0,
			0,
			0,
			0,
			0,
			0,
			0,
			0,
			0,
			0,
			0,
			0,
			0,
			0,
			0,
			0,
			0,
			0,
			0,
			1,
			2,
			3,
			0,
			0,
			0,
			0,
			0,
			0,
			0,
			0,
			0,
			0,
			0,
			0,
			0,
			0,
			0
		],
	"defaultSpawnColumn": 
		[
			0,
			1,
			2,
			3,
			4,
			5,
			6,
			7,
			8
		],
	"movePerTreasure": 7,
	"treasureSpawnCountPerMove": 1,
	"spiralSnowSpawnCountPerMove": 0,
	"timeBombSpawnCountPerMove": 0,
	"mysteryPieceSpawnCountPerMove": 0,
	"chameleonSpawnCountPerMove": 0,
	"isClearBlockerGame": true,
	"isClearCageGame": false,
	"isClearSnowGame": false,
	"isClearIcingGame": false,
	"isClearTimeBombGame": false,
	"isClearMysteryGame": false,
	"treasures": 
		[
			0,
			0,
			0,
			0,
			0
		],
	"blockers": 
		[
			15,
			0,
			0
		],
	"blockerInfos": 
		[
			{
				"enable": false,
				"interval": 0,
				"minCount": 1,
				"maxCount": 1,
				"spawnCount": 0
			},
			{
				"enable": false,
				"interval": 0,
				"minCount": 1,
				"maxCount": 1,
				"spawnCount": 0
			},
			{
				"enable": false,
				"interval": 0,
				"minCount": 1,
				"maxCount": 1,
				"spawnCount": 0
			}
		],
	"treasureSpawnColumn": 
		[],
	"isClearCakeGame": false,
	"isClearChameleonGame": false,
	"numberOfChameleon": 0,
	"isClearPieGame": false,
	"numberOfPie": 0,
	"pieceNumberForLavaCake": 0,
	"pieceColorForLavaCake": 0,
	"blockerSpawnColumn": 
		[]
}