{
	"Index": 26,
	"panels": 
		[
			1,
			0,
			0,
			0,
			0,
			0,
			0,
			0,
			1,
			0,
			0,
			0,
			0,
			0,
			0,
			0,
			0,
			0,
			0,
			0,
			0,
			4,
			4,
			4,
			0,
			0,
			0,
			0,
			4,
			1,
			0,
			4,
			0,
			1,
			4,
			0,
			4,
			1,
			23,
			4,
			4,
			4,
			23,
			1,
			4,
			23,
			23,
			0,
			0,
			4,
			0,
			0,
			23,
			23,
			0,
			0,
			0,
			0,
			0,
			0,
			0,
			0,
			0,
			0,
			0,
			0,
			0,
			0,
			0,
			0,
			0,
			0,
			0,
			0,
			0,
			0,
			0,
			0,
			0,
			0,
			0
		],
	"strengths": 
		[
			-1,
			-1,
			-1,
			-1,
			-1,
			-1,
			-1,
			-1,
			-1,
			-1,
			-1,
			-1,
			-1,
			-1,
			-1,
			-1,
			-1,
			-1,
			-1,
			-1,
			-1,
			1,
			1,
			1,
			-1,
			-1,
			-1,
			-1,
			1,
			-1,
			-1,
			-1,
			-1,
			-1,
			1,
			-1,
			1,
			-1,
			-1,
			-1,
			-1,
			-1,
			-1,
			-1,
			1,
			-1,
			-1,
			1,
			1,
			-1,
			1,
			1,
			-1,
			-1,
			-1,
			1,
			1,
			1,
			1,
			1,
			1,
			1,
			-1,
			-1,
			-1,
			-1,
			-1,
			1,
			-1,
			-1,
			-1,
			-1,
			-1,
			-1,
			-1,
			-1,
			1,
			-1,
			-1,
			-1,
			-1
		],
	"shaded": 
		[
			-1,
			-1,
			-1,
			-1,
			-1,
			-1,
			-1,
			-1,
			-1,
			-1,
			-1,
			-1,
			-1,
			-1,
			-1,
			-1,
			-1,
			-1,
			-1,
			-1,
			-1,
			-1,
			-1,
			-1,
			-1,
			-1,
			-1,
			-1,
			-1,
			-1,
			-1,
			-1,
			-1,
			-1,
			-1,
			-1,
			-1,
			-1,
			-1,
			-1,
			-1,
			-1,
			-1,
			-1,
			-1,
			-1,
			-1,
			-1,
			-1,
			-1,
			-1,
			-1,
			-1,
			-1,
			-1,
			-1,
			-1,
			-1,
			-1,
			-1,
			-1,
			-1,
			-1,
			-1,
			-1,
			-1,
			-1,
			-1,
			-1,
			-1,
			-1,
			-1,
			-1,
			-1,
			-1,
			-1,
			-1,
			-1,
			-1,
			-1,
			-1
		],
	"pieces": 
		[
			0,
			0,
			0,
			0,
			0,
			0,
			0,
			0,
			0,
			0,
			0,
			0,
			0,
			0,
			0,
			0,
			0,
			0,
			0,
			0,
			0,
			0,
			0,
			0,
			0,
			0,
			0,
			0,
			0,
			0,
			0,
			0,
			0,
			0,
			0,
			0,
			0,
			0,
			0,
			0,
			0,
			0,
			0,
			0,
			0,
			0,
			0,
			8,
			8,
			0,
			8,
			8,
			0,
			0,
			0,
			8,
			8,
			8,
			8,
			8,
			8,
			8,
			0,
			0,
			0,
			0,
			0,
			8,
			0,
			0,
			0,
			0,
			0,
			0,
			0,
			0,
			8,
			0,
			0,
			0,
			0
		],
	"colors": 
		[
			0,
			0,
			4,
			0,
			0,
			0,
			0,
			0,
			0,
			7,
			0,
			0,
			4,
			1,
			4,
			4,
			1,
			4,
			0,
			7,
			4,
			0,
			0,
			0,
			1,
			4,
			1,
			7,
			0,
			0,
			0,
			0,
			0,
			0,
			0,
			0,
			0,
			0,
			0,
			0,
			0,
			0,
			0,
			0,
			0,
			0,
			0,
			-1,
			-1,
			0,
			-1,
			-1,
			0,
			0,
			0,
			-1,
			-1,
			-1,
			-1,
			-1,
			-1,
			-1,
			0,
			0,
			0,
			0,
			0,
			-1,
			0,
			0,
			0,
			0,
			0,
			0,
			0,
			0,
			-1,
			0,
			0,
			0,
			0
		],
	"panelInfos": 
		[
			"",
			"",
			"",
			"",
			"",
			"",
			"",
			"",
			"",
			"",
			"",
			"",
			"",
			"",
			"",
			"",
			"",
			"",
			"",
			"",
			"",
			"",
			"",
			"",
			"",
			"",
			"",
			"",
			"",
			"",
			"",
			"",
			"",
			"",
			"",
			"",
			"",
			"",
			"",
			"",
			"",
			"",
			"",
			"",
			"",
			"",
			"",
			"",
			"",
			"",
			"",
			"",
			"",
			"",
			"",
			"",
			"",
			"",
			"",
			"",
			"",
			"",
			"",
			"",
			"",
			"",
			"",
			"",
			"",
			"",
			"",
			"",
			"",
			"",
			"",
			"",
			"",
			"",
			"",
			"",
			""
		],
	"startPieces": 
		[
			true,
			true,
			true,
			true,
			true,
			true,
			true,
			true,
			true,
			true,
			true,
			true,
			true,
			true,
			true,
			true,
			true,
			true,
			true,
			true,
			true,
			true,
			true,
			true,
			true,
			true,
			true,
			true,
			true,
			true,
			true,
			true,
			true,
			true,
			true,
			true,
			true,
			true,
			true,
			true,
			true,
			true,
			true,
			true,
			true,
			true,
			true,
			true,
			true,
			true,
			true,
			true,
			true,
			true,
			false,
			true,
			true,
			true,
			true,
			true,
			true,
			true,
			false,
			false,
			false,
			false,
			false,
			true,
			false,
			false,
			false,
			false,
			false,
			false,
			false,
			false,
			true,
			false,
			false,
			false,
			false
		],
	"isTimerGame": false,
	"isMaxMovesGame": true,
	"isClearShadedGame": false,
	"isClearChocolateGame": false,
	"isGetTypesGame": true,
	"isTreasureGame": false,
	"isSpecialJewelGame": false,
	"isPenguinGame": false,
	"isYetiGame": false,
	"givenTime": 0,
	"allowedMoves": 39,
	"scoreRequiredWin": false,
	"scoreEndsGame": false,
	"scoreToReach": 
		[
			1000,
			4350,
			7100
		],
	"shadesRequiredWin": false,
	"shadesEndsGame": false,
	"chocolateRequiredWin": false,
	"chocolateEndsGame": false,
	"typesRequiredWin": false,
	"typesEndsGame": false,
	"numToGet": 
		[
			26,
			0,
			0,
			0,
			0,
			26
		],
	"treasureRequiredWin": false,
	"treasureEndsGame": false,
	"enableTreasure": true,
	"icePop": 0,
	"icecreamCone": 0,
	"maxOnScreen": 2,
	"chanceToSpawn": 7,
	"treasureGoal": 
		[],
	"easyProbability": 
		[
			29,
			14,
			14,
			14,
			0,
			29
		],
	"normalProbability": 
		[
			18,
			21,
			21,
			21,
			0,
			21
		],
	"enableTimeBomb": false,
	"movePerTimeBomb": 0,
	"minTimeBombCount": 1,
	"maxTimeBombCount": 1,
	"defaultFallBackTime": 0,
	"fallBackTime": 
		[
			0,
			0,
			0,
			0,
			0,
			0,
			0,
			0,
			0,
			0,
			0,
			0,
			0,
			0,
			0,
			0,
			0,
			0,
			0,
			0,
			0,
			0,
			0,
			0,
			0,
			0,
			0,
			0,
			0,
			0,
			0,
			0,
			0,
			0,
			0,
			0,
			0,
			0,
			0,
			0,
			0,
			0,
			0,
			0,
			0,
			0,
			0,
			0,
			0,
			0,
			0,
			0,
			0,
			0,
			0,
			0,
			0,
			0,
			0,
			0,
			0,
			0,
			0,
			0,
			0,
			0,
			0,
			0,
			0,
			0,
			0,
			0,
			0,
			0,
			0,
			0,
			0,
			0,
			0,
			0,
			0
		],
	"enableSpiralSnow": false,
	"movePerSpiralSnow": 0,
	"minSpiralSnowCount": 0,
	"maxSpiralSnowCount": 0,
	"specialJewels": 
		[
			0,
			0,
			0,
			0,
			0,
			0,
			0,
			0,
			0,
			0,
			0,
			0,
			0,
			0
		],
	"maxPenguinOnScreen": 0,
	"numberOfPenguin": 0,
	"penguinSpawn": 
		[],
	"movePerPenguin": 0,
	"enableMysteryPiece": false,
	"movePerMysteryPiece": 0,
	"minMysteryPieceCount": 1,
	"maxMysteryPieceCount": 1,
	"mysteryPieceConvertProbability": 
		[
			100,
			100,
			30,
			80,
			70,
			29,
			80,
			80,
			50,
			30,
			20,
			100,
			1,
			80,
			50,
			50,
			20,
			30,
			0
		],
	"enableChameleon": false,
	"movePerChameleon": 0,
	"minChameleonPieceCount": 0,
	"maxChameleonPieceCount": 0,
	"chameleonSpawnColumn": 
		[],
	"yetiHealth": 0,
	"attackPerMove": 0,
	"yetiBallDropProbability": 0,
	"minYetiBallPieceCount": 0,
	"maxYetiBallPieceCount": 0,
	"minYetiAttackCount": 0,
	"maxYetiAttackCount": 0,
	"attackConvertProbability": 
		[
			25,
			20,
			10,
			5,
			5,
			5,
			5,
			20,
			5
		],
	"yetiBallSpawnColumn": 
		[],
	"episodeIdx": 0,
	"portalTypes": 
		[
			0,
			0,
			0,
			0,
			0,
			0,
			0,
			0,
			0,
			0,
			0,
			0,
			0,
			0,
			0,
			0,
			0,
			0,
			0,
			0,
			0,
			0,
			0,
			0,
			0,
			0,
			0,
			0,
			1,
			0,
			0,
			0,
			0,
			0,
			1,
			0,
			1,
			0,
			0,
			0,
			0,
			0,
			0,
			0,
			1,
			0,
			0,
			0,
			0,
			0,
			0,
			0,
			0,
			0,
			2,
			2,
			0,
			0,
			0,
			0,
			0,
			2,
			2,
			0,
			0,
			0,
			0,
			0,
			0,
			0,
			0,
			0,
			0,
			0,
			0,
			0,
			0,
			0,
			0,
			0,
			0
		],
	"portalIndices": 
		[
			0,
			0,
			0,
			0,
			0,
			0,
			0,
			0,
			0,
			0,
			0,
			0,
			0,
			0,
			0,
			0,
			0,
			0,
			0,
			0,
			0,
			0,
			0,
			0,
			0,
			0,
			0,
			0,
			1,
			0,
			0,
			0,
			0,
			0,
			3,
			0,
			2,
			0,
			0,
			0,
			0,
			0,
			0,
			0,
			4,
			0,
			0,
			0,
			0,
			0,
			0,
			0,
			0,
			0,
			3,
			4,
			0,
			0,
			0,
			0,
			0,
			2,
			1,
			0,
			0,
			0,
			0,
			0,
			0,
			0,
			0,
			0,
			0,
			0,
			0,
			0,
			0,
			0,
			0,
			0,
			0
		],
	"defaultSpawnColumn": 
		[
			0,
			1,
			2,
			3,
			4,
			5,
			6,
			7,
			8
		],
	"movePerTreasure": 5,
	"treasureSpawnCountPerMove": 0,
	"spiralSnowSpawnCountPerMove": 0,
	"timeBombSpawnCountPerMove": 0,
	"mysteryPieceSpawnCountPerMove": 0,
	"chameleonSpawnCountPerMove": 0,
	"isClearBlockerGame": true,
	"isClearCageGame": false,
	"isClearSnowGame": true,
	"isClearIcingGame": false,
	"isClearTimeBombGame": false,
	"isClearMysteryGame": false,
	"treasures": 
		[
			2,
			1,
			0,
			0,
			0
		],
	"blockers": 
		[
			13,
			0,
			0
		],
	"blockerInfos": 
		[
			{
				"enable": false,
				"interval": 0,
				"minCount": 1,
				"maxCount": 1,
				"spawnCount": 0
			},
			{
				"enable": false,
				"interval": 0,
				"minCount": 1,
				"maxCount": 1,
				"spawnCount": 0
			},
			{
				"enable": false,
				"interval": 0,
				"minCount": 1,
				"maxCount": 1,
				"spawnCount": 0
			}
		],
	"treasureSpawnColumn": 
		[],
	"isClearCakeGame": false,
	"isClearChameleonGame": false,
	"numberOfChameleon": 0,
	"isClearPieGame": false,
	"numberOfPie": 0,
	"pieceNumberForLavaCake": 0,
	"pieceColorForLavaCake": 0,
	"blockerSpawnColumn": 
		[]
}