{
	"Index": 673,
	"panels": 
		[
			0,
			0,
			0,
			0,
			1,
			6,
			6,
			6,
			6,
			0,
			0,
			0,
			0,
			1,
			0,
			0,
			0,
			0,
			0,
			0,
			0,
			0,
			1,
			0,
			0,
			0,
			0,
			0,
			0,
			0,
			0,
			1,
			0,
			0,
			0,
			0,
			1,
			1,
			1,
			1,
			1,
			7,
			7,
			7,
			7,
			0,
			0,
			0,
			0,
			1,
			0,
			0,
			0,
			0,
			0,
			0,
			0,
			0,
			1,
			0,
			0,
			0,
			0,
			0,
			0,
			0,
			0,
			1,
			4,
			4,
			4,
			4,
			5,
			5,
			5,
			5,
			1,
			4,
			4,
			4,
			4
		],
	"strengths": 
		[
			-1,
			-1,
			-1,
			-1,
			-1,
			5,
			6,
			7,
			8,
			-1,
			-1,
			-1,
			-1,
			-1,
			-1,
			-1,
			-1,
			-1,
			-1,
			-1,
			-1,
			-1,
			-1,
			-1,
			-1,
			-1,
			-1,
			-1,
			-1,
			-1,
			-1,
			-1,
			-1,
			-1,
			-1,
			-1,
			-1,
			-1,
			-1,
			-1,
			-1,
			1,
			1,
			1,
			1,
			-1,
			-1,
			-1,
			-1,
			-1,
			-1,
			-1,
			-1,
			-1,
			-1,
			-1,
			-1,
			-1,
			-1,
			-1,
			-1,
			-1,
			-1,
			-1,
			-1,
			-1,
			-1,
			-1,
			3,
			3,
			3,
			3,
			5,
			6,
			7,
			8,
			-1,
			3,
			3,
			3,
			3
		],
	"shaded": 
		[
			-1,
			-1,
			-1,
			-1,
			-1,
			-1,
			-1,
			-1,
			-1,
			-1,
			-1,
			-1,
			-1,
			-1,
			-1,
			-1,
			-1,
			-1,
			-1,
			-1,
			-1,
			-1,
			-1,
			-1,
			-1,
			-1,
			-1,
			-1,
			-1,
			-1,
			-1,
			-1,
			-1,
			-1,
			-1,
			-1,
			-1,
			-1,
			-1,
			-1,
			-1,
			-1,
			-1,
			-1,
			-1,
			-1,
			-1,
			-1,
			-1,
			-1,
			-1,
			-1,
			-1,
			-1,
			-1,
			-1,
			-1,
			-1,
			-1,
			-1,
			-1,
			-1,
			-1,
			-1,
			-1,
			-1,
			-1,
			-1,
			-1,
			-1,
			-1,
			-1,
			-1,
			-1,
			-1,
			-1,
			-1,
			-1,
			-1,
			-1,
			-1
		],
	"pieces": 
		[
			0,
			6,
			0,
			0,
			0,
			0,
			0,
			0,
			0,
			0,
			0,
			0,
			0,
			0,
			0,
			0,
			0,
			0,
			0,
			0,
			0,
			0,
			0,
			0,
			0,
			0,
			0,
			0,
			0,
			0,
			0,
			0,
			0,
			0,
			0,
			0,
			0,
			0,
			0,
			0,
			0,
			0,
			0,
			0,
			0,
			0,
			0,
			0,
			0,
			0,
			0,
			0,
			0,
			0,
			0,
			0,
			0,
			0,
			0,
			0,
			0,
			0,
			0,
			0,
			0,
			0,
			0,
			0,
			0,
			0,
			0,
			0,
			0,
			0,
			0,
			0,
			0,
			0,
			0,
			0,
			0
		],
	"colors": 
		[
			0,
			0,
			0,
			0,
			0,
			0,
			0,
			0,
			0,
			0,
			0,
			0,
			0,
			0,
			0,
			0,
			0,
			0,
			0,
			0,
			0,
			0,
			0,
			0,
			0,
			0,
			0,
			0,
			0,
			0,
			0,
			0,
			0,
			0,
			0,
			0,
			0,
			0,
			0,
			0,
			0,
			0,
			0,
			0,
			0,
			0,
			0,
			0,
			0,
			0,
			0,
			0,
			0,
			0,
			0,
			0,
			0,
			0,
			0,
			0,
			0,
			0,
			0,
			0,
			0,
			0,
			0,
			0,
			0,
			0,
			0,
			0,
			0,
			0,
			0,
			0,
			0,
			0,
			0,
			0,
			0
		],
	"panelInfos": 
		[
			"",
			"",
			"",
			"",
			"",
			"",
			"",
			"",
			"",
			"",
			"",
			"",
			"",
			"",
			"",
			"",
			"",
			"",
			"",
			"",
			"",
			"",
			"",
			"",
			"",
			"",
			"",
			"",
			"",
			"",
			"",
			"",
			"",
			"",
			"",
			"",
			"",
			"",
			"",
			"",
			"",
			"",
			"",
			"",
			"",
			"",
			"",
			"",
			"",
			"",
			"",
			"",
			"",
			"",
			"",
			"",
			"",
			"",
			"",
			"",
			"",
			"",
			"",
			"",
			"",
			"",
			"",
			"",
			"",
			"",
			"",
			"",
			"",
			"",
			"",
			"",
			"",
			"",
			"",
			"",
			""
		],
	"startPieces": 
		[
			true,
			true,
			true,
			true,
			true,
			true,
			true,
			true,
			true,
			true,
			true,
			true,
			true,
			true,
			true,
			true,
			true,
			true,
			true,
			true,
			true,
			true,
			true,
			true,
			true,
			true,
			true,
			true,
			true,
			true,
			true,
			true,
			true,
			true,
			true,
			true,
			true,
			true,
			true,
			true,
			true,
			true,
			true,
			true,
			true,
			true,
			true,
			true,
			true,
			true,
			true,
			true,
			true,
			true,
			true,
			true,
			true,
			true,
			true,
			true,
			true,
			true,
			true,
			true,
			true,
			true,
			true,
			true,
			true,
			true,
			true,
			true,
			true,
			true,
			true,
			true,
			true,
			true,
			true,
			true,
			true
		],
	"isTimerGame": false,
	"isMaxMovesGame": true,
	"isClearShadedGame": false,
	"isClearChocolateGame": false,
	"isGetTypesGame": false,
	"isTreasureGame": true,
	"isSpecialJewelGame": false,
	"isPenguinGame": false,
	"isYetiGame": false,
	"givenTime": 0,
	"allowedMoves": 45,
	"scoreRequiredWin": true,
	"scoreEndsGame": false,
	"scoreToReach": 
		[
			80000,
			140000,
			210000
		],
	"shadesRequiredWin": false,
	"shadesEndsGame": false,
	"chocolateRequiredWin": false,
	"chocolateEndsGame": false,
	"typesRequiredWin": false,
	"typesEndsGame": false,
	"numToGet": 
		[
			0,
			0,
			0,
			0,
			0,
			0
		],
	"treasureRequiredWin": false,
	"treasureEndsGame": false,
	"enableTreasure": true,
	"icePop": 0,
	"icecreamCone": 0,
	"maxOnScreen": 8,
	"chanceToSpawn": 4,
	"treasureGoal": 
		[
			5,
			0,
			6,
			0,
			7,
			0,
			8,
			0
		],
	"easyProbability": 
		[
			100,
			0,
			0,
			100,
			100,
			100
		],
	"normalProbability": 
		[
			100,
			0,
			0,
			100,
			100,
			100
		],
	"enableTimeBomb": false,
	"movePerTimeBomb": 5,
	"minTimeBombCount": 1,
	"maxTimeBombCount": 81,
	"defaultFallBackTime": 9,
	"fallBackTime": 
		[
			0,
			0,
			0,
			0,
			0,
			0,
			0,
			0,
			0,
			0,
			0,
			0,
			0,
			0,
			0,
			0,
			0,
			0,
			0,
			0,
			0,
			0,
			0,
			0,
			0,
			0,
			0,
			0,
			0,
			0,
			0,
			0,
			0,
			0,
			0,
			0,
			0,
			0,
			0,
			0,
			0,
			0,
			0,
			0,
			0,
			0,
			0,
			0,
			0,
			0,
			0,
			0,
			0,
			0,
			0,
			0,
			0,
			0,
			0,
			0,
			0,
			0,
			0,
			0,
			0,
			0,
			0,
			0,
			0,
			0,
			0,
			0,
			0,
			0,
			0,
			0,
			0,
			0,
			0,
			0,
			0
		],
	"enableSpiralSnow": false,
	"movePerSpiralSnow": 0,
	"minSpiralSnowCount": 0,
	"maxSpiralSnowCount": 0,
	"specialJewels": 
		[
			0,
			0,
			0,
			0,
			0,
			0,
			0,
			0,
			0,
			0,
			0,
			0,
			0,
			0
		],
	"maxPenguinOnScreen": 4,
	"numberOfPenguin": 0,
	"penguinSpawn": 
		[],
	"movePerPenguin": 0,
	"enableMysteryPiece": false,
	"movePerMysteryPiece": 5,
	"minMysteryPieceCount": 1,
	"maxMysteryPieceCount": 81,
	"mysteryPieceConvertProbability": 
		[
			100,
			100,
			30,
			80,
			70,
			29,
			80,
			80,
			50,
			30,
			20,
			100,
			1,
			80,
			50,
			50,
			20,
			30,
			0
		],
	"enableChameleon": false,
	"movePerChameleon": 5,
	"minChameleonPieceCount": 0,
	"maxChameleonPieceCount": 81,
	"chameleonSpawnColumn": 
		[
			0
		],
	"yetiHealth": 0,
	"attackPerMove": 0,
	"yetiBallDropProbability": 0,
	"minYetiBallPieceCount": 0,
	"maxYetiBallPieceCount": 0,
	"minYetiAttackCount": 0,
	"maxYetiAttackCount": 0,
	"attackConvertProbability": 
		[
			25,
			20,
			10,
			5,
			5,
			5,
			5,
			20,
			5
		],
	"yetiBallSpawnColumn": 
		[],
	"episodeIdx": 0,
	"portalTypes": 
		[
			0,
			0,
			0,
			0,
			0,
			0,
			0,
			0,
			0,
			0,
			0,
			0,
			0,
			0,
			0,
			0,
			0,
			0,
			0,
			0,
			0,
			0,
			0,
			0,
			0,
			0,
			0,
			0,
			0,
			0,
			0,
			0,
			0,
			0,
			0,
			0,
			0,
			0,
			0,
			0,
			0,
			0,
			0,
			0,
			0,
			0,
			0,
			0,
			0,
			0,
			0,
			0,
			0,
			0,
			0,
			0,
			0,
			0,
			0,
			0,
			0,
			0,
			0,
			0,
			0,
			0,
			0,
			0,
			0,
			0,
			0,
			0,
			0,
			0,
			0,
			0,
			0,
			0,
			0,
			0,
			0
		],
	"portalIndices": 
		[
			0,
			0,
			0,
			0,
			0,
			0,
			0,
			0,
			0,
			0,
			0,
			0,
			0,
			0,
			0,
			0,
			0,
			0,
			0,
			0,
			0,
			0,
			0,
			0,
			0,
			0,
			0,
			0,
			0,
			0,
			0,
			0,
			0,
			0,
			0,
			0,
			0,
			0,
			0,
			0,
			0,
			0,
			0,
			0,
			0,
			0,
			0,
			0,
			0,
			0,
			0,
			0,
			0,
			0,
			0,
			0,
			0,
			0,
			0,
			0,
			0,
			0,
			0,
			0,
			0,
			0,
			0,
			0,
			0,
			0,
			0,
			0,
			0,
			0,
			0,
			0,
			0,
			0,
			0,
			0,
			0
		],
	"defaultSpawnColumn": 
		[
			0,
			1,
			2,
			3,
			4,
			5,
			6,
			7,
			8
		],
	"movePerTreasure": 0,
	"treasureSpawnCountPerMove": 0,
	"spiralSnowSpawnCountPerMove": 0,
	"timeBombSpawnCountPerMove": 0,
	"mysteryPieceSpawnCountPerMove": 0,
	"chameleonSpawnCountPerMove": 0,
	"isClearBlockerGame": false,
	"isClearCageGame": false,
	"isClearSnowGame": false,
	"isClearIcingGame": false,
	"isClearTimeBombGame": false,
	"isClearMysteryGame": false,
	"treasures": 
		[
			0,
			8,
			0,
			0,
			0
		],
	"blockers": 
		[
			0,
			0,
			0
		],
	"blockerInfos": 
		[
			{
				"enable": true,
				"interval": 1,
				"minCount": 1,
				"maxCount": 81,
				"spawnCount": 0
			},
			{
				"enable": false,
				"interval": 0,
				"minCount": 1,
				"maxCount": 1,
				"spawnCount": 0
			},
			{
				"enable": false,
				"interval": 0,
				"minCount": 1,
				"maxCount": 1,
				"spawnCount": 0
			}
		],
	"treasureSpawnColumn": 
		[
			0,
			1,
			2,
			3,
			4,
			5,
			6,
			7,
			8
		],
	"isClearCakeGame": false,
	"isClearChameleonGame": false,
	"numberOfChameleon": 0,
	"isClearPieGame": false,
	"numberOfPie": 0,
	"pieceNumberForLavaCake": 0,
	"pieceColorForLavaCake": 0,
	"blockerSpawnColumn": 
		[
			0,
			1,
			2,
			3,
			4,
			5,
			6,
			7,
			8
		]
}