%YAML 1.1
%TAG !u! tag:unity3d.com,2011:
--- !u!1 &174236
GameObject:
  m_ObjectHideFlags: 0
  m_PrefabParentObject: {fileID: 0}
  m_PrefabInternal: {fileID: 100100000}
  serializedVersion: 5
  m_Component:
  - component: {fileID: 491686}
  - component: {fileID: 11406660}
  m_Layer: 0
  m_Name: TutorialInfo_25_1
  m_TagString: Untagged
  m_Icon: {fileID: 0}
  m_NavMeshLayer: 0
  m_StaticEditorFlags: 0
  m_IsActive: 1
--- !u!4 &491686
Transform:
  m_ObjectHideFlags: 1
  m_PrefabParentObject: {fileID: 0}
  m_PrefabInternal: {fileID: 100100000}
  m_GameObject: {fileID: 174236}
  m_LocalRotation: {x: 0, y: 0, z: 0, w: 1}
  m_LocalPosition: {x: 0, y: 0, z: 0}
  m_LocalScale: {x: 1, y: 1, z: 1}
  m_Children: []
  m_Father: {fileID: 0}
  m_RootOrder: 0
  m_LocalEulerAnglesHint: {x: 0, y: 0, z: 0}
--- !u!114 &11406660
MonoBehaviour:
  m_ObjectHideFlags: 1
  m_PrefabParentObject: {fileID: 0}
  m_PrefabInternal: {fileID: 100100000}
  m_GameObject: {fileID: 174236}
  m_Enabled: 1
  m_EditorHideFlags: 0
  m_Script: {fileID: 11500000, guid: e26a08573fb88e94b8be152476ac9658, type: 3}
  m_Name: 
  m_EditorClassIdentifier: 
  m_Stage: 25
  m_Page: 1
  List_MaskBoard:
  - touch: 0
    coordinate: {x: 5, y: 6}
    addPos: {x: 0, y: 0}
  - touch: 0
    coordinate: {x: 7, y: 6}
    addPos: {x: 0, y: 0}
  - touch: 1
    coordinate: {x: 6, y: 5}
    addPos: {x: 0, y: 0}
  - touch: 1
    coordinate: {x: 6, y: 6}
    addPos: {x: 0, y: 0}
  - touch: 0
    coordinate: {x: 5, y: 7}
    addPos: {x: 0, y: 0}
  - touch: 0
    coordinate: {x: 6, y: 7}
    addPos: {x: 0, y: 0}
  - touch: 0
    coordinate: {x: 7, y: 7}
    addPos: {x: 0, y: 0}
  List_MaskTarget: []
  CharacterPosition: 1
  m_TalkBox_Hight: 214
  m_ArrowBottom: 0
  m_BtnBottom: 0
  m_TextTableIndex: 325
  List_Seed: 
--- !u!1001 &100100000
Prefab:
  m_ObjectHideFlags: 1
  serializedVersion: 2
  m_Modification:
    m_TransformParent: {fileID: 0}
    m_Modifications: []
    m_RemovedComponents: []
  m_ParentPrefab: {fileID: 0}
  m_RootGameObject: {fileID: 174236}
  m_IsPrefabParent: 1
